result,data,num_ativos,lista_ativos,oper_ativos
0.9346512406563188,"Jan 04, 2010""0"
1.0831497840590822,"Sep 01, 2010""0"
0.9572303640952193,"Apr 01, 2010""0"
1.0598622340503985,"Jun 01, 2010""0"
1.076841788938594,"Mar 01, 2010""0"
1.012440197958641,"Feb 01, 2010""0"
0.9236478829981023,"May 03, 2010""0"
1.0398325239786748,"Oct 01, 2010""0"
0.9914196788084457,"Nov 01, 2010""0"
0.9944101611490357,"Aug 02, 2010""0"
1.080282065167721,"Jul 01, 2010""0"