result,data,num_ativos,lista_ativos,oper_ativos,volatilidade
0.940438027545053,"Jan 04, 2010","8","['LREN3', 'MRVE3', 'BRKM5', 'VALE3', 'ITSA4', 'DTEX3', 'LAME4', 'ELET3']","[1.5, 1.25, 0.75, 0.5, 0.5, 0.5, 0.25, 0.25]","nan"
0.9994465204629273,"Feb 01, 2010","4","['MMXM3', 'ELET3', 'EMBR3', 'CPFE3']","[0.25, 0.25, 0.25, 0.25]","0.0006326229971772343"
0.9941764196322322,"Mar 01, 2010","8","['BRAP4', 'VALE3', 'MMXM3', 'EMBR3', 'CSAN3', 'CPFE3', 'DTEX3', 'LIGT3']","[1.75, 1.25, 0.25, 0.25, 0.25, 0.25, 0.25, 0.25]","0.0005810729741192295"
0.9387683458849838,"Apr 01, 2010","4","['VALE3', 'GGBR4', 'BRAP4', 'EMBR3']","[0.375, 0.25, 0.25, 0.25]","0.0005141288432572004"
1,"0","0","0","0","0"
1,"0","0","0","0","0"
1.0819953640516309,"Jul 01, 2010","5","['PDGR3', 'LAME4', 'CPFE3', 'TRPL4', 'TIMP3']","[2.0, 1.75, 0.5, 0.25, 0.25]","0.010093443410685462"
0.9946001457987916,"Aug 02, 2010","8","['CMIG4', 'DTEX3', 'ABEV3', 'CPFE3', 'BRKM5', 'RSID3', 'GGBR4', 'ITSA4']","[2.0, 1.0, 0.25, 0.25, 0.25, 0.25, 0.25, 0.25]","0.0003555512202572862"
1,"0","0","0","0","0"
0.9585403581578524,"Jan 03, 2011","8","['CCRO3', 'GOAU4', 'BRKM5', 'GGBR4', 'BRFS3', 'KLBN4', 'SBSP3', 'VALE3']","[2.0, 2.0, 1.0, 0.75, 0.375, 0.375, 0.25, 0.25]","0.00010358690824425706"
1.0236810446784528,"Jan 31, 2011","4","['TRPL4', 'TIMP3', 'LIGT3', 'EMBR3']","[1.0, 0.25, 0.25, 0.25]","0.012153654942997501"
1.0296288191978331,"Mar 01, 2011","7","['LIGT3', 'PETR3', 'TIMP3', 'USIM3', 'BRFS3', 'EMBR3', 'PETR4']","[0.75, 0.625, 0.25, 0.25, 0.25, 0.25, 0.25]","0.00011441430689730713"
0.9797948792030887,"Mar 31, 2011","8","['BRKM5', 'CPFE3', 'LREN3', 'USIM3', 'LIGT3', 'ELET6', 'ELET3', 'RDCD3']","[0.75, 0.25, 0.25, 0.25, 0.25, 0.25, 0.25, 0.25]","7.762320109884744e-05"
0.9873258671553875,"May 02, 2011","8","['SBSP3', 'CPFE3', 'TIMP3', 'CCRO3', 'CESP6', 'BRKM5', 'MRFG3', 'RSID3']","[0.25, 0.25, 0.25, 0.25, 0.25, 0.25, 0.25, 0.25]","0.00024865692788297357"
0.9527989096265279,"May 31, 2011","8","['CESP6', 'CYRE3', 'SBSP3', 'TIMP3', 'CCRO3', 'BRKM5', 'LAME4', 'MRVE3']","[2.0, 2.0, 0.25, 0.25, 0.25, 0.25, 0.25, 0.25]","0.00027776266267727197"
0.966508461315097,"Jul 01, 2011","4","['RDCD3', 'TIMP3', 'LREN3', 'CSAN3']","[2.0, 1.25, 1.25, 0.25]","0.00018042346776114124"
1.1812846537670973,"Jun 01, 2016","6","['ELET3', 'RADL3', 'EQTL3', 'CSAN3', 'QUAL3', 'ECOR3']","[1.75, 0.25, 0.25, 0.25, 0.25, 0.25]","0.0003233902499234465"
1.1284795723548549,"Jul 01, 2016","5","['CPFE3', 'LREN3', 'SBSP3', 'LAME4', 'QUAL3']","[2.0, 0.25, 0.25, 0.25, 0.25]","0.00025352980525509026"
1.014546390084011,"Aug 01, 2016","8","['GGBR4', 'CSNA3', 'BBAS3', 'ENBR3', 'BRAP4', 'GOAU4', 'LREN3', 'BRML3']","[1.125, 1.125, 1.0, 0.75, 0.5, 0.5, 0.25, 0.25]","0.0008338323306986045"
0.9991445676126194,"Sep 01, 2016","8","['BRFS3', 'UGPA3', 'VIVT4', 'WEGE3', 'PCAR4', 'KLBN11', 'TIMP3', 'GGBR4']","[0.25, 0.25, 0.25, 0.25, 0.25, 0.25, 0.25, 0.25]","0.0002511542384452767"
1.0952335590065094,"Oct 03, 2016","8","['ITUB4', 'ABEV3', 'BBAS3', 'BBSE3', 'CESP6', 'BBDC4', 'PETR4', 'JBSS3']","[1.25, 1.25, 1.25, 1.25, 1.25, 0.25, 0.25, 0.25]","0.00044793178419211624"
0.8762804455721663,"Nov 01, 2016","8","['TIMP3', 'MRVE3', 'PETR4', 'ECOR3', 'LREN3', 'LAME4', 'BRML3', 'BRKM5']","[2.0, 1.25, 1.0, 0.375, 0.25, 0.25, 0.25, 0.25]","0.00039167475138644314"
0.9457582218358864,"Dec 01, 2016","7","['GOAU4', 'GGBR4', 'CSNA3', 'BRAP4', 'BBAS3', 'SANB11', 'USIM5']","[1.0, 0.5, 0.5, 0.5, 0.25, 0.25, 0.25]","0.0016905809705121614"
0.9802683662446883,"Jan 02, 2017","4","['JBSS3', 'BRKM5', 'KLBN11', 'MRFG3']","[1.25, 0.25, 0.25, 0.25]","0.00033532595948128715"
1.0298219531078876,"Feb 01, 2017","8","['BBSE3', 'WEGE3', 'TIMP3', 'BBDC4', 'BBDC3', 'HYPE3', 'ITUB4', 'SBSP3']","[2.75, 2.0, 1.75, 1.0, 1.0, 1.0, 0.75, 0.75]","0.000349907795058713"
0.9734107579599862,"Mar 01, 2017","8","['BBAS3', 'CMIG4', 'ITSA4', 'ABEV3', 'BRML3', 'BBDC3', 'CCRO3', 'ITUB4']","[1.25, 1.25, 1.125, 0.75, 0.75, 0.5, 0.5, 0.25]","0.00036892332930222986"
1.0626933161717222,"Apr 03, 2017","7","['MULT3', 'PCAR4', 'EGIE3', 'ABEV3', 'TIMP3', 'RENT3', 'MRVE3']","[1.75, 1.25, 1.0, 0.25, 0.25, 0.25, 0.25]","0.00017264156589808167"
1.0276442700038926,"Nov 01, 2011","8","['GGBR4', 'CPFE3', 'ITUB4', 'ITSA4', 'TRPL4', 'SBSP3', 'CCRO3', 'ELET6']","[1.75, 0.75, 0.625, 0.375, 0.25, 0.25, 0.25, 0.25]","0.004755275837934622"
1,"0","0","0","0","0"
1.03470791327248,"Jan 02, 2012","8","['CPLE6', 'ELET6', 'CMIG4', 'SBSP3', 'LIGT3', 'CSAN3', 'CIEL3', 'ELET3']","[1.0, 0.75, 0.5, 0.25, 0.25, 0.25, 0.25, 0.25]","8.669069192717366e-05"
1.0489813601756326,"Feb 01, 2012","8","['BRKM5', 'PDGR3', 'BRML3', 'JBSS3', 'USIM5', 'PCAR4', 'LREN3', 'DTEX3']","[2.875, 2.5, 2.25, 2.0, 2.0, 0.75, 0.75, 0.25]","0.00027702262334481997"
0.9307113175592645,"Mar 01, 2012","8","['GOLL4', 'RDCD3', 'CESP6', 'BRAP4', 'BTOW3', 'CSAN3', 'BRKM5', 'ELET3']","[1.75, 0.5, 0.25, 0.25, 0.25, 0.25, 0.25, 0.25]","0.00018106373441739785"
0.9898581513345257,"Apr 02, 2012","8","['CCRO3', 'SANB11', 'PCAR4', 'ABEV3', 'UGPA3', 'VIVT4', 'MRFG3', 'HYPE3']","[1.0, 1.0, 0.75, 0.75, 0.25, 0.25, 0.25, 0.25]","0.00025746666534039647"
0.9172043860607404,"May 02, 2012","5","['BRML3', 'SBSP3', 'PCAR4', 'UGPA3', 'DTEX3']","[1.75, 0.5, 0.25, 0.25, 0.25]","0.000505384085607367"
1,"0","0","0","0","0"
0.9876455187428912,"May 02, 2017","6","['VIVT4', 'WEGE3', 'ABEV3', 'CIEL3', 'HYPE3', 'MRVE3']","[1.25, 1.25, 0.25, 0.25, 0.25, 0.25]","9.410137227511172e-05"
0.9541067300361267,"May 31, 2017","6","['PCAR4', 'QUAL3', 'ABEV3', 'BRFS3', 'UGPA3', 'WEGE3']","[0.75, 0.625, 0.25, 0.25, 0.25, 0.25]","0.00015759500484509466"
1.0571945139667656,"Jul 03, 2017","4","['ENBR3', 'VALE3', 'QUAL3', 'GOAU4']","[1.75, 1.25, 0.25, 0.25]","0.0003017647377453935"
1.1058321013041001,"Jul 31, 2017","8","['LREN3', 'BBDC3', 'USIM5', 'ITUB4', 'BBDC4', 'ITSA4', 'CCRO3', 'EQTL3']","[0.75, 0.75, 0.75, 0.25, 0.25, 0.25, 0.25, 0.25]","0.0002607515507437239"
1.0456994162200952,"Aug 31, 2017","8","['EGIE3', 'CMIG4', 'KLBN11', 'ITUB4', 'BBDC4', 'ELET3', 'BBAS3', 'BRFS3']","[2.0, 2.0, 1.0, 0.75, 0.75, 0.75, 0.25, 0.25]","9.118670008480659e-05"
1.0248480719372615,"Oct 02, 2017","8","['BBAS3', 'MRFG3', 'ITUB4', 'BBDC4', 'PETR4', 'PETR3', 'BRFS3', 'UGPA3']","[0.75, 0.625, 0.25, 0.25, 0.25, 0.25, 0.25, 0.25]","0.00010784247955870167"
1,"0","0","0","0","0"
1.0612527812911525,"Dec 01, 2017","5","['MRFG3', 'RADL3', 'CIEL3', 'SANB11', 'ECOR3']","[1.75, 1.125, 0.25, 0.25, 0.25]","0.00011877229016893172"
1.0583747222028563,"Jan 02, 2018","8","['USIM5', 'EQTL3', 'TAEE11', 'CYRE3', 'ABEV3', 'MRFG3', 'HYPE3', 'RENT3']","[3.0, 2.0, 2.0, 2.0, 1.25, 1.25, 1.0, 0.625]","0.00017162215746346543"
0.9767159588582591,"Jan 31, 2018","8","['UGPA3', 'RAIL3', 'BBSE3', 'IGTA3', 'CYRE3', 'VALE3', 'ABEV3', 'CIEL3']","[1.25, 1.25, 1.0, 0.625, 0.625, 0.25, 0.25, 0.25]","0.00014263571191175972"
1,"0","0","0","0","0"
1,"0","0","0","0","0"
1,"0","0","0","0","0"
1.0706877710847045,"Oct 01, 2015","5","['EMBR3', 'CSNA3', 'JBSS3', 'KLBN11', 'BRKM5']","[1.75, 1.75, 0.25, 0.25, 0.25]","0.00011371709287743211"
1.0274383940434924,"Nov 03, 2015","8","['HYPE3', 'ABEV3', 'UGPA3', 'KLBN11', 'CSNA3', 'MULT3', 'BRPR3', 'DTEX3']","[1.75, 0.25, 0.25, 0.25, 0.25, 0.25, 0.25, 0.25]","0.00019262586021515262"
0.9670694860522888,"Dec 01, 2015","8","['ITUB4', 'HYPE3', 'SBSP3', 'KLBN11', 'SANB11', 'BRML3', 'CPFE3', 'RENT3']","[2.0, 0.875, 0.5, 0.25, 0.25, 0.25, 0.25, 0.25]","0.00022328093624854052"
0.9918350645487233,"Oct 01, 2012","8","['CSAN3', 'LREN3', 'GOAU4', 'DTEX3', 'BRKM5', 'LAME4', 'GOLL4', 'MRFG3']","[0.375, 0.25, 0.25, 0.25, 0.25, 0.25, 0.25, 0.25]","0.00031747406858498826"
1.0194596572291565,"Oct 31, 2012","8","['CCRO3', 'BRAP4', 'BRFS3', 'MRVE3', 'PCAR4', 'CPFE3', 'ABEV3', 'CSAN3']","[1.75, 1.0, 0.75, 0.75, 0.25, 0.25, 0.25, 0.25]","0.00011343729173240973"
1,"0","0","0","0","0"
1.006945276227119,"Jan 02, 2013","8","['SBSP3', 'CIEL3', 'MRVE3', 'BRFS3', 'SANB11', 'VIVT4', 'CSAN3', 'LREN3']","[3.0, 2.0, 2.0, 1.5, 1.25, 1.0, 0.5, 0.25]","8.352306672093735e-05"
0.9781800130093529,"Jan 31, 2013","8","['ELET6', 'KLBN4', 'CESP6', 'CPLE6', 'VIVT4', 'DASA3', 'CCRO3', 'CYRE3']","[0.75, 0.75, 0.25, 0.25, 0.25, 0.25, 0.25, 0.25]","6.840415001884261e-05"
0.9876934328024958,"Mar 01, 2013","7","['BBAS3', 'CIEL3', 'ITSA4', 'TRPL4', 'SBSP3', 'UGPA3', 'BRKM5']","[1.875, 1.5, 0.5, 0.25, 0.25, 0.25, 0.25]","0.002913819561343867"
0.9796691647099514,"Apr 01, 2013","7","['PCAR4', 'VIVT4', 'DTEX3', 'EMBR3', 'KLBN4', 'BBAS3', 'ITUB4']","[0.25, 0.25, 0.25, 0.25, 0.25, 0.25, 0.25]","0.00016797024745318759"
1,"0","0","0","0","0"
0.9982099680007529,"Apr 02, 2018","8","['EQTL3', 'TAEE11', 'ABEV3', 'PETR4', 'PETR3', 'RENT3', 'EGIE3', 'CMIG4']","[2.0, 1.25, 0.25, 0.25, 0.25, 0.25, 0.25, 0.25]","0.0001092350043519713"
0.9333452019172522,"May 02, 2018","8","['VALE3', 'CMIG4', 'PETR4', 'PETR3', 'SANB11', 'LAME4', 'KLBN11', 'TAEE11']","[2.125, 1.75, 0.25, 0.25, 0.25, 0.25, 0.25, 0.25]","0.00017304948434915965"
1.0155554099354245,"Jun 01, 2018","6","['BRAP4', 'CSNA3', 'WEGE3', 'SUZB3', 'MGLU3', 'MRFG3']","[1.0, 0.75, 0.25, 0.25, 0.25, 0.25]","0.0003871231366398279"
0.9984682250261784,"Jul 02, 2018","5","['PCAR4', 'EMBR3', 'JBSS3', 'BRKM5', 'MGLU3']","[2.0, 0.25, 0.25, 0.25, 0.25]","0.0004267743681358215"
0.948285486780714,"Aug 01, 2018","8","['WEGE3', 'LAME4', 'BRML3', 'MULT3', 'GOAU4', 'ELET3', 'LREN3', 'PCAR4']","[2.0, 2.0, 2.0, 2.0, 2.0, 2.0, 1.75, 1.75]","0.00015467922209113296"
1.0337319331795227,"Sep 03, 2018","7","['WEGE3', 'KLBN11', 'BRKM5', 'VALE3', 'PCAR4', 'HYPE3', 'GOAU4']","[1.75, 1.25, 0.5, 0.25, 0.25, 0.25, 0.25]","0.00012734174112515102"
0.9751236931627262,"Oct 01, 2018","5","['BRAP4', 'VALE3', 'JBSS3', 'WEGE3', 'GOAU4']","[0.5, 0.25, 0.25, 0.25, 0.25]","0.00032499489914121217"
1.0583203804267276,"Nov 01, 2018","8","['PETR4', 'CMIG4', 'PETR3', 'B3SA3', 'RAIL3', 'JBSS3', 'LAME4', 'CCRO3']","[0.75, 0.75, 0.25, 0.25, 0.25, 0.25, 0.25, 0.25]","0.0002704415821612791"
1.0083498230798353,"Dec 03, 2018","8","['MGLU3', 'EQTL3', 'SBSP3', 'EGIE3', 'LAME4', 'BBAS3', 'UGPA3', 'BTOW3']","[1.75, 1.25, 1.25, 1.125, 0.875, 0.5, 0.5, 0.5]","0.0001749361665989474"
1.120911834953573,"Dec 28, 2018","8","['EMBR3', 'MGLU3', 'BBDC4', 'BBAS3', 'LREN3', 'BBDC3', 'JBSS3', 'BRFS3']","[1.75, 0.625, 0.25, 0.25, 0.25, 0.25, 0.25, 0.25]","0.0002132068131955263"
0.9606233699502814,"Feb 01, 2019","8","['VIVT4', 'FLRY3', 'CCRO3', 'CPLE6', 'UGPA3', 'B3SA3', 'ITSA4', 'LREN3']","[1.75, 1.75, 1.125, 1.0, 0.875, 0.75, 0.75, 0.25]","0.0002535681698147623"
0.9582262496340807,"Mar 01, 2019","8","['USIM5', 'CVCB3', 'BBAS3', 'RAIL3', 'RENT3', 'CMIG4', 'PCAR4', 'CIEL3']","[1.75, 1.0, 0.25, 0.25, 0.25, 0.25, 0.25, 0.25]","0.0002663082259817432"
0.9735973213508065,"Apr 01, 2019","4","['BRKM5', 'PETR4', 'PETR3', 'RADL3']","[1.0, 0.25, 0.25, 0.25]","0.00024969708690202454"
1.037850078075584,"May 02, 2019","8","['BBDC4', 'EGIE3', 'JBSS3', 'BRAP4', 'FLRY3', 'CSAN3', 'CPLE6', 'SMLS3']","[2.0, 0.375, 0.25, 0.25, 0.25, 0.25, 0.25, 0.25]","0.00015211267879139645"
1.038029190541065,"Jun 03, 2019","8","['VVAR3', 'RADL3', 'CSAN3', 'CCRO3', 'LREN3', 'BBSE3', 'JBSS3', 'RENT3']","[2.0, 1.75, 1.25, 0.375, 0.25, 0.25, 0.25, 0.25]","0.00017102876621773815"
0.953961891885085,"Jul 01, 2019","8","['VALE3', 'HYPE3', 'BRAP4', 'ITSA4', 'ITUB4', 'BBDC4', 'B3SA3', 'BBAS3']","[2.0, 2.0, 2.0, 0.5, 0.25, 0.25, 0.25, 0.25]","0.00019617148530823205"
1.0240718921529588,"Aug 01, 2019","8","['PCAR4', 'MRVE3', 'ABEV3', 'EGIE3', 'RADL3', 'JBSS3', 'BRFS3', 'VIVT4']","[2.0, 2.0, 1.125, 1.125, 0.5, 0.25, 0.25, 0.25]","0.0002591945936132188"
1.0062848436850373,"Sep 02, 2019","8","['B3SA3', 'JBSS3', 'RADL3', 'CCRO3', 'HYPE3', 'ELET3', 'ELET6', 'CVCB3']","[0.25, 0.25, 0.25, 0.25, 0.25, 0.25, 0.25, 0.25]","0.00040908845246628834"
1.0386207500540274,"Oct 01, 2019","8","['TAEE11', 'PETR4', 'PETR3', 'GOAU4', 'JBSS3', 'MGLU3', 'LAME4', 'BTOW3']","[2.0, 1.75, 1.25, 1.0, 0.75, 0.5, 0.5, 0.5]","0.0002006212328022551"
1.0566887360457171,"Nov 01, 2019","8","['FLRY3', 'B3SA3', 'UGPA3', 'BBSE3', 'GGBR4', 'IRBR3', 'BRML3', 'HYPE3']","[1.75, 0.25, 0.25, 0.25, 0.25, 0.25, 0.25, 0.25]","8.266194008533922e-05"
1.0625940300111143,"Sep 02, 2013","8","['BTOW3', 'BRAP4', 'CIEL3', 'ELET3', 'JBSS3', 'MRVE3', 'USIM5', 'RSID3']","[0.25, 0.25, 0.25, 0.25, 0.25, 0.25, 0.25, 0.25]","0.00026475373861893544"
1.0630429575625053,"Oct 01, 2013","8","['LIGT3', 'ELET3', 'CPLE6', 'USIM3', 'GOLL4', 'CCRO3', 'JBSS3', 'TIMP3']","[1.75, 0.375, 0.25, 0.25, 0.25, 0.25, 0.25, 0.25]","0.000216097936227348"
0.970968946408654,"Nov 01, 2013","8","['VIVT4', 'ITUB4', 'CPLE6', 'LREN3', 'CSAN3', 'UGPA3', 'RENT3', 'LIGT3']","[1.25, 0.5, 0.25, 0.25, 0.25, 0.25, 0.25, 0.25]","0.00010142233096883753"
1.0314240649014463,"Dec 02, 2013","8","['CCRO3', 'ABEV3', 'SBSP3', 'USIM3', 'GOAU4', 'CIEL3', 'BRKM5', 'JBSS3']","[0.75, 0.25, 0.25, 0.25, 0.25, 0.25, 0.25, 0.25]","0.00011003396716285345"
0.9188654541148218,"Jan 02, 2014","8","['BRKM5', 'KLBN4', 'TIMP3', 'SBSP3', 'USIM5', 'GGBR4', 'GFSA3', 'JBSS3']","[2.0, 2.0, 1.75, 0.625, 0.5, 0.25, 0.25, 0.25]","0.00017797540253927893"
0.9157360979611592,"Feb 03, 2014","7","['USIM5', 'CSNA3', 'OIBR4', 'KLBN4', 'DASA3', 'MRFG3', 'OIBR3']","[2.0, 1.375, 0.25, 0.25, 0.25, 0.25, 0.25]","0.00037189238732927523"
1.0646278609506248,"Mar 05, 2014","5","['CESP6', 'GOLL4', 'DASA3', 'EMBR3', 'BTOW3']","[1.75, 0.25, 0.25, 0.25, 0.25]","0.0002777043714312955"
1.0593572684467056,"Apr 01, 2014","7","['BRFS3', 'GOLL4', 'CCRO3', 'ABEV3', 'BRML3', 'PCAR4', 'RENT3']","[2.0, 2.0, 0.75, 0.25, 0.25, 0.25, 0.25]","0.00017062759188326014"
0.9980481857383601,"May 02, 2014","8","['HYPE3', 'CYRE3', 'CESP6', 'PETR4', 'BBDC4', 'BBAS3', 'ITSA4', 'PETR3']","[1.75, 1.75, 0.75, 0.25, 0.25, 0.25, 0.25, 0.25]","0.00023264940833285608"
1.039170846271783,"Jun 02, 2014","8","['SANB11', 'BBDC3', 'CIEL3', 'PDGR3', 'HYPE3', 'SBSP3', 'LREN3', 'TRPL4']","[1.0, 1.0, 0.25, 0.25, 0.25, 0.25, 0.25, 0.25]","0.00018116067347302654"
0.9960898446122776,"Jul 01, 2014","8","['MRVE3', 'CYRE3', 'CIEL3', 'BBSE3', 'BBAS3', 'CCRO3', 'CMIG4', 'TIMP3']","[2.0, 1.75, 0.875, 0.25, 0.25, 0.25, 0.25, 0.25]","0.00011495501583198867"
1.123452175480151,"Aug 01, 2014","8","['ECOR3', 'BBDC4', 'BBDC3', 'EGIE3', 'RENT3', 'ENBR3', 'LIGT3', 'ELET6']","[1.0, 0.25, 0.25, 0.25, 0.25, 0.25, 0.25, 0.25]","0.0001844476151954895"
0.9505601422548622,"Sep 01, 2014","8","['BRKM5', 'SANB11', 'BRAP4', 'BRPR3', 'ABEV3', 'PCAR4', 'EMBR3', 'CMIG4']","[2.0, 1.75, 0.875, 0.5, 0.25, 0.25, 0.25, 0.25]","5.672064468791843e-05"
0.9844252508994702,"Oct 01, 2014","8","['EVEN3', 'ABEV3', 'EMBR3', 'SANB11', 'VIVT4', 'TIMP3', 'OIBR4', 'BRKM5']","[1.0, 0.25, 0.25, 0.25, 0.25, 0.25, 0.25, 0.25]","7.440377782984765e-05"
1,"0","0","0","0","0"
0.9712718385814726,"Dec 01, 2014","8","['UGPA3', 'CIEL3', 'ABEV3', 'BBSE3', 'VIVT4', 'GOLL4', 'BRFS3', 'JBSS3']","[2.5, 2.25, 2.0, 2.0, 2.0, 2.0, 0.25, 0.25]","0.00014274114261066017"
0.9297916619117815,"Jan 02, 2015","8","['MRFG3', 'ABEV3', 'EGIE3', 'GOLL4', 'LAME4', 'EMBR3', 'LREN3', 'QUAL3']","[3.25, 1.75, 1.75, 1.75, 1.25, 0.25, 0.25, 0.25]","0.00021129051876397868"
1,"0","0","0","0","0"
1.026128005283112,"Mar 02, 2015","5","['PETR4', 'PETR3', 'CYRE3', 'VIVT4', 'GGBR4']","[2.0, 1.75, 1.25, 0.25, 0.25]","0.00039986974896692333"
1.0670505661052374,"Apr 01, 2015","8","['ELET3', 'EVEN3', 'BRPR3', 'CYRE3', 'GFSA3', 'ABEV3', 'CIEL3', 'BBSE3']","[2.25, 1.25, 1.0, 0.75, 0.75, 0.25, 0.25, 0.25]","0.00023861601404800165"