result,data,num_ativos,lista_ativos,oper_ativos,volatilidade
0.8904834308191069,"Jan 04, 2010","2","['CYRE3', 'LREN3']","[1.5, 1.5]","nan"
1.0879788075264059,"Feb 01, 2010","2","['BTOW3', 'MMXM3']","[0.375, 0.25]","0.0012791252723643514"
1.1332625548333535,"Mar 01, 2010","2","['PETR3', 'RDCD3']","[1.75, 1.75]","0.0003999244177807486"
0.9465795594384507,"Apr 01, 2010","2","['VALE3', 'GGBR4']","[0.375, 0.25]","0.0005747331606261719"
0.9540761985952696,"May 03, 2010","2","['GGBR4', 'SBSP3']","[0.25, 0.25]","0.00047327246403670186"
1.0506933838772423,"Jun 01, 2010","2","['RSID3', 'MRVE3']","[1.75, 1.5]","0.000999096762823083"
1.1951526601183882,"Jul 01, 2010","2","['PDGR3', 'LAME4']","[2.0, 1.75]","0.012388591037625544"
1.0069965004370949,"Aug 02, 2010","2","['CMIG4', 'DTEX3']","[2.0, 1.0]","0.00047700159433878837"
1.029083888003219,"Sep 01, 2010","2","['BTOW3', 'GOAU4']","[1.75, 0.5]","0.0003474611193156253"
0.940001749129665,"Oct 01, 2010","2","['BRFS3', 'USIM5']","[2.0, 1.5]","0.0001763316886031604"
1.0228143829530256,"Nov 01, 2010","2","['CESP6', 'BRAP4']","[1.25, 0.75]","0.00037860098656981064"
1.0930406997211946,"Dec 01, 2010","2","['ABEV3', 'BRKM5']","[0.25, 0.25]","0.00042374458937875087"
0.953772693191138,"Jan 03, 2011","2","['CCRO3', 'GOAU4']","[2.0, 2.0]","8.811194624698544e-05"
0.9982078733088939,"Feb 01, 2011","2","['CESP6', 'SANB11']","[2.0, 1.625]","0.0004015428324732177"
1,"0","0","0","0","0"
0.9610043457934813,"Apr 04, 2011","2","['CCRO3', 'DTEX3']","[2.75, 1.875]","0.0002691386206020017"
1.0189340220341292,"May 02, 2011","2","['BBAS3', 'JBSS3']","[1.5, 0.625]","0.0001595365545550472"
1.01697157175964,"Jun 01, 2011","2","['LREN3', 'CSAN3']","[2.0, 1.75]","0.00042204774720038055"
0.9972483345109895,"Jul 01, 2011","2","['RDCD3', 'ITUB4']","[2.0, 1.5]","0.00016754750516694364"
0.8846753636555933,"Aug 01, 2011","2","['PETR3', 'JBSS3']","[1.5, 0.75]","0.0025037363017449197"
0.8842125975703277,"Sep 01, 2011","2","['TIMP3', 'SANB11']","[2.0, 1.75]","0.0004901629762736362"
1.1128117726041595,"Oct 03, 2011","2","['PCAR4', 'EMBR3']","[1.75, 1.25]","0.00031752933740064853"
1.9185597435304556,"Jun 01, 2016","2","['ELET3', 'OIBR3']","[1.75, 1.5]","0.0007801428183988201"
1.105816328386294,"Jul 01, 2016","2","['CPFE3', 'VIVT4']","[2.0, 1.0]","0.000389699142565085"
1.061873358415785,"Aug 01, 2016","2","['HYPE3', 'GGBR4']","[1.125, 1.125]","0.0007423142050052081"
0.9924873012134912,"Sep 01, 2016","2","['BRFS3', 'UGPA3']","[0.25, 0.25]","0.0001351615543715528"
1.2092464330044395,"Oct 03, 2016","2","['CSNA3', 'VALE3']","[1.75, 1.5]","0.0020394670879569604"
0.9268618963882752,"Nov 01, 2016","2","['TIMP3', 'MRVE3']","[2.0, 1.25]","0.00036453565057568114"
0.7899411195615142,"Dec 01, 2016","2","['GOAU4', 'GGBR4']","[1.0, 0.5]","0.0021080864329441978"
1.0852135762044801,"Jan 02, 2017","2","['BBAS3', 'PCAR4']","[1.75, 1.5]","0.0008873490259780637"
1.039543997866815,"Feb 01, 2017","2","['BBSE3', 'WEGE3']","[2.75, 2.0]","0.0003655283655796325"
0.991863347800324,"Mar 01, 2017","2","['BBAS3', 'CMIG4']","[1.25, 1.25]","0.0009718034407917831"
1.105655622370345,"Apr 03, 2017","2","['MULT3', 'PCAR4']","[1.75, 1.25]","0.00031263973452198216"
0.8962514616716448,"May 02, 2017","2","['ITSA4', 'BBDC4']","[1.75, 1.5]","0.0003617810751656694"
1.0479108149370122,"Jun 01, 2017","2","['BRKM5', 'GGBR4']","[2.0, 1.75]","0.0007144100833173582"
1.042275115408231,"Jul 03, 2017","2","['ENBR3', 'VALE3']","[1.75, 1.25]","0.00020799616119894515"
1.1020237499130272,"Aug 01, 2017","2","['LAME4', 'CSAN3']","[2.0, 2.0]","0.0003515844396270298"
0.981040375471512,"Sep 01, 2017","2","['CMIG4', 'UGPA3']","[1.75, 1.0]","0.0002417515701314047"
0.9904896391422519,"Oct 02, 2017","2","['BBAS3', 'MRFG3']","[0.75, 0.625]","0.0004292861379029035"
0.8763752863311394,"Nov 01, 2017","2","['PETR4', 'ELET3']","[1.25, 0.75]","0.0009990332083704315"
1.0814901508585073,"Dec 01, 2017","2","['GGBR4', 'ABEV3']","[1.875, 1.75]","0.00017273051881043315"
1.179099690190638,"Jan 02, 2018","2","['USIM5', 'EQTL3']","[3.0, 2.0]","0.0004943756542709048"
1.0270491905254833,"Feb 01, 2018","2","['SMLS3', 'CPLE6']","[2.0, 2.0]","0.00013127604732795202"
0.9338782899089946,"Mar 01, 2018","2","['ELET6', 'EQTL3']","[1.0, 0.75]","0.0005078026985653667"
1.029175242789679,"Nov 01, 2011","2","['PETR3', 'BBAS3']","[1.75, 1.75]","0.0025734565350953764"
0.9213757387468129,"Dec 01, 2011","2","['USIM5', 'MRVE3']","[2.75, 1.0]","0.0008053609329281578"
1.1760756708393036,"Jan 02, 2012","2","['BBAS3', 'MMXM3']","[1.75, 1.75]","0.00064918837192677"
0.9996589992413689,"Feb 01, 2012","2","['BRKM5', 'PDGR3']","[2.875, 2.5]","0.0008485391835244315"
0.9052846392575582,"Mar 01, 2012","2","['GOLL4', 'RDCD3']","[1.75, 0.5]","0.00017013780820991008"
0.9627754352139932,"Apr 02, 2012","2","['CCRO3', 'SANB11']","[1.0, 1.0]","0.0002793390709433971"
0.8064478241636455,"May 02, 2012","2","['BRML3', 'RSID3']","[1.75, 1.75]","0.000280351954449817"
1.0478883002463375,"Jun 01, 2012","2","['GOLL4', 'RSID3']","[0.75, 0.625]","0.0011780895552243255"
1.0669986375895686,"Jul 02, 2012","2","['UGPA3', 'BBDC4']","[2.0, 2.0]","0.0009656007857942755"
1.0351731667071369,"Aug 01, 2012","2","['ABEV3', 'RENT3']","[2.0, 2.0]","0.00033879663019690566"
1.0757985292018306,"Sep 03, 2012","2","['PCAR4', 'GFSA3']","[0.75, 0.5]","0.000263140403415788"
0.9598148431572364,"Jul 01, 2015","2","['ITUB4', 'BBDC4']","[1.75, 1.75]","0.0005106093258369112"
0.8710181321550473,"Aug 03, 2015","2","['ENBR3', 'CIEL3']","[0.375, 0.25]","0.0003867799557092453"
1.0407072617714046,"Sep 01, 2015","2","['CMIG4', 'MRFG3']","[0.75, 0.25]","0.0006580407950083993"
0.9846946391359388,"Oct 01, 2015","2","['BRFS3', 'EMBR3']","[1.75, 1.75]","0.0001977855402569624"
1.0266785952824384,"Nov 03, 2015","2","['HYPE3', 'ABEV3']","[1.75, 0.25]","0.0002579999903239888"
0.8501464172733322,"Dec 01, 2015","2","['ITUB4', 'GGBR4']","[2.0, 1.0]","0.0006561060238036321"
0.7087654046873451,"Jan 04, 2016","2","['USIM5', 'SANB11']","[0.75, 0.25]","0.0006407420232552811"
1.0835403917906588,"Feb 01, 2016","2","['HYPE3', 'USIM5']","[1.75, 0.375]","0.0005246859694929815"
1.160039805820301,"Mar 01, 2016","2","['ABEV3', 'CYRE3']","[2.0, 1.25]","0.0001814205018040334"
0.9245309676735345,"Apr 01, 2016","2","['UGPA3', 'OIBR3']","[1.25, 0.75]","0.0008566818664767896"
0.8515024642605127,"May 02, 2016","2","['TIMP3', 'PETR3']","[2.0, 0.625]","0.0010515902033664615"
1.0851259342588127,"Oct 01, 2012","2","['CSAN3', 'LREN3']","[0.375, 0.25]","0.0003688103097585363"
0.9419616772879229,"Nov 01, 2012","2","['BRAP4', 'DASA3']","[1.75, 1.25]","0.0003378888312121973"
0.9920519647862265,"Dec 03, 2012","2","['CYRE3', 'BRML3']","[1.75, 1.5]","0.00048316768947108976"
1.1353496550976436,"Dec 28, 2012","2","['UGPA3', 'ELET6']","[1.75, 1.75]","0.00014817002825623816"
0.8674576550085986,"Feb 01, 2013","2","['LREN3', 'PETR3']","[1.75, 1.0]","0.0001564716422142869"
1.004542756838498,"Mar 01, 2013","2","['BBAS3', 'CIEL3']","[1.875, 1.5]","0.00011409429519586228"
1.0017872548074624,"Mar 28, 2013","2","['TIMP3', 'PCAR4']","[1.5, 0.25]","8.800512753764458e-05"
0.9935446024183543,"May 02, 2013","2","['RENT3', 'UGPA3']","[1.75, 0.5]","0.0002041055293120747"
0.9537787489096385,"Jun 03, 2013","2","['CIEL3', 'CSNA3']","[1.25, 0.625]","0.0001227805985305467"
0.9380170526410553,"Jul 01, 2013","2","['LREN3', 'EMBR3']","[0.75, 0.25]","0.00024189491712448151"
1.0587572859767342,"Aug 01, 2013","2","['TRPL4', 'KLBN4']","[1.5, 1.5]","0.00011685315949002678"
0.9876187884424973,"Apr 02, 2018","2","['EQTL3', 'TAEE11']","[2.0, 1.25]","2.9563887243162926e-05"
1.0013337786664667,"May 02, 2018","2","['VALE3', 'CMIG4']","[2.125, 1.75]","0.0002576058012085481"
0.9728346926349883,"Jun 01, 2018","2","['BRAP4', 'CSNA3']","[1.0, 0.75]","0.0005371078872060238"
1.0548071798734586,"Jul 02, 2018","2","['PCAR4', 'FLRY3']","[2.0, 1.0]","0.00017102049627523317"
0.9472871437816796,"Aug 01, 2018","2","['WEGE3', 'LAME4']","[2.0, 2.0]","0.0002109537257125561"
1.0033556426490562,"Sep 03, 2018","2","['WEGE3', 'TIMP3']","[1.75, 1.75]","0.00018972364866176505"
1.2053191437363973,"Oct 01, 2018","2","['LAME4', 'MULT3']","[1.75, 1.75]","0.00022802755423160403"
0.937826565658117,"Nov 01, 2018","2","['QUAL3', 'PETR4']","[2.0, 0.75]","0.0002902777327113357"
1.003327012983767,"Dec 03, 2018","2","['MGLU3', 'EQTL3']","[1.75, 1.25]","0.00023469835174752098"
1.0114231326488603,"Dec 28, 2018","2","['EMBR3', 'BRKM5']","[1.75, 0.875]","0.00020858457276261668"
0.929707182441891,"Feb 01, 2019","2","['VIVT4', 'FLRY3']","[1.75, 1.75]","0.0002514381646643853"
0.9924635649148003,"Mar 01, 2019","2","['USIM5', 'EMBR3']","[1.75, 1.5]","0.00042337819883906226"
0.9799006054477978,"Apr 01, 2019","2","['BRKM5', 'SANB11']","[1.0, 0.75]","0.00025089439271132867"
1.0668158680244963,"May 02, 2019","2","['BBDC4', 'HYPE3']","[2.0, 1.875]","0.0002183418382699837"
1.014938876835582,"Jun 03, 2019","2","['VVAR3', 'SANB11']","[2.0, 1.75]","0.0002640677672637022"
0.9701831414653462,"Jul 01, 2019","2","['VALE3', 'HYPE3']","[2.0, 2.0]","0.0002706937399783682"
0.9452436642253847,"Aug 01, 2019","2","['PCAR4', 'MRVE3']","[2.0, 2.0]","0.0004504773868276486"
1.036906977947677,"Sep 02, 2019","2","['B3SA3', 'JBSS3']","[0.25, 0.25]","0.0006450181839321026"
1.0488073749283644,"Oct 01, 2019","2","['TAEE11', 'PETR4']","[2.0, 1.75]","0.0002735313902939465"
0.8724095426473781,"Nov 01, 2019","2","['ELET6', 'ELET3']","[2.25, 1.75]","0.0010342488490141712"
1.0023738995208489,"Sep 02, 2013","2","['BTOW3', 'BRAP4']","[0.25, 0.25]","0.0008301928568579207"
1.0331129912970973,"Oct 01, 2013","2","['LIGT3', 'CMIG4']","[1.75, 1.5]","0.0004628754137694527"
0.9397862837438709,"Nov 01, 2013","2","['VIVT4', 'ITUB4']","[1.25, 0.5]","0.00019783760077098162"
0.982161144865851,"Dec 02, 2013","2","['CCRO3', 'ABEV3']","[0.75, 0.25]","0.0001504246981664873"
0.9431926284303511,"Jan 02, 2014","2","['BRKM5', 'KLBN4']","[2.0, 2.0]","9.215940787308342e-05"
0.8603982439828719,"Feb 03, 2014","2","['USIM5', 'CSNA3']","[2.0, 1.375]","0.0008119884294346092"
1.1650934969684843,"Mar 05, 2014","2","['CESP6', 'BBDC3']","[1.75, 1.5]","0.00024213080034614628"
0.8576224946044865,"Apr 01, 2014","2","['USIM3', 'USIM5']","[2.25, 2.0]","0.0010182065713936074"
1.0323254703638796,"May 02, 2014","2","['HYPE3', 'CYRE3']","[1.75, 1.75]","0.0002026694014124505"
0.997526214473615,"Jun 02, 2014","2","['SANB11', 'BBDC3']","[1.0, 1.0]","0.00035293445451557227"
0.9381613325591757,"Jul 01, 2014","2","['MRVE3', 'CYRE3']","[2.0, 1.75]","0.00040555407708924165"
1.0280867194514263,"Aug 01, 2014","2","['USIM5', 'ECOR3']","[1.0, 1.0]","0.00020531913194929256"
1.0362778948237064,"Sep 01, 2014","2","['BRKM5', 'SANB11']","[2.0, 1.75]","0.00013255062561969117"
0.9892760077605922,"Oct 01, 2014","2","['SBSP3', 'EVEN3']","[1.0, 1.0]","0.000304449808493775"
1.3983254555539881,"Nov 03, 2014","2","['MMXM3', 'ITUB4']","[0.75, -0.25]","0.0003354876202051591"
0.9621222676470373,"Dec 01, 2014","2","['UGPA3', 'CIEL3']","[2.5, 2.25]","0.00012799743587171508"
0.9520824027986494,"Jan 02, 2015","2","['MRFG3', 'ABEV3']","[3.25, 1.75]","0.00019525010273018778"
1.148138277538799,"Feb 02, 2015","2","['JBSS3', 'USIM5']","[1.0, 0.625]","0.00010759057145277902"
1.0234047084818858,"Mar 02, 2015","2","['PETR4', 'PETR3']","[2.0, 1.75]","0.0013876619183254015"
1.1937057607557673,"Apr 01, 2015","2","['ELET3', 'EVEN3']","[2.25, 1.25]","0.000732520995120581"
0.9022164379719722,"May 04, 2015","2","['USIM5', 'TIMP3']","[0.75, 0.625]","0.000466440113270769"
1.0309908283385627,"Jun 01, 2015","2","['BRFS3', 'HYPE3']","[0.25, 0.25]","0.0001382148574473276"