﻿"Date","Price","Open","High","Low","Vol.","Change %"
"Apr 20, 2015","60.53","60.67","61.28","60.09","964.60K","-0.36%"
"Apr 22, 2015","60.45","60.84","61.30","59.93","1.96M","-0.13%"
"Apr 23, 2015","61.04","60.21","61.51","59.95","1.41M","0.98%"
"Apr 24, 2015","59.78","61.47","61.71","59.48","1.60M","-2.06%"
"Apr 27, 2015","59.14","59.94","60.16","58.76","2.63M","-1.07%"
"Apr 28, 2015","58.54","59.18","59.19","58.28","3.49M","-1.01%"
"Apr 29, 2015","63.81","62.22","64.04","61.07","6.57M","9.00%"
"Apr 30, 2015","63.10","63.84","64.67","63.09","5.57M","-1.11%"
"May 04, 2015","63.44","63.69","64.56","63.30","3.42M","0.54%"
"May 05, 2015","63.20","63.00","63.66","62.91","1.73M","-0.38%"
"May 06, 2015","62.51","62.76","63.20","62.27","1.56M","-1.09%"
"May 07, 2015","62.62","63.17","63.18","62.02","788.40K","0.18%"
"May 08, 2015","63.30","63.13","63.49","62.14","1.66M","1.09%"
"May 11, 2015","63.77","63.62","64.27","63.57","2.93M","0.74%"
"May 12, 2015","62.98","63.25","64.19","62.91","1.65M","-1.24%"
"May 13, 2015","62.78","63.11","63.21","62.04","1.36M","-0.32%"
"May 14, 2015","63.54","63.10","63.73","62.77","1.26M","1.21%"
"May 15, 2015","64.18","63.61","64.18","62.88","1.73M","1.01%"
"May 18, 2015","63.94","64.19","64.34","63.42","2.00M","-0.37%"
"May 19, 2015","64.47","63.94","64.47","63.34","1.76M","0.83%"
"May 20, 2015","63.72","64.18","64.45","63.69","1.60M","-1.16%"
"May 21, 2015","63.49","63.59","63.84","62.56","1.93M","-0.36%"
"May 22, 2015","62.80","63.69","63.86","62.43","2.37M","-1.09%"
"May 25, 2015","63.88","62.43","64.00","62.41","824.60K","1.72%"
"May 26, 2015","62.37","63.42","63.58","62.27","1.67M","-2.36%"
"May 27, 2015","63.54","62.37","63.56","62.05","1.74M","1.88%"
"May 28, 2015","63.45","62.89","63.45","62.44","1.34M","-0.14%"
"May 29, 2015","63.15","62.98","63.68","62.41","3.57M","-0.47%"
"Jun 01, 2015","63.20","63.15","63.77","62.59","1.70M","0.08%"
"Jun 02, 2015","64.47","63.20","64.67","62.85","2.45M","2.01%"
"Jun 03, 2015","63.88","64.30","64.30","62.85","2.08M","-0.92%"
"Jun 05, 2015","65.06","63.56","65.36","63.14","2.75M","1.85%"
"Jun 08, 2015","64.96","65.03","65.18","64.47","2.14M","-0.15%"
"Jun 09, 2015","65.60","64.96","65.60","64.69","2.87M","0.99%"
"Jun 10, 2015","67.46","65.66","67.46","65.66","3.55M","2.84%"
"Jun 11, 2015","66.79","67.46","67.61","66.58","3.39M","-0.99%"
"Jun 12, 2015","66.46","66.52","66.67","65.56","1.27M","-0.49%"
"Jun 15, 2015","66.04","65.93","66.33","65.34","1.56M","-0.63%"
"Jun 16, 2015","66.87","66.13","67.12","65.65","2.21M","1.26%"
"Jun 17, 2015","66.40","66.54","66.54","65.67","2.56M","-0.70%"
"Jun 18, 2015","66.33","66.23","66.87","66.08","2.84M","-0.11%"
"Jun 19, 2015","66.49","66.22","66.49","65.77","2.35M","0.24%"
"Jun 22, 2015","67.23","66.53","67.23","66.44","2.68M","1.11%"
"Jun 23, 2015","67.08","67.36","67.61","66.83","1.79M","-0.22%"
"Jun 24, 2015","66.87","67.13","67.26","66.50","1.77M","-0.31%"
"Jun 25, 2015","66.09","67.01","67.01","65.73","3.62M","-1.17%"
"Jun 26, 2015","66.14","65.93","66.65","65.65","2.10M","0.08%"
"Jun 29, 2015","64.37","65.55","66.05","64.13","3.66M","-2.68%"
"Jun 30, 2015","64.35","64.30","64.70","63.96","2.77M","-0.03%"
"Jul 01, 2015","63.01","64.47","64.52","62.45","2.84M","-2.08%"
"Jul 02, 2015","64.56","62.76","64.56","62.53","2.46M","2.46%"
"Jul 03, 2015","64.68","63.83","64.72","63.24","1.33M","0.19%"
"Jul 06, 2015","64.80","63.79","64.83","63.68","2.44M","0.19%"
"Jul 07, 2015","68.20","64.92","68.27","64.75","7.49M","5.25%"
"Jul 08, 2015","68.72","67.52","68.94","67.32","4.45M","0.76%"
"Jul 10, 2015","68.39","68.46","68.91","67.34","3.43M","-0.48%"
"Jul 13, 2015","68.53","68.85","68.96","68.43","2.73M","0.20%"
"Jul 14, 2015","68.23","68.54","68.82","67.91","1.88M","-0.44%"
"Jul 15, 2015","67.84","68.21","68.21","67.46","1.50M","-0.57%"
"Jul 16, 2015","68.14","68.20","68.72","68.04","1.56M","0.44%"
"Jul 17, 2015","68.13","68.14","68.86","67.76","1.12M","-0.01%"
"Jul 20, 2015","67.84","68.08","68.42","67.64","1.05M","-0.43%"
"Jul 21, 2015","68.08","68.02","68.38","67.69","1.25M","0.35%"
"Jul 22, 2015","67.69","67.61","67.96","67.10","1.49M","-0.57%"
"Jul 23, 2015","67.14","67.34","67.86","66.19","2.49M","-0.81%"
"Jul 24, 2015","66.50","67.12","67.12","65.66","2.14M","-0.95%"
"Jul 27, 2015","66.39","66.34","66.62","65.63","1.63M","-0.17%"
"Jul 28, 2015","67.34","66.86","67.53","65.58","2.58M","1.43%"
"Jul 29, 2015","68.11","67.09","68.11","66.82","2.22M","1.14%"
"Jul 30, 2015","68.22","68.12","68.31","67.44","1.83M","0.16%"
"Jul 31, 2015","70.97","68.28","70.97","68.28","5.10M","4.03%"
"Aug 03, 2015","70.70","70.83","71.39","70.20","2.37M","-0.38%"
"Aug 04, 2015","71.04","70.70","71.12","70.24","2.01M","0.48%"
"Aug 05, 2015","71.16","71.33","71.37","70.69","942.60K","0.17%"
"Aug 06, 2015","70.85","70.85","71.39","70.40","2.89M","-0.44%"
"Aug 07, 2015","69.86","70.15","70.58","69.34","2.07M","-1.40%"
"Aug 10, 2015","70.01","70.20","70.20","69.60","1.62M","0.21%"
"Aug 11, 2015","70.85","69.62","70.85","69.14","3.52M","1.20%"
"Aug 12, 2015","69.81","70.60","70.80","69.20","4.20M","-1.47%"
"Aug 13, 2015","70.60","69.61","70.67","69.38","2.57M","1.13%"
"Aug 14, 2015","70.11","70.30","70.53","69.82","1.79M","-0.69%"
"Aug 17, 2015","69.71","69.84","70.56","69.53","1.93M","-0.57%"
"Aug 18, 2015","69.88","69.51","70.40","69.12","3.82M","0.24%"
"Aug 19, 2015","69.12","69.40","69.56","68.62","2.62M","-1.09%"
"Aug 20, 2015","68.60","68.28","69.10","68.28","1.64M","-0.75%"
"Aug 21, 2015","66.42","68.25","68.57","66.42","2.33M","-3.18%"
"Aug 24, 2015","65.39","64.19","66.29","61.71","3.52M","-1.55%"
"Aug 25, 2015","65.94","66.77","66.77","65.45","2.09M","0.84%"
"Aug 26, 2015","67.39","66.16","67.41","65.38","2.61M","2.20%"
"Aug 27, 2015","68.19","67.44","68.96","67.04","2.11M","1.19%"
"Aug 28, 2015","68.38","68.18","68.92","67.13","2.71M","0.28%"
"Aug 31, 2015","68.64","67.71","68.64","66.96","4.44M","0.38%"
"Sep 01, 2015","68.22","67.61","68.81","67.44","3.23M","-0.61%"
"Sep 02, 2015","69.13","68.23","69.13","67.92","3.05M","1.33%"
"Sep 03, 2015","70.60","69.30","71.33","69.30","3.94M","2.13%"
"Sep 04, 2015","70.65","70.60","71.45","69.76","5.06M","0.07%"
"Sep 08, 2015","70.59","70.90","71.56","70.10","2.23M","-0.08%"
"Sep 09, 2015","69.56","71.07","71.24","69.35","2.54M","-1.46%"
"Sep 10, 2015","68.58","68.93","69.60","68.45","2.99M","-1.41%"
"Sep 11, 2015","69.10","68.14","69.37","68.14","2.18M","0.76%"
"Sep 14, 2015","69.12","69.58","69.58","68.85","2.90M","0.03%"
"Sep 15, 2015","69.42","69.61","70.01","68.97","2.27M","0.43%"
"Sep 16, 2015","69.37","69.76","69.87","69.22","2.51M","-0.07%"
"Sep 17, 2015","70.23","69.38","70.80","68.88","2.49M","1.24%"
"Sep 18, 2015","68.58","69.85","69.86","67.92","3.40M","-2.35%"
"Sep 21, 2015","67.86","67.64","68.71","67.54","1.85M","-1.05%"
"Sep 22, 2015","68.23","67.54","68.29","67.07","2.04M","0.55%"
"Sep 23, 2015","68.23","68.09","68.61","67.62","1.86M","0.00%"
"Sep 24, 2015","68.42","67.24","68.63","67.24","3.67M","0.28%"
"Sep 25, 2015","68.68","68.87","69.31","68.22","2.87M","0.38%"
"Sep 28, 2015","68.80","68.13","69.22","68.02","2.18M","0.17%"
"Sep 29, 2015","69.33","68.63","69.33","68.34","2.35M","0.77%"
"Sep 30, 2015","69.70","69.71","70.66","69.55","5.10M","0.53%"
"Oct 01, 2015","69.15","69.33","69.86","68.74","4.47M","-0.79%"
"Oct 02, 2015","70.55","69.48","70.55","68.94","2.60M","2.02%"
"Oct 05, 2015","70.42","70.85","70.89","69.72","2.75M","-0.18%"
"Oct 06, 2015","68.03","70.38","70.39","67.54","2.95M","-3.39%"
"Oct 07, 2015","65.63","66.65","67.05","64.69","4.91M","-3.53%"
"Oct 08, 2015","65.17","66.03","67.06","64.94","3.03M","-0.70%"
"Oct 09, 2015","65.78","65.17","66.14","64.79","2.97M","0.94%"
"Oct 13, 2015","65.24","65.76","66.95","64.71","3.40M","-0.82%"
"Oct 14, 2015","63.39","64.69","65.37","63.19","5.55M","-2.84%"
"Oct 15, 2015","65.13","63.72","65.13","63.38","2.62M","2.74%"
"Oct 16, 2015","66.45","65.17","66.79","64.87","2.40M","2.03%"
"Oct 19, 2015","65.96","65.99","67.20","65.51","1.70M","-0.74%"
"Oct 20, 2015","66.84","66.04","66.84","65.53","1.62M","1.33%"
"Oct 21, 2015","67.69","66.70","67.69","66.22","2.69M","1.27%"
"Oct 22, 2015","68.79","67.76","69.11","67.53","1.92M","1.63%"
"Oct 23, 2015","68.54","69.12","70.01","68.41","3.03M","-0.36%"
"Oct 26, 2015","68.01","68.52","69.17","67.59","2.11M","-0.77%"
"Oct 27, 2015","67.85","68.00","68.53","67.30","2.02M","-0.24%"
"Oct 28, 2015","67.86","67.44","68.40","67.18","2.41M","0.01%"
"Oct 29, 2015","65.61","66.79","66.95","65.44","2.32M","-3.32%"
"Oct 30, 2015","59.34","61.99","61.99","58.06","15.07M","-9.56%"
"Nov 03, 2015","57.09","57.77","58.69","56.82","9.44M","-3.79%"
"Nov 04, 2015","55.23","58.12","58.23","54.90","5.42M","-3.26%"
"Nov 05, 2015","57.41","55.26","57.41","55.26","6.05M","3.95%"
"Nov 06, 2015","55.30","57.07","57.85","54.90","4.00M","-3.68%"
"Nov 09, 2015","55.00","55.49","55.76","54.47","2.74M","-0.54%"
"Nov 10, 2015","53.23","54.90","54.90","52.45","3.72M","-3.22%"
"Nov 11, 2015","55.11","53.23","55.65","53.20","3.11M","3.53%"
"Nov 12, 2015","54.29","55.10","55.90","53.97","2.21M","-1.49%"
"Nov 13, 2015","54.87","53.68","55.46","53.56","3.13M","1.07%"
"Nov 16, 2015","54.92","55.25","55.39","54.46","2.16M","0.09%"
"Nov 17, 2015","55.74","55.39","56.96","54.90","2.76M","1.49%"
"Nov 18, 2015","54.80","55.84","56.22","54.34","1.96M","-1.69%"
"Nov 19, 2015","55.53","55.21","56.25","55.21","2.53M","1.33%"
"Nov 23, 2015","55.96","55.30","56.84","55.30","2.84M","0.77%"
"Nov 24, 2015","55.31","55.56","56.31","54.43","1.64M","-1.16%"
"Nov 25, 2015","56.83","54.88","56.92","54.57","3.11M","2.75%"
"Nov 26, 2015","56.32","56.77","56.77","55.72","1.80M","-0.90%"
"Nov 27, 2015","55.00","56.08","56.16","54.80","1.84M","-2.34%"
"Nov 30, 2015","54.35","54.70","55.94","53.71","5.84M","-1.18%"
"Dec 01, 2015","55.59","54.71","55.94","54.25","3.55M","2.28%"
"Dec 02, 2015","55.51","55.84","56.15","54.17","5.35M","-0.14%"
"Dec 03, 2015","56.04","56.18","57.52","55.47","3.91M","0.95%"
"Dec 04, 2015","56.50","55.54","56.76","55.13","2.94M","0.82%"
"Dec 07, 2015","57.16","56.51","57.51","56.49","2.72M","1.17%"
"Dec 08, 2015","56.90","57.16","57.37","55.66","2.77M","-0.45%"
"Dec 09, 2015","57.29","57.26","57.86","56.96","2.79M","0.69%"
"Dec 10, 2015","56.87","57.76","58.14","56.16","2.83M","-0.73%"
"Dec 11, 2015","56.79","56.37","57.12","55.83","2.51M","-0.14%"
"Dec 14, 2015","56.38","56.38","57.40","56.04","2.73M","-0.72%"
"Dec 15, 2015","55.84","56.47","56.68","55.33","1.82M","-0.96%"
"Dec 16, 2015","56.24","55.26","56.24","54.46","2.35M","0.72%"
"Dec 17, 2015","56.63","56.95","57.90","56.34","2.20M","0.69%"
"Dec 18, 2015","56.51","55.92","57.22","55.75","3.34M","-0.21%"
"Dec 21, 2015","57.27","56.38","57.95","56.19","3.74M","1.34%"
"Dec 22, 2015","58.28","57.36","58.78","56.99","3.47M","1.76%"
"Dec 23, 2015","58.37","58.68","59.49","58.07","1.53M","0.15%"
"Dec 28, 2015","58.29","58.50","58.52","57.43","1.69M","-0.14%"
"Dec 29, 2015","56.63","58.00","58.49","56.53","1.10M","-2.85%"
"Dec 30, 2015","54.70","56.63","57.01","54.70","5.51M","-3.41%"
"Jan 04, 2016","54.22","54.40","55.35","53.41","3.99M","-0.88%"
"Jan 05, 2016","55.25","54.21","55.30","54.10","2.13M","1.90%"
"Jan 06, 2016","54.15","54.40","54.85","53.59","2.22M","-1.99%"
"Jan 07, 2016","52.02","53.47","53.71","52.02","2.96M","-3.93%"
"Jan 08, 2016","53.02","52.26","53.23","51.71","2.62M","1.92%"
"Jan 11, 2016","51.78","53.00","54.38","51.78","2.04M","-2.34%"
"Jan 12, 2016","50.27","52.13","52.33","49.81","2.91M","-2.92%"
"Jan 13, 2016","49.58","50.62","50.77","49.45","2.06M","-1.37%"
"Jan 14, 2016","49.51","49.51","50.27","48.81","1.24M","-0.14%"
"Jan 15, 2016","48.05","48.50","48.93","47.22","3.19M","-2.95%"
"Jan 18, 2016","46.73","47.91","48.47","46.59","1.95M","-2.75%"
"Jan 19, 2016","47.15","47.70","47.82","46.34","1.97M","0.90%"
"Jan 20, 2016","47.00","46.67","47.41","46.06","2.35M","-0.32%"
"Jan 21, 2016","47.00","47.15","47.25","46.05","1.74M","0.00%"
"Jan 22, 2016","47.00","47.30","47.70","46.49","2.27M","0.00%"
"Jan 26, 2016","45.62","46.93","46.93","45.62","2.51M","-2.94%"
"Jan 27, 2016","46.54","45.62","46.64","45.35","4.07M","2.02%"
"Jan 28, 2016","46.15","46.77","47.18","45.73","1.83M","-0.84%"
"Jan 29, 2016","48.23","46.59","48.62","46.59","3.13M","4.51%"
"Feb 01, 2016","48.63","47.89","48.95","47.81","1.78M","0.83%"
"Feb 02, 2016","47.85","47.55","48.76","47.45","2.12M","-1.60%"
"Feb 03, 2016","49.35","48.26","49.58","47.88","2.55M","3.13%"
"Feb 04, 2016","49.93","50.49","50.75","49.08","2.68M","1.18%"
"Feb 05, 2016","50.81","49.91","51.71","49.41","2.03M","1.76%"
"Feb 10, 2016","50.70","50.99","51.22","50.29","890.00K","-0.22%"
"Feb 11, 2016","49.67","50.09","50.28","49.03","2.30M","-2.03%"
"Feb 12, 2016","50.70","50.25","50.93","49.33","1.52M","2.07%"
"Feb 15, 2016","51.16","51.60","51.88","51.16","1.04M","0.91%"
"Feb 16, 2016","52.11","51.16","52.24","50.59","1.62M","1.86%"
"Feb 17, 2016","52.28","52.76","52.97","51.70","2.96M","0.33%"
"Feb 18, 2016","53.26","52.27","53.77","51.65","1.92M","1.87%"
"Feb 19, 2016","53.71","52.89","54.26","52.50","1.48M","0.84%"
"Feb 22, 2016","55.50","54.69","55.91","54.67","3.15M","3.33%"
"Feb 23, 2016","55.50","55.79","56.28","54.87","2.25M","0.00%"
"Feb 24, 2016","54.94","54.50","54.94","53.72","1.80M","-1.01%"
"Feb 25, 2016","54.16","54.57","55.11","53.56","2.18M","-1.42%"
"Feb 26, 2016","50.00","51.90","51.96","49.18","5.67M","-7.68%"
"Feb 29, 2016","51.28","50.41","51.89","49.94","5.43M","2.56%"
"Mar 01, 2016","52.79","51.38","53.45","51.38","2.57M","2.94%"
"Mar 02, 2016","52.41","52.96","53.28","51.96","2.43M","-0.72%"
"Mar 03, 2016","52.60","53.13","53.29","51.89","3.44M","0.36%"
"Mar 04, 2016","52.07","53.08","53.64","50.66","4.39M","-1.01%"
"Mar 07, 2016","52.74","52.56","53.87","52.02","2.96M","1.29%"
"Mar 08, 2016","52.33","52.87","53.38","51.23","3.52M","-0.78%"
"Mar 09, 2016","53.38","52.83","53.38","52.00","3.53M","2.01%"
"Mar 10, 2016","53.62","53.58","54.17","52.50","3.09M","0.45%"
"Mar 11, 2016","52.50","53.51","54.13","52.45","2.74M","-2.09%"
"Mar 14, 2016","52.55","52.90","53.30","51.94","1.51M","0.10%"
"Mar 15, 2016","52.40","51.98","52.72","51.73","1.84M","-0.29%"
"Mar 16, 2016","52.89","52.34","53.15","51.60","1.91M","0.94%"
"Mar 17, 2016","54.29","53.50","55.20","53.22","4.25M","2.65%"
"Mar 18, 2016","54.10","54.56","55.00","53.51","2.40M","-0.35%"
"Mar 21, 2016","55.31","54.13","55.31","54.09","1.72M","2.24%"
"Mar 22, 2016","55.24","55.41","55.91","54.95","1.73M","-0.13%"
"Mar 23, 2016","52.42","54.61","55.20","52.42","2.70M","-5.11%"
"Mar 24, 2016","52.12","52.00","52.58","51.79","1.29M","-0.57%"
"Mar 28, 2016","53.28","53.00","53.72","52.53","1.66M","2.23%"
"Mar 29, 2016","53.63","53.85","54.04","52.94","1.50M","0.66%"
"Mar 30, 2016","53.01","54.17","54.23","52.68","1.96M","-1.16%"
"Mar 31, 2016","51.31","52.11","52.46","51.25","2.68M","-3.21%"
"Apr 01, 2016","51.60","51.00","51.83","50.59","1.84M","0.57%"
"Apr 04, 2016","49.99","51.59","51.59","49.68","1.62M","-3.12%"
"Apr 05, 2016","50.16","49.55","50.59","49.55","1.44M","0.34%"
"Apr 06, 2016","50.01","49.66","50.55","49.60","2.42M","-0.30%"
"Apr 07, 2016","50.05","50.52","50.79","49.86","1.55M","0.08%"
"Apr 08, 2016","49.65","50.96","51.36","49.49","1.84M","-0.80%"
"Apr 11, 2016","48.38","50.00","50.30","48.31","1.12M","-2.56%"
"Apr 12, 2016","48.29","48.45","49.32","47.95","3.05M","-0.19%"
"Apr 13, 2016","48.07","49.29","49.29","48.05","2.55M","-0.46%"
"Apr 14, 2016","48.04","48.00","48.99","47.90","2.85M","-0.06%"
"Apr 15, 2016","49.30","48.08","49.35","48.00","2.72M","2.62%"
"Apr 18, 2016","49.39","49.35","49.82","48.89","1.47M","0.18%"
"Apr 19, 2016","48.91","49.22","49.68","48.70","1.80M","-0.97%"
"Apr 20, 2016","48.25","48.64","48.89","48.11","2.12M","-1.35%"
"Apr 22, 2016","48.00","48.25","48.52","47.65","3.05M","-0.52%"
"Apr 25, 2016","47.90","48.40","48.45","47.41","2.05M","-0.21%"
"Apr 26, 2016","49.06","48.30","49.17","48.12","1.64M","2.42%"
"Apr 27, 2016","49.41","49.45","49.54","48.78","2.14M","0.71%"
"Apr 28, 2016","49.00","49.38","49.49","48.83","2.39M","-0.83%"
"Apr 29, 2016","49.20","47.97","50.85","47.65","6.56M","0.41%"
"May 02, 2016","48.46","48.98","49.45","48.40","2.09M","-1.50%"
"May 03, 2016","46.81","48.15","48.58","46.81","2.88M","-3.40%"
"May 04, 2016","46.68","46.89","47.08","45.95","3.61M","-0.28%"
"May 05, 2016","46.90","46.91","47.22","46.61","1.99M","0.47%"
"May 06, 2016","46.75","46.91","47.12","46.51","1.83M","-0.32%"
"May 09, 2016","45.92","46.61","46.97","45.73","1.61M","-1.78%"
"May 10, 2016","49.30","48.51","49.51","48.18","6.18M","7.36%"
"May 11, 2016","47.23","50.00","50.00","47.23","2.94M","-4.20%"
"May 12, 2016","47.60","47.84","48.26","47.28","5.35M","0.78%"
"May 13, 2016","47.55","47.27","47.77","46.88","3.16M","-0.11%"
"May 16, 2016","47.26","46.95","47.91","46.91","1.73M","-0.61%"
"May 17, 2016","46.52","46.50","47.27","46.47","2.01M","-1.57%"
"May 18, 2016","46.54","46.37","47.12","46.14","3.18M","0.04%"
"May 19, 2016","46.23","46.43","46.82","45.89","2.04M","-0.67%"
"May 20, 2016","45.86","46.47","46.77","45.86","2.83M","-0.80%"
"May 23, 2016","44.90","45.79","45.94","44.72","3.35M","-2.09%"
"May 24, 2016","45.50","44.90","45.73","44.70","3.04M","1.34%"
"May 25, 2016","46.02","45.50","46.79","45.50","1.90M","1.14%"
"May 27, 2016","46.00","45.70","47.62","45.68","2.19M","-0.04%"
"May 30, 2016","45.50","46.00","46.49","45.50","813.60K","-1.09%"
"May 31, 2016","45.67","46.00","46.12","44.90","8.60M","0.37%"
"Jun 01, 2016","46.34","45.79","46.34","45.24","2.58M","1.47%"
"Jun 02, 2016","48.15","46.39","48.21","46.15","2.95M","3.91%"
"Jun 03, 2016","48.83","48.50","48.91","47.88","2.27M","1.41%"
"Jun 06, 2016","47.90","48.50","48.89","47.89","1.57M","-1.90%"
"Jun 07, 2016","47.88","47.50","47.98","47.20","2.25M","-0.04%"
"Jun 08, 2016","48.70","47.94","48.91","47.81","2.46M","1.71%"
"Jun 09, 2016","48.14","48.70","48.80","48.09","1.59M","-1.15%"
"Jun 10, 2016","47.09","47.99","48.17","47.09","2.61M","-2.18%"
"Jun 13, 2016","46.77","46.19","47.12","46.19","2.39M","-0.68%"
"Jun 14, 2016","45.42","46.77","46.78","45.06","3.87M","-2.89%"
"Jun 15, 2016","45.48","45.36","45.67","44.81","4.04M","0.13%"
"Jun 16, 2016","45.02","45.16","45.27","44.45","3.30M","-1.01%"
"Jun 17, 2016","45.00","45.62","45.64","44.66","3.46M","-0.04%"
"Jun 20, 2016","45.55","45.48","46.00","45.18","1.09M","1.22%"
"Jun 21, 2016","45.80","45.56","46.31","45.01","1.21M","0.55%"
"Jun 22, 2016","44.10","45.85","46.35","43.98","2.61M","-3.71%"
"Jun 23, 2016","45.19","44.59","45.43","44.07","1.08M","2.47%"
"Jun 24, 2016","43.80","43.96","44.34","43.02","3.80M","-3.08%"
"Jun 27, 2016","43.67","43.65","43.75","42.81","1.90M","-0.30%"
"Jun 28, 2016","43.26","44.04","44.42","43.13","1.33M","-0.94%"
"Jun 29, 2016","44.86","43.90","44.90","43.60","3.24M","3.70%"
"Jun 30, 2016","45.13","44.74","45.13","43.96","3.09M","0.60%"
"Jul 01, 2016","47.02","45.40","47.44","45.29","4.63M","4.19%"
"Jul 04, 2016","48.31","46.46","49.06","46.46","2.90M","2.74%"
"Jul 05, 2016","47.53","47.82","48.08","46.99","3.04M","-1.61%"
"Jul 06, 2016","48.15","47.10","48.15","46.85","1.70M","1.30%"
"Jul 07, 2016","48.40","48.15","48.77","47.76","1.52M","0.52%"
"Jul 08, 2016","48.88","48.52","49.09","48.19","1.69M","0.99%"
"Jul 11, 2016","49.98","49.10","50.23","49.07","1.84M","2.25%"
"Jul 12, 2016","50.56","50.66","50.85","50.05","2.45M","1.16%"
"Jul 13, 2016","50.51","50.54","50.98","49.78","1.92M","-0.10%"
"Jul 14, 2016","50.92","51.15","51.28","50.10","1.58M","0.81%"
"Jul 15, 2016","50.41","50.79","51.08","50.25","2.11M","-1.00%"
"Jul 18, 2016","50.97","50.20","50.97","49.83","1.64M","1.11%"
"Jul 19, 2016","50.96","50.85","50.96","50.36","1.39M","-0.02%"
"Jul 20, 2016","50.70","50.98","51.30","50.40","2.17M","-0.51%"
"Jul 21, 2016","50.55","50.51","50.83","50.15","2.19M","-0.30%"
"Jul 22, 2016","51.65","52.70","53.46","51.35","2.21M","2.18%"
"Jul 25, 2016","51.55","51.75","51.94","50.47","931.70K","-0.19%"
"Jul 26, 2016","51.23","51.57","51.80","51.12","1.14M","-0.62%"
"Jul 27, 2016","50.73","51.37","51.42","50.55","1.87M","-0.98%"
"Jul 28, 2016","51.00","50.36","51.15","49.88","1.90M","0.53%"
"Jul 29, 2016","54.30","50.01","54.42","50.01","6.00M","6.47%"
"Aug 01, 2016","53.23","54.30","54.76","53.00","2.41M","-1.97%"
"Aug 02, 2016","52.50","52.66","52.99","51.96","3.16M","-1.37%"
"Aug 03, 2016","52.00","51.80","52.66","51.18","2.00M","-0.95%"
"Aug 04, 2016","52.29","52.52","52.57","51.45","2.17M","0.56%"
"Aug 05, 2016","52.45","52.20","52.74","52.11","2.20M","0.31%"
"Aug 08, 2016","53.30","52.29","53.98","52.05","1.10M","1.62%"
"Aug 09, 2016","53.64","53.10","54.60","53.10","1.78M","0.64%"
"Aug 10, 2016","52.69","53.69","53.92","52.18","1.81M","-1.77%"
"Aug 11, 2016","52.97","52.17","53.23","52.00","2.07M","0.53%"
"Aug 12, 2016","53.87","53.25","53.98","53.14","2.36M","1.70%"
"Aug 15, 2016","54.60","53.87","54.87","53.27","1.62M","1.36%"
"Aug 16, 2016","54.88","54.60","55.20","54.09","2.06M","0.51%"
"Aug 17, 2016","53.99","54.56","54.80","53.02","3.21M","-1.62%"
"Aug 18, 2016","53.85","53.95","54.20","53.23","2.11M","-0.26%"
"Aug 19, 2016","53.80","53.73","54.07","53.25","1.61M","-0.09%"
"Aug 22, 2016","53.18","53.87","54.17","53.00","1.32M","-1.15%"
"Aug 23, 2016","53.52","53.40","53.90","52.75","1.43M","0.64%"
"Aug 24, 2016","53.82","52.85","54.36","52.85","2.22M","0.56%"
"Aug 25, 2016","53.87","54.04","55.40","53.87","3.19M","0.09%"
"Aug 26, 2016","53.79","53.90","54.93","53.37","3.06M","-0.15%"
"Aug 29, 2016","53.95","54.00","54.29","53.59","1.88M","0.30%"
"Aug 30, 2016","53.91","54.17","54.17","53.55","1.65M","-0.07%"
"Aug 31, 2016","53.85","53.96","54.18","53.66","2.02M","-0.11%"
"Sep 01, 2016","53.18","53.49","53.73","52.96","3.66M","-1.24%"
"Sep 02, 2016","54.75","53.26","54.75","53.23","2.56M","2.95%"
"Sep 05, 2016","54.79","55.00","55.23","54.25","922.40K","0.07%"
"Sep 06, 2016","55.47","54.98","55.48","54.64","1.85M","1.24%"
"Sep 08, 2016","56.04","55.40","56.36","55.07","3.35M","1.03%"
"Sep 09, 2016","54.78","55.31","55.64","54.55","2.35M","-2.25%"
"Sep 12, 2016","53.94","54.27","54.49","53.35","2.08M","-1.53%"
"Sep 13, 2016","53.31","53.41","53.88","52.75","2.18M","-1.17%"
"Sep 14, 2016","53.31","53.01","53.49","52.93","1.44M","0.00%"
"Sep 15, 2016","53.20","53.60","53.84","53.00","2.54M","-0.21%"
"Sep 16, 2016","53.46","52.30","53.46","51.35","5.79M","0.49%"
"Sep 19, 2016","53.59","53.58","54.56","53.21","1.93M","0.24%"
"Sep 20, 2016","53.55","53.83","54.15","53.35","1.12M","-0.07%"
"Sep 21, 2016","54.20","53.45","54.49","53.30","1.62M","1.21%"
"Sep 22, 2016","54.85","54.65","55.31","54.48","1.57M","1.20%"
"Sep 23, 2016","54.81","55.20","55.26","54.51","1.49M","-0.07%"
"Sep 26, 2016","54.42","54.30","54.72","53.87","1.56M","-0.71%"
"Sep 27, 2016","55.02","54.43","55.28","54.08","1.93M","1.10%"
"Sep 28, 2016","55.17","55.00","55.30","54.56","1.83M","0.27%"
"Sep 29, 2016","54.61","54.89","55.22","54.36","1.22M","-1.02%"
"Sep 30, 2016","55.32","54.66","55.65","54.37","2.62M","1.30%"
"Oct 03, 2016","56.10","55.05","56.40","54.88","1.98M","1.41%"
"Oct 04, 2016","55.97","56.32","56.32","55.22","1.83M","-0.23%"
"Oct 05, 2016","56.90","56.10","57.14","55.83","2.62M","1.66%"
"Oct 06, 2016","57.32","56.98","57.75","56.51","2.18M","0.74%"
"Oct 07, 2016","57.61","57.54","58.27","57.01","2.97M","0.51%"
"Oct 10, 2016","57.98","57.70","58.09","57.58","1.50M","0.64%"
"Oct 11, 2016","56.98","57.93","57.94","56.93","2.26M","-1.72%"
"Oct 13, 2016","55.27","56.54","56.86","54.89","4.09M","-3.00%"
"Oct 14, 2016","55.00","55.41","55.65","54.95","2.68M","-0.49%"
"Oct 17, 2016","54.35","55.16","55.18","54.35","1.71M","-1.18%"
"Oct 18, 2016","54.27","54.61","54.80","53.53","3.00M","-0.15%"
"Oct 19, 2016","53.29","54.27","54.44","53.29","1.77M","-1.81%"
"Oct 20, 2016","53.76","53.30","53.96","52.57","2.13M","0.88%"
"Oct 21, 2016","53.44","53.67","54.28","53.24","1.15M","-0.60%"
"Oct 24, 2016","53.22","53.87","53.92","53.08","1.34M","-0.41%"
"Oct 25, 2016","52.70","53.13","53.54","52.50","1.12M","-0.98%"
"Oct 26, 2016","52.50","52.57","52.70","51.74","2.96M","-0.38%"
"Oct 27, 2016","52.48","52.50","53.38","52.25","1.49M","-0.04%"
"Oct 28, 2016","54.09","52.15","54.75","51.53","4.38M","3.07%"
"Oct 31, 2016","53.40","53.80","54.05","53.10","2.45M","-1.28%"
"Nov 01, 2016","52.23","53.51","53.63","52.00","1.86M","-2.19%"
"Nov 03, 2016","51.96","52.24","52.97","51.76","2.48M","-0.52%"
"Nov 04, 2016","51.15","51.90","52.49","51.15","1.89M","-1.56%"
"Nov 07, 2016","52.87","51.58","52.98","51.31","1.92M","3.36%"
"Nov 08, 2016","53.83","52.84","54.38","52.82","2.11M","1.82%"
"Nov 09, 2016","53.20","52.00","53.80","52.00","1.96M","-1.17%"
"Nov 10, 2016","50.62","52.82","54.08","50.00","4.79M","-4.85%"
"Nov 11, 2016","48.88","50.05","50.73","48.35","5.09M","-3.44%"
"Nov 14, 2016","50.32","48.52","50.32","48.52","3.98M","2.95%"
"Nov 16, 2016","52.34","50.33","52.34","49.88","2.56M","4.01%"
"Nov 17, 2016","53.00","52.77","53.42","52.50","2.14M","1.26%"
"Nov 18, 2016","53.00","52.82","53.36","52.50","1.02M","0.00%"
"Nov 21, 2016","52.88","52.82","53.40","52.45","1.83M","-0.23%"
"Nov 22, 2016","52.90","53.37","53.63","52.36","1.86M","0.04%"
"Nov 23, 2016","53.11","52.49","53.38","52.45","1.19M","0.40%"
"Nov 24, 2016","52.60","53.30","53.35","52.21","579.30K","-0.96%"
"Nov 25, 2016","52.96","51.61","53.39","51.60","717.80K","0.68%"
"Nov 28, 2016","53.57","52.77","53.98","52.37","1.53M","1.15%"
"Nov 29, 2016","52.34","53.57","53.68","52.34","1.32M","-2.30%"
"Nov 30, 2016","51.65","53.05","53.35","51.65","2.63M","-1.32%"
"Dec 01, 2016","48.89","50.93","51.05","48.52","4.09M","-5.34%"
"Dec 02, 2016","48.80","48.50","49.51","48.06","1.73M","-0.18%"
"Dec 05, 2016","48.49","48.80","49.75","48.38","1.56M","-0.64%"
"Dec 06, 2016","50.22","48.30","50.35","48.02","1.86M","3.57%"
"Dec 07, 2016","50.46","50.60","51.20","50.08","2.44M","0.48%"
"Dec 08, 2016","49.16","51.11","51.17","48.72","2.06M","-2.58%"
"Dec 09, 2016","49.65","49.40","50.40","48.73","1.95M","1.00%"
"Dec 12, 2016","49.24","49.00","49.51","48.91","1.22M","-0.83%"
"Dec 13, 2016","49.76","48.86","49.85","48.62","2.32M","1.06%"
"Dec 14, 2016","49.93","49.68","51.35","49.65","3.43M","0.34%"
"Dec 15, 2016","49.66","49.49","49.70","49.00","1.89M","-0.54%"
"Dec 16, 2016","47.81","49.94","49.98","47.81","3.57M","-3.73%"
"Dec 19, 2016","46.33","47.90","48.00","46.28","2.26M","-3.10%"
"Dec 20, 2016","46.40","46.71","47.20","45.90","1.58M","0.15%"
"Dec 21, 2016","46.46","46.52","47.39","46.35","1.26M","0.13%"
"Dec 22, 2016","46.47","46.50","47.13","45.83","1.35M","0.02%"
"Dec 23, 2016","46.48","46.78","46.97","46.30","644.60K","0.02%"
"Dec 26, 2016","47.15","46.75","47.36","46.62","352.30K","1.44%"
"Dec 27, 2016","47.25","47.49","47.90","46.87","1.09M","0.21%"
"Dec 28, 2016","47.66","47.39","47.94","47.23","1.03M","0.87%"
"Dec 29, 2016","48.25","47.85","48.40","47.40","2.91M","1.24%"
"Jan 02, 2017","47.90","48.03","48.15","47.64","600.20K","-0.73%"
"Jan 03, 2017","49.50","48.01","49.50","48.01","1.73M","3.34%"
"Jan 04, 2017","48.91","49.50","49.70","48.25","1.32M","-1.19%"
"Jan 05, 2017","48.53","49.41","49.68","48.46","1.62M","-0.78%"
"Jan 06, 2017","46.22","48.53","48.53","46.00","4.16M","-4.76%"
"Jan 09, 2017","45.70","46.05","46.25","45.10","2.38M","-1.13%"
"Jan 10, 2017","45.92","46.77","46.85","45.70","2.35M","0.48%"
"Jan 11, 2017","45.86","46.01","46.51","45.52","1.23M","-0.13%"
"Jan 12, 2017","47.05","46.50","47.39","46.29","2.15M","2.59%"
"Jan 13, 2017","45.79","46.93","47.14","45.46","1.60M","-2.68%"
"Jan 16, 2017","45.80","45.76","46.40","45.50","1.04M","0.02%"
"Jan 17, 2017","46.35","45.86","46.35","45.65","1.56M","1.20%"
"Jan 18, 2017","45.30","46.46","46.50","45.10","1.79M","-2.27%"
"Jan 19, 2017","45.28","45.34","45.90","44.86","2.80M","-0.04%"
"Jan 20, 2017","45.96","45.66","46.41","45.18","1.64M","1.50%"
"Jan 23, 2017","46.74","46.02","46.76","45.89","1.23M","1.70%"
"Jan 24, 2017","46.92","46.73","47.22","46.12","2.47M","0.39%"
"Jan 26, 2017","45.90","47.31","47.56","45.83","2.75M","-2.17%"
"Jan 27, 2017","45.29","45.95","46.17","45.12","2.18M","-1.33%"
"Jan 30, 2017","43.98","45.00","45.15","43.93","3.20M","-2.89%"
"Jan 31, 2017","44.46","44.07","44.70","43.86","2.54M","1.09%"
"Feb 01, 2017","43.80","44.79","44.90","43.65","3.16M","-1.48%"
"Feb 02, 2017","44.52","43.70","45.38","43.70","2.45M","1.64%"
"Feb 03, 2017","44.90","44.62","45.38","44.40","1.92M","0.85%"
"Feb 06, 2017","43.45","45.00","45.00","43.30","2.24M","-3.23%"
"Feb 07, 2017","43.53","43.78","44.40","43.36","2.46M","0.18%"
"Feb 08, 2017","43.23","43.71","43.84","43.01","2.00M","-0.69%"
"Feb 09, 2017","42.59","43.60","43.60","42.43","3.23M","-1.48%"
"Feb 10, 2017","43.20","42.66","43.49","42.60","2.85M","1.43%"
"Feb 13, 2017","42.77","43.51","43.67","42.40","2.94M","-1.00%"
"Feb 14, 2017","43.20","43.10","43.87","42.81","2.48M","1.01%"
"Feb 15, 2017","43.96","43.35","44.18","43.35","3.77M","1.76%"
"Feb 16, 2017","43.90","44.09","44.45","43.84","2.47M","-0.14%"
"Feb 17, 2017","42.85","43.64","43.81","42.80","2.83M","-2.39%"
"Feb 20, 2017","42.43","43.05","43.20","42.43","1.49M","-0.98%"
"Feb 21, 2017","41.35","42.55","42.73","41.07","4.57M","-2.55%"
"Feb 22, 2017","40.49","41.25","41.29","40.25","3.70M","-2.08%"
"Feb 23, 2017","40.60","40.71","41.55","40.58","2.46M","0.27%"
"Feb 24, 2017","40.62","39.36","41.20","38.91","4.06M","0.05%"
"Mar 01, 2017","40.00","41.00","41.28","39.95","3.10M","-1.53%"
"Mar 02, 2017","39.29","39.95","40.15","39.09","4.97M","-1.77%"
"Mar 03, 2017","40.21","39.36","40.21","39.15","2.48M","2.34%"
"Mar 06, 2017","40.60","40.25","41.95","40.08","3.86M","0.97%"
"Mar 07, 2017","40.10","41.01","41.48","39.90","3.31M","-1.23%"
"Mar 08, 2017","40.06","40.35","40.37","39.63","2.16M","-0.10%"
"Mar 09, 2017","40.80","40.31","40.93","39.82","3.02M","1.85%"
"Mar 10, 2017","39.88","40.83","40.98","39.50","3.42M","-2.25%"
"Mar 13, 2017","39.52","40.11","40.11","39.35","1.94M","-0.90%"
"Mar 14, 2017","38.31","39.74","39.74","38.15","3.19M","-3.06%"
"Mar 15, 2017","38.66","38.31","39.00","38.01","3.72M","0.91%"
"Mar 16, 2017","40.00","38.90","40.39","38.90","3.95M","3.47%"
"Mar 17, 2017","37.10","38.00","38.50","36.61","15.82M","-7.25%"
"Mar 20, 2017","36.30","34.10","37.00","32.72","19.66M","-2.16%"
"Mar 21, 2017","35.85","36.89","37.18","35.55","6.10M","-1.24%"
"Mar 22, 2017","35.58","35.53","36.17","34.81","5.30M","-0.75%"
"Mar 23, 2017","35.88","35.09","36.30","34.91","4.32M","0.84%"
"Mar 24, 2017","35.80","35.88","36.10","35.13","2.75M","-0.22%"
"Mar 27, 2017","37.09","36.99","37.61","36.65","3.29M","3.60%"
"Mar 28, 2017","38.65","37.27","38.79","37.16","3.92M","4.21%"
"Mar 29, 2017","38.87","38.55","38.90","38.10","2.01M","0.57%"
"Mar 30, 2017","38.54","38.89","38.89","37.83","1.92M","-0.85%"
"Mar 31, 2017","38.61","38.31","38.75","38.12","2.74M","0.18%"
"Apr 03, 2017","38.89","38.60","38.89","38.01","1.65M","0.73%"
"Apr 04, 2017","38.70","38.65","39.16","38.18","1.46M","-0.49%"
"Apr 05, 2017","38.60","39.00","39.08","38.28","1.82M","-0.26%"
"Apr 06, 2017","37.95","38.69","38.75","37.63","2.29M","-1.68%"
"Apr 07, 2017","37.78","37.97","38.07","37.40","1.84M","-0.45%"
"Apr 10, 2017","37.52","37.91","38.02","37.34","3.22M","-0.69%"
"Apr 11, 2017","38.50","37.79","38.94","37.06","2.08M","2.61%"
"Apr 12, 2017","39.42","38.54","39.67","38.29","4.58M","2.39%"
"Apr 13, 2017","39.50","39.29","40.14","39.09","2.77M","0.20%"
"Apr 17, 2017","39.80","40.10","40.10","39.24","1.85M","0.76%"
"Apr 18, 2017","40.61","39.56","40.89","39.56","2.32M","2.04%"
"Apr 19, 2017","40.31","40.82","40.91","40.13","2.02M","-0.74%"
"Apr 20, 2017","40.65","40.45","40.99","40.43","1.57M","0.84%"
"Apr 24, 2017","40.65","40.99","41.31","40.46","2.91M","0.00%"
"Apr 25, 2017","39.94","40.25","40.25","39.53","6.98M","-1.75%"
"Apr 26, 2017","39.45","39.86","39.96","39.19","1.64M","-1.23%"
"Apr 27, 2017","39.20","39.56","39.65","38.45","2.05M","-0.63%"
"Apr 28, 2017","39.79","38.97","39.82","38.60","2.11M","1.51%"
"May 02, 2017","41.80","39.82","41.80","39.79","3.61M","5.05%"
"May 03, 2017","42.09","41.80","42.30","41.44","2.26M","0.69%"
"May 04, 2017","41.60","41.94","42.17","41.16","3.24M","-1.16%"
"May 05, 2017","42.10","41.49","42.15","41.29","1.42M","1.20%"
"May 08, 2017","42.53","42.00","42.70","41.81","1.94M","1.02%"
"May 09, 2017","43.43","42.50","43.81","42.26","3.76M","2.12%"
"May 10, 2017","44.96","43.50","45.58","43.50","6.57M","3.52%"
"May 11, 2017","44.30","44.92","45.36","44.03","3.34M","-1.47%"
"May 12, 2017","45.24","44.06","45.51","44.06","4.82M","2.12%"
"May 15, 2017","44.31","45.25","45.34","44.10","2.70M","-2.06%"
"May 16, 2017","42.85","44.25","44.25","42.68","4.79M","-3.29%"
"May 17, 2017","41.70","42.49","42.49","41.35","3.89M","-2.68%"
"May 18, 2017","40.94","37.51","41.42","37.50","9.00M","-1.82%"
"May 19, 2017","40.45","41.00","41.39","39.95","5.20M","-1.20%"
"May 22, 2017","42.90","40.03","43.57","39.25","8.70M","6.06%"
"May 23, 2017","43.98","42.72","43.98","42.21","4.14M","2.52%"
"May 24, 2017","44.75","44.43","45.00","43.66","2.84M","1.75%"
"May 25, 2017","45.97","45.00","45.97","44.61","2.92M","2.73%"
"May 26, 2017","46.55","46.00","46.92","45.80","3.86M","1.26%"
"May 29, 2017","46.02","46.43","46.57","45.55","1.72M","-1.14%"
"May 30, 2017","45.25","45.82","46.06","45.00","2.92M","-1.67%"
"May 31, 2017","43.32","45.20","45.34","43.32","21.08M","-4.27%"
"Jun 01, 2017","42.85","43.72","44.54","42.72","3.38M","-1.08%"
"Jun 02, 2017","42.50","43.15","43.49","42.15","3.09M","-0.82%"
"Jun 05, 2017","43.00","42.49","43.02","41.86","3.47M","1.18%"
"Jun 06, 2017","43.42","43.15","43.93","42.74","3.11M","0.98%"
"Jun 07, 2017","43.15","43.47","43.92","42.51","2.12M","-0.62%"
"Jun 08, 2017","42.30","43.01","43.01","42.13","2.86M","-1.97%"
"Jun 09, 2017","42.00","42.30","42.48","41.42","4.20M","-0.71%"
"Jun 12, 2017","41.50","41.68","42.32","41.40","1.78M","-1.19%"
"Jun 13, 2017","41.35","41.50","41.82","40.66","2.75M","-0.36%"
"Jun 14, 2017","40.73","41.63","41.86","40.53","3.54M","-1.50%"
"Jun 16, 2017","40.60","41.10","41.14","40.02","7.92M","-0.32%"
"Jun 19, 2017","41.21","40.59","41.25","40.40","2.12M","1.50%"
"Jun 20, 2017","41.10","41.22","41.70","40.83","2.44M","-0.27%"
"Jun 21, 2017","41.06","40.85","41.31","40.81","1.47M","-0.10%"
"Jun 22, 2017","40.30","41.24","41.25","40.21","2.01M","-1.85%"
"Jun 23, 2017","40.10","39.85","40.37","39.70","1.66M","-0.50%"
"Jun 26, 2017","40.09","40.30","40.60","39.90","1.42M","-0.02%"
"Jun 27, 2017","39.35","40.06","40.23","39.22","2.23M","-1.85%"
"Jun 28, 2017","38.81","39.38","39.59","38.45","1.93M","-1.37%"
"Jun 29, 2017","38.65","39.06","39.22","38.37","2.56M","-0.41%"
"Jun 30, 2017","39.20","38.61","39.46","38.25","3.78M","1.42%"
"Jul 03, 2017","39.37","39.50","39.79","39.01","1.58M","0.43%"
"Jul 04, 2017","39.16","39.22","39.37","39.09","1.17M","-0.53%"
"Jul 05, 2017","39.08","39.16","39.55","38.64","1.63M","-0.20%"
"Jul 06, 2017","37.86","39.05","39.06","37.85","2.55M","-3.12%"
"Jul 07, 2017","37.42","38.15","38.25","37.07","3.52M","-1.16%"
"Jul 10, 2017","37.33","37.27","37.71","37.15","1.48M","-0.24%"
"Jul 11, 2017","37.38","37.33","37.65","37.12","2.46M","0.13%"
"Jul 12, 2017","38.22","37.59","38.35","37.55","2.29M","2.25%"
"Jul 13, 2017","38.54","38.40","38.75","38.31","1.32M","0.84%"
"Jul 14, 2017","38.70","38.73","38.95","38.57","1.09M","0.42%"
"Jul 17, 2017","38.46","38.70","38.86","38.30","1.12M","-0.62%"
"Jul 18, 2017","37.80","38.70","38.76","37.66","2.02M","-1.72%"
"Jul 19, 2017","37.29","37.81","37.95","37.24","1.79M","-1.35%"
"Jul 20, 2017","37.48","37.35","37.75","37.28","1.48M","0.51%"
"Jul 21, 2017","36.70","37.53","37.65","36.63","3.11M","-2.08%"
"Jul 24, 2017","36.58","36.85","36.98","36.33","2.29M","-0.33%"
"Jul 25, 2017","37.27","36.84","37.27","36.45","1.84M","1.89%"
"Jul 26, 2017","37.43","37.30","37.85","37.00","4.59M","0.43%"
"Jul 27, 2017","37.24","37.70","37.75","37.12","1.56M","-0.51%"
"Jul 28, 2017","37.00","37.14","37.25","36.52","2.69M","-0.64%"
"Jul 31, 2017","36.92","37.33","37.61","36.69","3.29M","-0.22%"
"Aug 01, 2017","38.17","37.08","38.30","36.75","2.63M","3.39%"
"Aug 02, 2017","38.65","38.00","38.80","37.71","2.41M","1.26%"
"Aug 03, 2017","39.73","38.61","40.00","38.41","5.10M","2.79%"
"Aug 04, 2017","38.76","39.70","40.00","38.65","2.27M","-2.44%"
"Aug 07, 2017","39.42","38.77","39.52","38.63","1.72M","1.70%"
"Aug 08, 2017","38.88","39.53","39.53","38.47","3.57M","-1.37%"
"Aug 09, 2017","39.35","38.85","39.38","38.65","2.46M","1.21%"
"Aug 10, 2017","39.00","39.43","39.48","38.79","1.79M","-0.89%"
"Aug 11, 2017","41.05","39.35","41.33","39.32","7.44M","5.26%"
"Aug 14, 2017","42.27","41.15","42.46","40.81","3.21M","2.97%"
"Aug 15, 2017","42.30","42.02","42.74","41.93","1.97M","0.07%"
"Aug 16, 2017","41.49","42.46","42.48","41.07","15.32M","-1.91%"
"Aug 17, 2017","40.42","41.11","41.30","40.21","3.08M","-2.58%"
"Aug 18, 2017","40.94","40.56","41.15","40.00","2.80M","1.29%"
"Aug 21, 2017","41.06","41.20","41.20","40.50","1.89M","0.29%"
"Aug 22, 2017","41.75","41.56","42.07","41.37","2.07M","1.68%"
"Aug 23, 2017","41.70","41.75","41.89","41.24","1.72M","-0.12%"
"Aug 24, 2017","42.67","41.95","42.71","41.56","2.12M","2.33%"
"Aug 25, 2017","42.23","42.75","43.00","41.61","1.73M","-1.03%"
"Aug 28, 2017","42.19","42.31","42.82","41.89","1.28M","-0.09%"
"Aug 29, 2017","42.60","41.95","42.66","41.95","1.71M","0.97%"
"Aug 30, 2017","41.85","42.29","42.59","41.65","2.03M","-1.76%"
"Aug 31, 2017","42.52","41.99","42.82","41.54","4.28M","1.60%"
"Sep 01, 2017","43.61","43.85","44.16","43.22","5.54M","2.56%"
"Sep 04, 2017","44.39","43.80","44.40","43.41","2.34M","1.79%"
"Sep 05, 2017","44.50","44.60","44.96","43.97","3.04M","0.25%"
"Sep 06, 2017","44.98","44.93","45.10","44.50","2.29M","1.08%"
"Sep 08, 2017","43.93","44.50","44.91","43.40","2.57M","-2.33%"
"Sep 11, 2017","44.47","44.32","44.60","43.85","2.28M","1.23%"
"Sep 12, 2017","44.45","44.05","44.90","44.00","2.52M","-0.04%"
"Sep 13, 2017","45.33","44.17","45.39","44.16","3.43M","1.98%"
"Sep 14, 2017","45.40","46.33","46.40","45.21","4.10M","0.15%"
"Sep 15, 2017","46.37","45.64","46.37","45.43","4.26M","2.14%"
"Sep 18, 2017","46.45","46.45","46.63","46.00","1.68M","0.17%"
"Sep 19, 2017","46.50","46.45","46.50","45.75","1.90M","0.11%"
"Sep 20, 2017","46.89","46.39","46.90","46.00","3.21M","0.84%"
"Sep 21, 2017","47.12","46.80","47.12","46.30","2.13M","0.49%"
"Sep 22, 2017","47.08","47.01","47.25","46.60","2.84M","-0.08%"
"Sep 25, 2017","45.75","47.00","47.00","45.21","3.76M","-2.82%"
"Sep 26, 2017","45.75","46.15","46.22","45.45","4.13M","0.00%"
"Sep 27, 2017","45.88","46.26","46.30","45.08","1.90M","0.28%"
"Sep 28, 2017","45.59","46.00","46.11","45.35","2.03M","-0.63%"
"Sep 29, 2017","45.67","45.79","46.00","45.30","4.33M","0.18%"
"Oct 02, 2017","45.44","45.85","45.95","45.08","1.64M","-0.50%"
"Oct 03, 2017","47.00","45.50","47.00","45.31","3.18M","3.43%"
"Oct 04, 2017","47.95","46.80","48.30","46.80","3.02M","2.02%"
"Oct 05, 2017","47.50","48.41","48.80","47.38","3.14M","-0.94%"
"Oct 06, 2017","46.22","47.40","47.40","46.00","2.87M","-2.69%"
"Oct 09, 2017","45.95","46.24","46.31","45.60","2.16M","-0.58%"
"Oct 10, 2017","46.88","46.47","47.12","46.37","2.42M","2.02%"
"Oct 11, 2017","46.96","46.62","47.19","46.12","2.05M","0.17%"
"Oct 13, 2017","46.66","47.10","47.12","46.52","1.99M","-0.64%"
"Oct 16, 2017","45.20","46.68","46.87","45.20","3.18M","-3.13%"
"Oct 17, 2017","44.68","45.07","45.07","44.05","2.26M","-1.15%"
"Oct 18, 2017","45.50","44.67","45.63","44.50","2.15M","1.84%"
"Oct 19, 2017","44.48","44.89","45.15","44.00","1.72M","-2.24%"
"Oct 20, 2017","44.42","44.88","44.88","44.20","1.86M","-0.13%"
"Oct 23, 2017","44.00","44.40","44.69","43.97","1.93M","-0.95%"
"Oct 24, 2017","44.48","44.33","44.84","44.02","1.51M","1.09%"
"Oct 25, 2017","44.70","44.70","45.11","43.72","1.93M","0.49%"
"Oct 26, 2017","44.41","45.00","45.20","44.22","1.14M","-0.65%"
"Oct 27, 2017","45.00","44.65","45.44","44.37","1.49M","1.33%"
"Oct 30, 2017","44.01","44.70","44.74","43.28","2.59M","-2.20%"
"Oct 31, 2017","44.25","44.37","44.42","43.61","1.42M","0.55%"
"Nov 01, 2017","43.56","44.66","44.75","43.56","1.93M","-1.56%"
"Nov 03, 2017","42.93","43.56","43.74","42.19","2.16M","-1.45%"
"Nov 06, 2017","42.66","43.15","43.43","42.45","1.60M","-0.63%"
"Nov 07, 2017","42.25","42.40","42.70","41.19","2.61M","-0.96%"
"Nov 08, 2017","43.26","42.50","43.50","41.77","2.40M","2.39%"
"Nov 09, 2017","43.00","43.46","43.46","41.94","1.88M","-0.60%"
"Nov 10, 2017","41.02","43.75","43.75","40.60","7.37M","-4.60%"
"Nov 13, 2017","41.90","41.60","42.01","40.03","3.45M","2.15%"
"Nov 14, 2017","41.90","42.05","43.21","41.67","5.98M","0.00%"
"Nov 16, 2017","41.96","41.98","42.48","41.63","2.10M","0.14%"
"Nov 17, 2017","42.36","41.87","42.69","41.71","1.81M","0.95%"
"Nov 21, 2017","42.30","42.70","43.10","42.15","2.14M","-0.14%"
"Nov 22, 2017","41.19","42.30","42.38","40.92","3.36M","-2.62%"
"Nov 23, 2017","41.21","41.11","41.69","40.96","1.31M","0.05%"
"Nov 24, 2017","40.37","41.26","41.40","40.35","1.42M","-2.04%"
"Nov 27, 2017","39.80","40.28","40.36","39.10","4.39M","-1.41%"
"Nov 28, 2017","40.04","40.23","40.40","39.50","2.58M","0.60%"
"Nov 29, 2017","39.29","40.10","40.51","39.29","2.93M","-1.87%"
"Nov 30, 2017","38.48","39.15","39.56","38.35","3.76M","-2.06%"
"Dec 01, 2017","38.50","38.20","39.20","38.10","3.71M","0.05%"
"Dec 04, 2017","38.46","38.70","38.87","38.06","2.49M","-0.10%"
"Dec 05, 2017","37.44","38.59","38.77","37.44","3.30M","-2.65%"
"Dec 06, 2017","36.84","37.45","37.74","36.36","6.74M","-1.60%"
"Dec 07, 2017","35.79","36.64","36.64","35.16","7.00M","-2.85%"
"Dec 08, 2017","36.71","36.50","36.88","35.75","4.37M","2.57%"
"Dec 11, 2017","36.82","37.20","37.31","36.40","4.51M","0.30%"
"Dec 12, 2017","37.21","36.74","37.21","36.14","2.79M","1.06%"
"Dec 13, 2017","37.30","37.50","38.59","36.91","7.09M","0.24%"
"Dec 14, 2017","36.36","37.12","37.29","35.88","4.44M","-2.52%"
"Dec 15, 2017","35.95","36.37","36.40","35.76","3.32M","-1.13%"
"Dec 18, 2017","36.00","36.30","36.39","35.85","2.68M","0.14%"
"Dec 19, 2017","35.59","36.00","36.45","35.21","3.73M","-1.14%"
"Dec 20, 2017","35.76","35.81","35.95","35.50","2.36M","0.48%"
"Dec 21, 2017","36.33","36.00","36.49","35.78","4.02M","1.59%"
"Dec 22, 2017","36.36","36.38","36.65","36.19","1.61M","0.08%"
"Dec 26, 2017","37.04","36.47","37.08","36.21","1.49M","1.87%"
"Dec 27, 2017","37.04","37.04","37.28","36.77","3.31M","0.00%"
"Dec 28, 2017","36.60","37.24","37.46","36.60","3.33M","-1.19%"
"Jan 02, 2018","37.27","36.97","37.60","36.71","2.34M","1.83%"
"Jan 03, 2018","37.00","37.28","37.70","37.00","2.82M","-0.72%"
"Jan 04, 2018","37.40","37.10","37.80","37.01","2.25M","1.08%"
"Jan 05, 2018","39.24","37.59","39.24","37.48","4.61M","4.92%"
"Jan 08, 2018","39.70","39.53","39.78","38.81","4.12M","1.17%"
"Jan 09, 2018","39.85","39.80","40.08","39.42","4.73M","0.38%"
"Jan 10, 2018","39.09","39.70","39.70","38.87","3.07M","-1.91%"
"Jan 11, 2018","39.36","39.16","39.42","38.31","2.35M","0.69%"
"Jan 12, 2018","39.56","39.19","39.69","38.87","2.70M","0.51%"
"Jan 15, 2018","39.53","39.90","40.05","39.53","1.47M","-0.08%"
"Jan 16, 2018","39.70","39.70","39.99","39.65","4.58M","0.43%"
"Jan 17, 2018","39.17","39.81","39.84","39.02","2.66M","-1.34%"
"Jan 18, 2018","37.74","39.50","39.50","37.74","6.72M","-3.65%"
"Jan 19, 2018","37.49","37.95","38.18","37.49","3.35M","-0.66%"
"Jan 22, 2018","36.86","37.45","37.71","36.66","4.87M","-1.68%"
"Jan 23, 2018","35.71","36.70","36.79","35.71","5.22M","-3.12%"
"Jan 24, 2018","36.41","36.05","36.76","36.05","4.44M","1.96%"
"Jan 26, 2018","37.01","36.94","37.28","36.43","3.38M","1.65%"
"Jan 29, 2018","37.10","36.90","37.10","36.00","2.35M","0.24%"
"Jan 30, 2018","36.50","37.06","37.06","36.30","3.28M","-1.62%"
"Jan 31, 2018","35.35","36.74","36.85","35.33","7.02M","-3.15%"
"Feb 01, 2018","36.20","35.42","36.51","35.42","3.27M","2.40%"
"Feb 02, 2018","35.06","36.00","36.00","34.90","4.89M","-3.15%"
"Feb 05, 2018","33.46","34.98","35.01","33.33","6.60M","-4.56%"
"Feb 06, 2018","33.20","33.37","34.13","32.85","7.93M","-0.78%"
"Feb 07, 2018","32.57","33.34","33.60","32.45","5.86M","-1.90%"
"Feb 08, 2018","31.28","32.57","32.75","31.06","9.83M","-3.96%"
"Feb 09, 2018","30.35","31.00","31.28","29.75","7.19M","-2.97%"
"Feb 14, 2018","31.12","30.57","31.34","30.16","5.68M","2.54%"
"Feb 15, 2018","30.50","31.30","31.44","30.50","4.59M","-1.99%"
"Feb 16, 2018","29.70","30.90","30.90","29.56","4.66M","-2.62%"
"Feb 19, 2018","29.87","29.75","30.02","29.62","2.54M","0.57%"
"Feb 20, 2018","29.80","29.84","30.21","29.26","3.52M","-0.23%"
"Feb 21, 2018","30.25","29.89","30.65","29.61","4.66M","1.51%"
"Feb 22, 2018","30.98","30.25","31.03","30.25","5.14M","2.41%"
"Feb 23, 2018","28.40","29.50","30.03","28.10","29.97M","-8.33%"
"Feb 26, 2018","28.60","28.50","29.10","28.12","10.70M","0.70%"
"Feb 27, 2018","28.65","28.65","28.83","28.50","5.49M","0.17%"
"Feb 28, 2018","29.92","28.75","30.07","28.75","12.09M","4.43%"
"Mar 01, 2018","30.15","30.40","31.17","29.66","7.76M","0.77%"
"Mar 02, 2018","30.84","30.07","30.84","29.73","4.28M","2.29%"
"Mar 05, 2018","24.75","27.10","27.64","24.70","46.30M","-19.75%"
"Mar 06, 2018","24.14","24.70","24.75","23.65","22.67M","-2.46%"
"Mar 07, 2018","25.16","24.70","25.38","24.37","22.08M","4.23%"
"Mar 08, 2018","25.03","25.32","25.61","24.85","9.03M","-0.52%"
"Mar 09, 2018","26.56","25.01","26.56","24.86","9.66M","6.11%"
"Mar 12, 2018","26.92","26.86","27.10","26.59","7.36M","1.36%"
"Mar 13, 2018","26.97","27.05","27.20","26.81","3.75M","0.19%"
"Mar 14, 2018","26.41","27.05","27.18","26.28","4.31M","-2.08%"
"Mar 15, 2018","25.27","26.15","26.15","25.24","7.63M","-4.32%"
"Mar 16, 2018","25.00","24.75","25.14","23.70","11.39M","-1.07%"
"Mar 19, 2018","25.00","25.01","25.27","24.53","5.31M","0.00%"
"Mar 20, 2018","24.50","25.16","25.42","24.38","5.36M","-2.00%"
"Mar 21, 2018","24.28","24.63","24.70","23.93","5.37M","-0.90%"
"Mar 22, 2018","24.52","24.47","25.10","24.02","4.18M","0.99%"
"Mar 23, 2018","23.87","24.35","24.67","23.87","5.32M","-2.65%"
"Mar 26, 2018","23.23","24.10","24.20","22.91","5.75M","-2.68%"
"Mar 27, 2018","23.21","23.23","23.40","22.70","7.33M","-0.09%"
"Mar 28, 2018","22.16","23.12","23.18","22.16","6.50M","-4.52%"
"Mar 29, 2018","22.83","22.31","22.99","22.22","7.60M","3.02%"
"Apr 02, 2018","22.92","22.94","23.36","22.83","2.96M","0.39%"
"Apr 03, 2018","23.15","23.20","23.40","22.62","3.87M","1.00%"
"Apr 04, 2018","23.06","23.27","23.39","22.73","4.18M","-0.39%"
"Apr 05, 2018","22.05","23.30","23.35","21.88","8.69M","-4.38%"
"Apr 06, 2018","22.36","22.14","22.40","21.30","9.08M","1.41%"
"Apr 09, 2018","21.36","22.40","22.60","21.33","7.03M","-4.47%"
"Apr 10, 2018","21.41","21.54","21.74","21.20","8.49M","0.23%"
"Apr 11, 2018","22.54","21.44","22.74","21.40","7.31M","5.28%"
"Apr 12, 2018","22.71","22.40","22.97","22.32","5.16M","0.75%"
"Apr 13, 2018","21.67","22.46","22.46","21.60","7.72M","-4.58%"
"Apr 16, 2018","21.02","21.75","21.76","21.00","5.61M","-3.00%"
"Apr 17, 2018","21.04","21.01","21.26","20.20","9.38M","0.10%"
"Apr 18, 2018","23.04","21.35","23.12","21.10","11.23M","9.51%"
"Apr 19, 2018","24.17","24.00","25.38","23.35","26.96M","4.90%"
"Apr 20, 2018","25.37","24.10","25.37","24.10","8.30M","4.96%"
"Apr 23, 2018","25.33","25.63","25.94","25.09","6.61M","-0.16%"
"Apr 24, 2018","25.85","25.43","26.26","25.43","7.87M","2.05%"
"Apr 25, 2018","25.82","25.64","25.94","25.15","6.08M","-0.12%"
"Apr 26, 2018","25.97","26.15","26.46","25.71","3.61M","0.58%"
"Apr 27, 2018","25.72","26.37","26.50","25.72","4.16M","-0.96%"
"Apr 30, 2018","24.80","25.54","25.85","24.71","4.49M","-3.58%"
"May 02, 2018","24.60","24.86","25.14","24.26","5.56M","-0.81%"
"May 03, 2018","24.30","24.37","25.34","24.30","4.82M","-1.22%"
"May 04, 2018","24.40","24.34","24.56","23.70","3.31M","0.41%"
"May 07, 2018","24.10","24.62","24.99","24.03","4.51M","-1.23%"
"May 08, 2018","23.88","24.35","24.35","23.72","4.57M","-0.91%"
"May 09, 2018","24.36","23.96","24.61","23.36","4.58M","2.01%"
"May 10, 2018","24.00","24.69","25.20","23.87","6.01M","-1.48%"
"May 11, 2018","23.90","24.20","24.45","23.22","9.55M","-0.42%"
"May 14, 2018","24.67","24.20","24.89","23.89","6.98M","3.22%"
"May 15, 2018","23.95","24.08","24.63","23.92","7.59M","-2.92%"
"May 16, 2018","23.36","24.00","24.30","23.28","4.79M","-2.46%"
"May 17, 2018","22.00","23.00","23.00","21.71","13.21M","-5.82%"
"May 18, 2018","21.65","21.64","21.70","21.01","8.71M","-1.59%"
"May 21, 2018","21.63","22.15","22.24","21.27","6.07M","-0.09%"
"May 22, 2018","22.13","21.93","22.32","21.64","5.98M","2.31%"
"May 23, 2018","21.42","21.83","21.89","21.41","5.35M","-3.21%"
"May 24, 2018","22.79","21.30","22.95","21.00","12.84M","6.40%"
"May 25, 2018","22.29","22.85","22.93","22.00","5.14M","-2.19%"
"May 28, 2018","22.00","21.85","22.00","21.15","5.25M","-1.30%"
"May 29, 2018","21.20","22.10","22.10","21.09","6.27M","-3.64%"
"May 30, 2018","21.42","21.23","21.76","20.72","14.05M","1.04%"
"Jun 01, 2018","23.39","21.64","24.30","21.05","13.49M","9.20%"
"Jun 04, 2018","24.39","24.13","24.47","23.62","6.91M","4.28%"
"Jun 05, 2018","24.57","24.35","25.55","24.03","13.12M","0.74%"
"Jun 06, 2018","23.84","24.50","25.18","23.41","7.80M","-2.97%"
"Jun 07, 2018","23.24","23.40","24.13","21.98","8.01M","-2.52%"
"Jun 08, 2018","21.50","22.00","22.89","21.50","9.62M","-7.49%"
"Jun 11, 2018","21.51","21.70","21.95","21.42","5.39M","0.05%"
"Jun 12, 2018","20.89","21.10","21.48","20.70","5.70M","-2.88%"
"Jun 13, 2018","20.20","20.59","20.69","19.41","13.89M","-3.30%"
"Jun 14, 2018","20.87","21.40","21.86","20.79","11.61M","3.32%"
"Jun 15, 2018","20.29","21.05","21.45","19.72","13.32M","-2.78%"
"Jun 18, 2018","20.00","20.00","20.14","19.53","5.82M","-1.43%"
"Jun 19, 2018","20.08","19.80","20.51","19.65","4.89M","0.40%"
"Jun 20, 2018","19.60","19.66","20.30","19.52","7.68M","-2.39%"
"Jun 21, 2018","19.11","19.53","19.99","19.11","4.78M","-2.50%"
"Jun 22, 2018","19.45","19.23","19.88","19.23","3.88M","1.78%"
"Jun 25, 2018","18.77","19.67","19.67","18.63","6.97M","-3.50%"
"Jun 26, 2018","18.50","18.86","18.97","18.41","5.66M","-1.44%"
"Jun 27, 2018","18.17","18.46","18.50","18.07","5.15M","-1.78%"
"Jun 28, 2018","17.91","18.20","18.30","17.84","4.57M","-1.43%"
"Jun 29, 2018","18.00","18.09","18.17","17.83","8.05M","0.50%"
"Jul 02, 2018","20.21","19.35","21.05","19.19","24.01M","12.28%"
"Jul 03, 2018","20.42","20.78","21.08","20.42","7.31M","1.04%"
"Jul 04, 2018","20.70","20.70","20.80","20.33","2.62M","1.37%"
"Jul 05, 2018","21.45","20.80","21.67","20.80","6.75M","3.62%"
"Jul 06, 2018","22.80","21.67","23.03","21.33","11.72M","6.29%"
"Jul 10, 2018","23.07","23.75","23.75","23.00","10.41M","1.18%"
"Jul 11, 2018","22.82","22.80","23.37","22.35","6.35M","-1.08%"
"Jul 12, 2018","23.15","23.02","23.34","22.94","3.66M","1.45%"
"Jul 13, 2018","22.78","23.20","23.20","22.62","4.03M","-1.60%"
"Jul 16, 2018","22.60","22.80","22.99","22.30","3.56M","-0.79%"
"Jul 17, 2018","23.30","22.65","23.50","22.56","4.37M","3.10%"
"Jul 18, 2018","23.20","23.40","23.65","23.12","4.37M","-0.43%"
"Jul 19, 2018","23.38","23.11","23.45","22.72","2.94M","0.78%"
"Jul 20, 2018","23.63","23.76","23.90","23.47","5.59M","1.07%"
"Jul 23, 2018","23.60","23.63","23.95","23.46","3.47M","-0.13%"
"Jul 24, 2018","23.66","23.94","24.15","23.48","3.71M","0.25%"
"Jul 25, 2018","23.58","23.61","23.80","23.32","3.61M","-0.34%"
"Jul 26, 2018","22.98","23.56","23.77","22.96","3.20M","-2.54%"
"Jul 27, 2018","22.89","23.17","23.36","22.61","3.32M","-0.39%"
"Jul 30, 2018","22.88","23.08","23.10","22.52","2.72M","-0.04%"
"Jul 31, 2018","22.65","22.96","23.00","22.56","3.04M","-1.01%"
"Aug 01, 2018","22.68","22.82","23.25","22.59","3.59M","0.13%"
"Aug 02, 2018","22.54","22.65","22.93","22.36","2.87M","-0.62%"
"Aug 03, 2018","23.29","22.63","23.40","22.45","4.67M","3.33%"
"Aug 06, 2018","23.35","23.60","23.84","23.35","4.14M","0.26%"
"Aug 07, 2018","22.84","23.60","23.65","22.74","4.34M","-2.18%"
"Aug 08, 2018","22.53","22.85","23.15","22.50","3.25M","-1.36%"
"Aug 09, 2018","21.84","22.62","22.74","21.60","5.27M","-3.06%"
"Aug 10, 2018","20.44","21.09","21.17","20.10","12.20M","-6.41%"
"Aug 13, 2018","20.20","20.10","20.33","19.32","8.78M","-1.17%"
"Aug 14, 2018","20.20","20.45","20.65","19.72","6.75M","0.00%"
"Aug 15, 2018","19.91","19.95","20.10","19.73","5.16M","-1.44%"
"Aug 16, 2018","20.28","20.10","20.71","19.59","5.53M","1.86%"
"Aug 17, 2018","20.13","19.98","20.34","19.77","3.33M","-0.74%"
"Aug 20, 2018","20.09","19.95","20.11","19.76","4.40M","-0.20%"
"Aug 21, 2018","19.62","20.00","20.03","19.54","4.04M","-2.34%"
"Aug 22, 2018","19.83","19.52","19.87","19.34","3.44M","1.07%"
"Aug 23, 2018","19.40","19.73","20.15","19.33","4.05M","-2.17%"
"Aug 24, 2018","19.40","19.65","19.67","19.20","3.10M","0.00%"
"Aug 27, 2018","19.94","19.50","19.95","19.47","3.28M","2.78%"
"Aug 28, 2018","19.83","19.92","19.92","19.57","3.03M","-0.55%"
"Aug 29, 2018","20.23","19.80","20.35","19.75","4.22M","2.02%"
"Aug 30, 2018","19.74","20.15","20.25","19.70","2.90M","-2.42%"
"Aug 31, 2018","20.13","19.77","20.24","19.61","5.02M","1.98%"
"Sep 03, 2018","20.40","19.94","20.50","19.85","3.43M","1.34%"
"Sep 04, 2018","21.03","20.40","21.13","20.21","7.64M","3.09%"
"Sep 05, 2018","21.25","20.90","21.45","20.73","5.15M","1.05%"
"Sep 06, 2018","21.52","21.34","21.59","21.05","3.74M","1.27%"
"Sep 10, 2018","21.65","21.54","21.88","21.40","4.66M","0.60%"
"Sep 11, 2018","21.63","21.30","21.68","21.20","3.90M","-0.09%"
"Sep 12, 2018","20.85","21.72","21.84","20.80","5.18M","-3.61%"
"Sep 13, 2018","20.61","20.83","20.94","20.37","3.59M","-1.15%"
"Sep 14, 2018","20.49","20.40","20.70","20.13","3.10M","-0.58%"
"Sep 17, 2018","21.85","21.00","21.98","20.93","7.40M","6.64%"
"Sep 18, 2018","22.04","21.95","22.29","21.75","5.66M","0.87%"
"Sep 19, 2018","21.76","21.79","22.06","21.59","2.51M","-1.27%"
"Sep 20, 2018","21.60","22.00","22.05","21.14","3.29M","-0.74%"
"Sep 21, 2018","21.93","21.70","21.93","21.50","4.58M","1.53%"
"Sep 24, 2018","21.28","21.98","21.98","21.26","2.71M","-2.96%"
"Sep 25, 2018","21.11","21.01","21.34","20.74","4.98M","-0.80%"
"Sep 26, 2018","22.21","21.23","22.34","21.12","5.92M","5.21%"
"Sep 27, 2018","22.14","22.20","22.48","22.01","4.40M","-0.32%"
"Sep 28, 2018","21.97","21.82","22.06","21.65","5.36M","-0.77%"
"Oct 01, 2018","21.87","22.00","22.18","21.65","2.47M","-0.46%"
"Oct 02, 2018","22.20","22.14","22.47","21.83","6.20M","1.51%"
"Oct 03, 2018","22.40","22.65","22.89","22.28","4.93M","0.90%"
"Oct 04, 2018","21.83","22.30","22.30","21.54","4.40M","-2.54%"
"Oct 05, 2018","22.49","22.02","22.66","21.64","4.43M","3.02%"
"Oct 08, 2018","22.47","23.16","23.57","21.97","8.46M","-0.09%"
"Oct 09, 2018","21.65","22.55","22.55","21.65","8.26M","-3.65%"
"Oct 10, 2018","20.54","21.50","21.50","20.52","6.32M","-5.13%"
"Oct 11, 2018","20.44","20.83","20.83","19.84","6.26M","-0.49%"
"Oct 15, 2018","20.15","20.79","20.79","20.00","3.81M","-1.42%"
"Oct 16, 2018","20.38","19.89","20.44","19.88","4.18M","1.14%"
"Oct 17, 2018","20.49","20.37","20.67","20.16","3.74M","0.54%"
"Oct 18, 2018","20.21","20.59","20.64","20.16","3.97M","-1.37%"
"Oct 19, 2018","20.37","20.30","20.60","20.30","3.33M","0.79%"
"Oct 22, 2018","20.62","20.53","20.78","20.40","2.60M","1.23%"
"Oct 23, 2018","20.54","20.50","20.61","20.09","4.11M","-0.39%"
"Oct 24, 2018","20.13","20.50","20.75","20.08","3.31M","-2.00%"
"Oct 25, 2018","20.15","20.26","20.49","20.10","5.00M","0.10%"
"Oct 26, 2018","20.48","20.20","20.62","20.12","5.16M","1.64%"
"Oct 29, 2018","20.21","21.00","21.33","20.11","8.01M","-1.32%"
"Oct 30, 2018","21.17","20.50","21.46","20.30","7.23M","4.75%"
"Oct 31, 2018","21.90","21.40","22.50","21.40","12.18M","3.45%"
"Nov 01, 2018","22.21","22.10","22.54","21.95","5.08M","1.42%"
"Nov 05, 2018","22.02","22.30","22.69","21.96","6.42M","-0.86%"
"Nov 06, 2018","22.00","22.11","22.34","21.77","3.65M","-0.09%"
"Nov 07, 2018","22.24","22.16","22.45","22.15","4.02M","1.09%"
"Nov 08, 2018","21.00","21.30","22.05","21.00","6.99M","-5.58%"
"Nov 09, 2018","20.57","21.06","21.11","20.32","5.70M","-2.05%"
"Nov 12, 2018","19.96","20.55","20.80","19.86","6.24M","-2.97%"
"Nov 13, 2018","19.77","19.96","20.10","19.13","7.38M","-0.95%"
"Nov 14, 2018","20.09","19.66","20.18","19.19","7.65M","1.62%"
"Nov 16, 2018","20.30","20.20","20.38","19.70","3.80M","1.05%"
"Nov 19, 2018","20.16","20.30","20.32","19.90","3.76M","-0.69%"
"Nov 21, 2018","21.15","19.86","21.34","19.75","8.46M","4.91%"
"Nov 22, 2018","22.50","21.18","22.55","21.16","8.50M","6.38%"
"Nov 23, 2018","21.64","22.39","22.48","21.62","7.11M","-3.82%"
"Nov 26, 2018","21.80","21.80","22.28","21.62","6.50M","0.74%"
"Nov 27, 2018","22.06","21.82","22.29","21.74","5.82M","1.19%"
"Nov 28, 2018","22.08","22.00","22.40","21.81","5.66M","0.09%"
"Nov 29, 2018","22.50","22.00","22.50","21.82","3.94M","1.90%"
"Nov 30, 2018","22.17","22.50","22.75","22.09","6.69M","-1.47%"
"Dec 03, 2018","22.55","22.60","23.06","22.49","27.16M","1.71%"
"Dec 04, 2018","22.40","22.70","22.98","22.20","6.64M","-0.67%"
"Dec 05, 2018","23.35","22.61","23.36","22.22","5.63M","4.24%"
"Dec 06, 2018","23.08","23.01","23.54","22.60","6.48M","-1.16%"
"Dec 07, 2018","22.80","23.11","23.27","22.70","4.45M","-1.21%"
"Dec 10, 2018","21.74","22.78","22.90","21.74","4.39M","-4.65%"
"Dec 11, 2018","21.50","22.11","22.20","21.28","4.36M","-1.10%"
"Dec 12, 2018","22.19","21.70","22.26","21.32","4.98M","3.21%"
"Dec 13, 2018","22.68","22.25","22.79","22.11","4.75M","2.21%"
"Dec 14, 2018","23.00","22.50","23.35","22.39","6.38M","1.41%"
"Dec 17, 2018","23.00","23.18","23.38","22.73","6.35M","0.00%"
"Dec 18, 2018","23.30","23.20","23.48","23.08","5.38M","1.30%"
"Dec 19, 2018","22.75","23.47","23.58","22.75","4.80M","-2.36%"
"Dec 20, 2018","22.50","22.80","23.05","22.13","3.79M","-1.10%"
"Dec 21, 2018","22.07","22.52","22.64","21.82","5.57M","-1.91%"
"Dec 26, 2018","21.90","21.81","22.20","21.50","3.20M","-0.77%"
"Dec 27, 2018","21.63","21.79","22.00","21.55","2.57M","-1.23%"
"Dec 28, 2018","21.93","21.85","22.18","21.74","3.81M","1.39%"
"Jan 02, 2019","22.38","21.95","22.69","21.85","4.62M","2.05%"
"Jan 03, 2019","21.49","21.37","22.76","21.32","8.33M","-3.98%"
"Jan 04, 2019","21.45","21.64","21.79","20.91","8.00M","-0.19%"
"Jan 07, 2019","21.59","21.52","21.75","21.24","3.25M","0.65%"
"Jan 08, 2019","22.93","21.60","22.99","21.60","8.61M","6.21%"
"Jan 09, 2019","23.55","23.04","23.58","22.81","7.72M","2.70%"
"Jan 10, 2019","23.45","23.43","23.66","22.97","6.48M","-0.42%"
"Jan 11, 2019","22.95","23.22","23.45","22.58","9.61M","-2.13%"
"Jan 14, 2019","22.67","22.90","23.28","22.61","5.86M","-1.22%"
"Jan 15, 2019","22.43","22.68","22.97","22.26","5.01M","-1.06%"
"Jan 16, 2019","22.22","22.42","22.50","22.20","4.91M","-0.94%"
"Jan 17, 2019","23.66","22.30","23.76","22.30","10.13M","6.48%"
"Jan 18, 2019","24.05","23.65","24.28","23.37","10.37M","1.65%"
"Jan 21, 2019","24.49","24.05","24.66","23.40","6.04M","1.83%"
"Jan 22, 2019","23.26","24.66","24.86","23.19","14.02M","-5.02%"
"Jan 23, 2019","23.75","23.51","23.97","23.42","7.41M","2.11%"
"Jan 24, 2019","24.19","23.74","24.19","23.65","4.95M","1.85%"
"Jan 28, 2019","24.45","23.99","24.51","23.72","4.60M","1.07%"
"Jan 29, 2019","23.85","24.50","24.86","23.85","5.75M","-2.45%"
"Jan 30, 2019","23.68","24.01","24.20","23.42","7.88M","-0.71%"
"Jan 31, 2019","23.54","23.86","24.30","23.54","5.46M","-0.59%"
"Feb 01, 2019","23.89","23.69","24.11","23.59","4.19M","1.49%"
"Feb 04, 2019","23.70","23.95","24.19","23.67","5.45M","-0.80%"
"Feb 05, 2019","25.24","24.01","25.33","23.91","16.07M","6.50%"
"Feb 06, 2019","24.18","25.15","25.15","24.13","7.85M","-4.20%"
"Feb 07, 2019","23.21","23.35","23.55","22.72","18.91M","-4.01%"
"Feb 08, 2019","23.50","23.21","23.67","22.95","5.88M","1.25%"
"Feb 11, 2019","23.12","23.50","23.50","23.00","5.66M","-1.62%"
"Feb 12, 2019","23.30","23.25","23.45","23.22","3.68M","0.78%"
"Feb 13, 2019","22.55","22.86","23.18","22.45","13.93M","-3.22%"
"Feb 14, 2019","22.82","22.69","22.95","22.21","6.19M","1.20%"
"Feb 15, 2019","22.66","23.04","23.34","22.59","6.46M","-0.70%"
"Feb 18, 2019","22.26","22.66","22.74","22.03","5.21M","-1.77%"
"Feb 19, 2019","22.16","22.37","22.49","22.16","6.87M","-0.45%"
"Feb 20, 2019","22.66","22.36","22.74","22.21","7.59M","2.26%"
"Feb 21, 2019","22.07","22.51","22.71","22.05","4.24M","-2.60%"
"Feb 22, 2019","22.29","22.20","22.29","21.94","3.68M","1.00%"
"Feb 25, 2019","22.24","22.40","22.57","22.06","4.20M","-0.22%"
"Feb 26, 2019","21.88","22.15","22.31","21.81","4.19M","-1.62%"
"Feb 27, 2019","21.60","21.88","22.00","21.58","3.91M","-1.28%"
"Feb 28, 2019","20.57","21.75","22.20","20.31","19.58M","-4.77%"
"Mar 01, 2019","20.52","20.74","21.00","20.38","5.53M","-0.24%"
"Mar 06, 2019","19.70","20.15","20.21","19.70","6.03M","-4.00%"
"Mar 07, 2019","19.49","19.79","19.98","19.49","6.61M","-1.07%"
"Mar 08, 2019","19.86","19.60","20.08","19.33","9.23M","1.90%"
"Mar 11, 2019","20.33","20.05","20.43","19.94","6.77M","2.37%"
"Mar 12, 2019","20.05","20.34","20.61","20.00","7.87M","-1.38%"
"Mar 13, 2019","20.30","20.25","20.49","20.10","6.94M","1.25%"
"Mar 14, 2019","20.75","20.40","20.75","20.40","10.34M","2.22%"
"Mar 15, 2019","22.22","20.74","22.48","20.64","19.28M","7.08%"
"Mar 18, 2019","23.29","22.58","23.29","21.90","12.19M","4.82%"
"Mar 19, 2019","23.06","23.25","23.50","22.79","7.30M","-0.99%"
"Mar 20, 2019","22.95","22.90","23.22","22.62","6.16M","-0.48%"
"Mar 21, 2019","22.70","22.85","23.07","22.25","5.78M","-1.09%"
"Mar 22, 2019","22.20","22.05","22.76","21.90","7.59M","-2.20%"
"Mar 25, 2019","21.85","22.19","22.20","21.67","5.48M","-1.58%"
"Mar 26, 2019","22.34","22.09","22.56","21.73","7.70M","2.24%"
"Mar 27, 2019","21.94","22.06","22.27","21.61","6.44M","-1.79%"
"Mar 28, 2019","22.60","21.79","22.80","21.70","6.50M","3.01%"
"Mar 29, 2019","22.65","22.65","23.05","22.33","10.83M","0.22%"
"Apr 01, 2019","23.00","22.90","23.33","22.88","4.85M","1.55%"
"Apr 02, 2019","22.95","22.61","23.30","22.60","3.67M","-0.22%"
"Apr 03, 2019","23.00","23.20","23.45","22.76","4.00M","0.22%"
"Apr 04, 2019","23.56","23.00","23.58","22.96","5.09M","2.43%"
"Apr 05, 2019","23.82","23.57","24.07","23.39","5.35M","1.10%"
"Apr 08, 2019","24.08","23.90","24.13","23.58","4.94M","1.09%"
"Apr 09, 2019","24.47","23.85","24.47","23.73","7.30M","1.62%"
"Apr 10, 2019","24.98","24.48","25.05","24.20","12.55M","2.08%"
"Apr 11, 2019","25.20","24.99","25.23","24.62","7.15M","0.88%"
"Apr 12, 2019","25.63","24.90","25.79","24.75","9.75M","1.71%"
"Apr 15, 2019","26.05","25.61","26.44","25.30","10.08M","1.64%"
"Apr 16, 2019","27.68","26.15","28.10","26.15","19.78M","6.26%"
"Apr 17, 2019","28.23","27.80","28.62","27.35","18.14M","1.99%"
"Apr 18, 2019","27.61","28.16","28.74","27.15","16.22M","-2.20%"
"Apr 22, 2019","28.00","27.55","28.27","27.40","5.16M","1.41%"
"Apr 23, 2019","29.92","27.98","30.18","27.86","15.90M","6.86%"
"Apr 24, 2019","29.82","29.75","30.54","29.52","13.88M","-0.33%"
"Apr 25, 2019","30.72","29.81","30.72","29.59","12.79M","3.02%"
"Apr 26, 2019","30.50","30.30","30.88","29.72","8.44M","-0.72%"
"Apr 29, 2019","30.48","30.65","31.00","30.40","7.77M","-0.07%"
"Apr 30, 2019","31.05","30.49","31.05","30.20","7.77M","1.87%"
"May 02, 2019","30.76","30.73","30.93","30.20","6.03M","-0.93%"
"May 03, 2019","30.72","30.83","31.19","30.24","7.18M","-0.13%"
"May 06, 2019","31.05","30.24","31.28","30.08","7.67M","1.07%"
"May 07, 2019","31.05","30.86","31.09","30.13","5.83M","0.00%"
"May 08, 2019","30.39","31.00","31.50","30.33","9.60M","-2.13%"
"May 09, 2019","30.73","30.27","31.06","29.84","8.49M","1.12%"
"May 10, 2019","29.88","30.49","30.49","29.39","9.89M","-2.77%"
"May 13, 2019","29.98","29.50","30.14","29.40","6.19M","0.33%"
"May 14, 2019","31.26","30.09","31.50","30.02","9.01M","4.27%"
"May 15, 2019","31.53","30.97","31.53","30.41","8.90M","0.86%"
"May 16, 2019","32.07","31.11","32.82","31.02","11.31M","1.71%"
"May 17, 2019","31.65","31.94","32.77","31.65","7.58M","-1.31%"
"May 20, 2019","31.82","31.90","32.40","31.73","7.75M","0.54%"
"May 21, 2019","30.04","32.07","32.26","30.04","14.01M","-5.59%"
"May 22, 2019","30.59","30.40","30.72","29.87","9.52M","1.83%"
"May 23, 2019","30.90","30.32","32.20","30.32","10.07M","1.01%"
"May 24, 2019","31.85","31.30","32.09","31.30","5.21M","3.07%"
"May 27, 2019","31.50","32.10","32.19","31.47","3.65M","-1.10%"
"May 28, 2019","30.40","31.80","31.89","30.28","11.63M","-3.49%"
"May 29, 2019","28.73","30.25","30.25","28.55","12.31M","-5.49%"
"May 30, 2019","29.01","28.61","29.45","28.30","8.70M","0.97%"
"May 31, 2019","27.70","29.20","29.36","27.30","22.38M","-4.52%"
"Jun 03, 2019","27.60","27.88","27.95","26.75","9.04M","-0.36%"
"Jun 04, 2019","28.06","27.90","28.18","27.60","6.85M","1.67%"
"Jun 05, 2019","27.10","28.20","28.43","27.03","5.38M","-3.42%"
"Jun 06, 2019","27.41","27.32","27.45","26.84","4.71M","1.14%"
"Jun 07, 2019","26.16","27.55","27.70","26.16","9.67M","-4.56%"
"Jun 10, 2019","27.20","26.09","27.36","25.87","5.47M","3.98%"
"Jun 11, 2019","27.00","27.36","27.50","26.85","5.60M","-0.74%"
"Jun 12, 2019","27.00","26.97","27.00","26.64","4.56M","0.00%"
"Jun 13, 2019","28.57","28.05","28.68","27.69","11.78M","5.81%"
"Jun 14, 2019","29.10","28.60","29.15","28.46","12.55M","1.86%"
"Jun 17, 2019","28.70","29.18","29.20","28.30","8.28M","-1.37%"
"Jun 18, 2019","28.20","28.85","28.90","28.16","4.44M","-1.74%"
"Jun 19, 2019","28.60","28.25","28.60","27.78","5.90M","1.42%"
"Jun 21, 2019","28.66","28.65","28.81","28.19","5.01M","0.21%"
"Jun 24, 2019","28.89","28.66","29.35","28.45","4.55M","0.80%"
"Jun 25, 2019","28.75","29.08","29.12","28.60","4.71M","-0.48%"
"Jun 26, 2019","28.52","29.00","29.00","28.32","2.91M","-0.80%"
"Jun 27, 2019","29.10","28.30","29.14","28.10","3.73M","2.03%"
"Jun 28, 2019","29.52","29.15","29.87","29.00","7.38M","1.44%"
"Jul 01, 2019","32.08","30.00","32.08","29.95","16.04M","8.67%"
"Jul 02, 2019","33.20","31.79","33.20","31.48","11.46M","3.49%"
"Jul 03, 2019","34.00","32.90","34.16","32.82","8.52M","2.41%"
"Jul 04, 2019","34.23","33.99","34.59","33.90","5.18M","0.68%"
"Jul 05, 2019","34.20","34.00","34.42","33.56","6.11M","-0.09%"
"Jul 08, 2019","34.37","34.17","34.67","33.76","4.15M","0.50%"
"Jul 10, 2019","34.98","34.40","35.00","34.36","8.28M","1.77%"
"Jul 11, 2019","33.93","34.98","35.23","33.85","5.93M","-3.00%"
"Jul 12, 2019","33.55","34.56","35.26","33.42","9.16M","-1.12%"
"Jul 15, 2019","33.45","33.80","33.92","32.99","3.27M","-0.30%"
"Jul 16, 2019","32.72","33.45","33.59","32.51","3.64M","-2.18%"
"Jul 17, 2019","32.93","32.95","32.99","32.51","2.99M","0.64%"
"Jul 18, 2019","32.96","33.20","33.50","32.56","3.39M","0.09%"
"Jul 19, 2019","33.45","33.00","33.59","32.54","4.62M","1.49%"
"Jul 22, 2019","34.55","34.06","35.19","34.06","6.14M","3.29%"
"Jul 23, 2019","33.75","34.84","34.88","33.64","4.69M","-2.32%"
"Jul 24, 2019","34.06","33.81","34.18","33.56","3.90M","0.92%"
"Jul 25, 2019","33.35","34.20","34.32","33.03","4.11M","-2.08%"
"Jul 26, 2019","34.00","33.54","34.32","33.16","4.25M","1.95%"
"Jul 29, 2019","33.70","33.61","33.73","32.51","7.47M","-0.88%"
"Jul 30, 2019","33.65","33.70","34.08","33.15","3.02M","-0.15%"
"Jul 31, 2019","33.41","33.70","33.83","32.84","4.53M","-0.71%"
"Aug 01, 2019","34.15","33.47","34.98","33.28","4.84M","2.21%"
"Aug 02, 2019","34.10","33.89","34.18","33.48","3.57M","-0.15%"
"Aug 05, 2019","33.66","33.50","34.20","33.21","4.58M","-1.29%"
"Aug 06, 2019","34.56","33.63","34.85","33.51","4.17M","2.67%"
"Aug 07, 2019","34.61","34.56","34.61","33.55","3.00M","0.14%"
"Aug 08, 2019","36.32","34.82","36.49","34.78","7.16M","4.94%"
"Aug 09, 2019","38.16","39.20","39.60","38.05","15.90M","5.07%"
"Aug 12, 2019","38.63","37.52","38.84","37.21","8.06M","1.23%"
"Aug 13, 2019","39.00","38.66","39.30","38.43","8.64M","0.96%"
"Aug 14, 2019","38.00","38.99","39.26","37.84","5.08M","-2.56%"
"Aug 15, 2019","38.16","38.36","38.93","37.59","5.63M","0.42%"
"Aug 16, 2019","38.57","38.49","39.18","38.30","7.05M","1.07%"
"Aug 19, 2019","38.26","38.90","39.23","37.86","4.46M","-0.80%"
"Aug 20, 2019","37.89","38.30","38.38","37.59","3.78M","-0.97%"
"Aug 21, 2019","38.36","37.99","38.45","36.86","7.14M","1.24%"
"Aug 22, 2019","39.56","38.50","40.21","38.50","10.92M","3.13%"
"Aug 23, 2019","38.59","39.15","39.43","37.88","7.62M","-2.45%"
"Aug 26, 2019","37.88","39.00","39.27","37.61","3.21M","-1.84%"
"Aug 27, 2019","38.01","37.96","38.35","37.37","3.81M","0.34%"
"Aug 28, 2019","39.09","37.80","39.09","37.41","5.16M","2.84%"
"Aug 29, 2019","38.87","39.20","39.39","38.38","4.86M","-0.56%"
"Aug 30, 2019","38.14","39.06","39.50","37.56","7.95M","-1.88%"
"Sep 02, 2019","38.41","38.14","38.87","37.96","2.95M","0.71%"
"Sep 03, 2019","37.72","38.39","38.59","37.52","3.52M","-1.80%"
"Sep 04, 2019","37.89","38.30","38.60","37.80","4.72M","0.45%"
"Sep 05, 2019","38.06","38.11","38.47","37.65","3.80M","0.45%"
"Sep 06, 2019","37.38","38.20","38.43","36.91","3.88M","-1.79%"
"Sep 09, 2019","36.95","38.06","38.66","36.62","10.63M","-1.15%"
"Sep 10, 2019","37.90","37.30","38.25","36.27","8.96M","2.57%"
"Sep 11, 2019","38.45","37.97","38.67","37.90","7.39M","1.45%"
"Sep 12, 2019","38.03","38.73","38.84","37.82","3.77M","-1.09%"
"Sep 13, 2019","38.00","38.08","38.32","37.53","5.55M","-0.08%"
"Sep 16, 2019","38.10","38.43","38.46","37.41","5.03M","0.26%"
"Sep 17, 2019","38.16","37.90","38.24","37.60","3.70M","0.16%"
"Sep 18, 2019","38.39","38.00","39.05","37.92","6.45M","0.60%"
"Sep 19, 2019","37.72","38.65","38.80","37.72","4.44M","-1.75%"
"Sep 20, 2019","38.47","37.97","38.48","37.74","8.12M","1.99%"
"Sep 23, 2019","38.75","38.38","38.94","38.19","3.17M","0.73%"
"Sep 24, 2019","39.84","38.95","40.47","38.85","10.73M","2.81%"
"Sep 25, 2019","40.50","39.90","41.06","39.62","7.36M","1.66%"
"Sep 26, 2019","39.92","40.70","40.70","38.95","10.70M","-1.43%"
"Sep 27, 2019","38.70","39.60","39.60","38.40","5.04M","-3.06%"
"Sep 30, 2019","38.20","38.62","38.75","37.88","6.59M","-1.29%"
"Oct 01, 2019","37.99","37.65","38.23","37.50","6.35M","-0.55%"
"Oct 02, 2019","37.54","37.78","37.82","37.09","6.35M","-1.18%"
"Oct 03, 2019","36.51","37.69","37.88","36.41","5.44M","-2.74%"
"Oct 04, 2019","37.38","36.69","37.62","36.02","4.84M","2.38%"
"Oct 07, 2019","36.74","37.20","37.83","36.56","3.16M","-1.71%"
"Oct 08, 2019","37.21","36.56","37.91","36.56","5.04M","1.28%"
"Oct 09, 2019","36.60","36.94","37.00","36.35","4.07M","-1.64%"
"Oct 10, 2019","36.86","36.74","37.19","36.21","4.00M","0.71%"
"Oct 11, 2019","37.10","36.80","37.30","36.35","4.33M","0.65%"
"Oct 14, 2019","36.38","37.30","37.74","36.35","4.25M","-1.94%"
"Oct 15, 2019","35.99","36.59","36.89","35.74","5.68M","-1.07%"
"Oct 16, 2019","36.28","35.78","36.63","35.78","5.23M","0.81%"
"Oct 17, 2019","35.93","36.50","36.78","35.76","3.84M","-0.96%"
"Oct 18, 2019","36.15","36.00","36.20","35.10","5.88M","0.61%"
"Oct 21, 2019","37.75","36.30","37.75","36.30","5.13M","4.43%"
"Oct 22, 2019","37.53","37.74","38.78","37.43","5.84M","-0.58%"
"Oct 23, 2019","36.80","37.60","37.79","36.55","6.58M","-1.95%"
"Oct 24, 2019","37.21","36.90","37.24","36.36","4.89M","1.11%"
"Oct 25, 2019","36.57","37.26","37.37","36.23","4.29M","-1.72%"
"Oct 28, 2019","35.60","36.70","36.70","35.51","6.69M","-2.65%"
"Oct 29, 2019","35.70","35.88","36.29","35.61","4.74M","0.28%"
"Oct 30, 2019","35.66","35.90","35.91","35.15","4.70M","-0.11%"
"Oct 31, 2019","35.51","35.57","35.61","34.91","3.71M","-0.42%"
"Nov 01, 2019","35.20","35.50","35.68","34.85","5.94M","-0.87%"
"Nov 04, 2019","36.30","35.40","36.59","35.04","5.49M","3.12%"
"Nov 05, 2019","36.57","36.50","36.69","35.80","6.28M","0.74%"
"Nov 06, 2019","35.52","36.65","36.77","35.35","5.85M","-2.87%"
"Nov 07, 2019","35.96","35.73","35.97","35.22","5.49M","1.24%"
"Nov 08, 2019","34.45","35.60","35.88","34.15","12.56M","-4.20%"
"Nov 11, 2019","34.67","34.35","35.08","34.07","4.49M","0.64%"
"Nov 12, 2019","33.20","34.87","35.10","33.12","10.89M","-4.24%"
"Nov 13, 2019","32.89","33.13","33.65","32.71","8.02M","-0.93%"
"Nov 14, 2019","32.96","32.98","33.20","32.53","6.54M","0.21%"
"Nov 18, 2019","33.28","33.20","33.63","32.90","4.77M","0.97%"
"Nov 19, 2019","33.56","33.39","34.13","33.30","4.07M","0.84%"
"Nov 21, 2019","33.68","33.70","33.85","33.10","5.07M","0.36%"
"Nov 22, 2019","34.09","33.61","34.25","33.31","5.11M","1.22%"
"Nov 25, 2019","36.11","34.10","36.19","33.91","7.99M","5.93%"
"Nov 26, 2019","36.80","36.12","36.80","36.12","10.12M","1.91%"
"Nov 27, 2019","36.62","36.80","36.83","36.01","3.19M","-0.49%"
"Nov 28, 2019","36.20","36.50","36.97","35.50","3.73M","-1.15%"
"Nov 29, 2019","36.60","36.33","37.22","36.15","6.77M","1.10%"
"Dec 02, 2019","36.42","36.55","36.93","36.24","3.47M","-0.49%"
"Dec 03, 2019","35.80","36.51","36.61","35.67","4.83M","-1.70%"
"Dec 04, 2019","36.40","35.84","36.68","35.79","6.45M","1.68%"
"Dec 05, 2019","36.30","36.40","36.49","36.23","2.82M","-0.27%"
"Dec 06, 2019","36.90","36.49","37.22","36.35","4.48M","1.65%"
"Dec 09, 2019","36.85","36.95","37.34","36.56","4.39M","-0.14%"
"Dec 10, 2019","36.80","36.90","37.00","36.44","2.68M","-0.14%"
"Dec 11, 2019","35.88","36.90","36.97","35.81","4.97M","-2.50%"
"Dec 12, 2019","35.51","36.23","36.39","35.51","6.03M","-1.03%"
"Dec 13, 2019","33.95","35.57","35.80","33.92","8.58M","-4.39%"
"Dec 16, 2019","34.74","34.30","34.86","34.16","6.32M","2.33%"
"Dec 17, 2019","33.63","34.81","34.99","33.21","9.53M","-3.20%"
"Dec 18, 2019","34.33","33.65","34.60","33.38","8.89M","2.08%"
"Dec 19, 2019","34.37","34.34","34.49","33.80","3.62M","0.12%"
"Dec 20, 2019","34.81","34.38","34.81","34.22","4.81M","1.28%"
"Dec 23, 2019","34.53","34.83","34.99","34.31","2.42M","-0.80%"
"Dec 26, 2019","35.18","34.54","35.25","34.50","2.47M","1.88%"
"Dec 27, 2019","35.24","35.34","35.54","34.87","2.50M","0.17%"
"Dec 30, 2019","35.20","35.22","35.50","35.07","2.07M","-0.11%"
"Jan 02, 2020","35.88","35.34","35.98","35.16","3.21M","1.93%"
"Jan 03, 2020","35.94","35.25","35.98","35.12","4.61M","0.17%"
"Jan 06, 2020","35.57","35.75","35.95","35.20","3.75M","-1.03%"
"Jan 07, 2020","35.16","35.56","35.75","35.01","3.77M","-1.15%"
"Jan 08, 2020","36.51","35.34","36.68","35.01","6.90M","3.84%"
"Jan 09, 2020","36.84","36.68","37.09","36.61","5.16M","0.90%"
"Jan 10, 2020","36.34","36.85","37.23","36.18","4.80M","-1.36%"
"Jan 13, 2020","36.70","36.36","36.78","36.35","3.91M","0.99%"
"Jan 14, 2020","36.55","36.76","37.12","36.06","3.35M","-0.41%"
"Jan 15, 2020","36.47","36.60","36.88","36.10","3.48M","-0.22%"
"Jan 16, 2020","35.87","36.68","36.94","35.46","4.80M","-1.65%"
"Jan 17, 2020","35.75","36.00","36.16","35.53","3.24M","-0.33%"
"Jan 20, 2020","36.05","35.75","36.05","35.55","1.70M","0.84%"
"Jan 21, 2020","35.43","35.89","36.34","35.26","5.54M","-1.72%"
"Jan 22, 2020","35.60","35.40","35.70","34.28","4.72M","0.48%"
"Jan 23, 2020","34.84","35.61","35.62","34.45","4.93M","-2.13%"
"Jan 24, 2020","33.83","34.92","34.92","33.62","7.04M","-2.90%"
"Jan 27, 2020","31.78","33.20","33.20","31.51","10.94M","-6.06%"
"Jan 28, 2020","31.36","32.30","32.40","31.32","12.03M","-1.32%"
"Jan 29, 2020","31.10","31.50","31.89","30.58","7.55M","-0.83%"
"Jan 30, 2020","30.60","30.54","30.80","30.03","10.07M","-1.61%"
"Jan 31, 2020","30.55","30.21","31.00","29.95","7.82M","-0.16%"
"Feb 03, 2020","31.57","30.75","32.38","30.75","9.76M","3.34%"
"Feb 04, 2020","32.18","32.30","32.75","31.94","7.01M","1.93%"
"Feb 05, 2020","32.07","32.85","32.91","31.78","4.89M","-0.34%"
"Feb 06, 2020","31.85","32.30","32.63","31.85","4.89M","-0.69%"
"Feb 07, 2020","31.54","31.50","31.80","30.89","5.04M","-0.97%"
"Feb 10, 2020","30.84","31.48","31.48","30.57","7.23M","-2.22%"
"Feb 11, 2020","30.90","31.03","31.46","30.70","5.09M","0.19%"
"Feb 12, 2020","31.25","31.00","31.85","30.96","6.96M","1.13%"
"Feb 13, 2020","31.33","30.99","31.44","30.72","3.78M","0.26%"
"Feb 14, 2020","30.90","31.26","31.26","30.68","3.76M","-1.37%"
"Feb 17, 2020","31.00","31.00","31.34","30.80","2.76M","0.32%"
"Feb 18, 2020","30.85","31.00","31.00","30.24","3.32M","-0.48%"
"Feb 19, 2020","31.16","30.70","31.39","30.54","4.75M","1.00%"
"Feb 20, 2020","30.68","31.24","31.36","30.42","4.01M","-1.54%"
"Feb 21, 2020","30.36","30.26","30.71","30.14","3.62M","-1.04%"
"Feb 26, 2020","28.45","29.01","29.37","28.10","10.13M","-6.29%"
"Feb 27, 2020","27.53","28.02","28.81","27.53","9.49M","-3.23%"
"Feb 28, 2020","27.04","27.25","27.50","25.95","8.96M","-1.78%"
"Mar 02, 2020","28.20","27.05","28.36","27.05","6.77M","4.29%"
"Mar 03, 2020","26.15","28.49","28.70","26.15","17.43M","-7.27%"
"Mar 04, 2020","26.66","26.73","26.88","26.04","9.73M","1.95%"
"Mar 05, 2020","25.60","26.39","26.47","24.95","5.05M","-3.98%"
"Mar 06, 2020","23.11","24.50","24.89","22.82","13.61M","-9.73%"
"Mar 09, 2020","20.00","20.60","21.32","19.00","15.56M","-13.46%"
"Mar 10, 2020","20.84","20.95","21.05","19.74","18.01M","4.20%"
"Mar 11, 2020","18.50","20.35","20.36","17.68","11.81M","-11.23%"
"Mar 12, 2020","15.25","14.45","15.85","13.49","12.19M","-17.57%"
"Mar 13, 2020","16.49","17.99","18.13","14.90","16.22M","8.13%"
"Mar 16, 2020","13.25","14.50","14.85","13.25","13.26M","-19.65%"
"Mar 17, 2020","14.25","13.75","15.48","13.00","20.98M","7.55%"
"Mar 18, 2020","13.01","13.12","13.42","11.52","16.98M","-8.70%"
"Mar 19, 2020","14.90","12.60","15.30","11.71","15.05M","14.53%"
"Mar 20, 2020","14.15","15.50","16.10","13.96","17.58M","-5.03%"
"Mar 23, 2020","14.03","14.30","14.50","13.35","11.75M","-0.85%"
"Mar 24, 2020","15.04","14.94","15.65","14.52","12.79M","7.20%"
"Mar 25, 2020","15.91","15.04","16.36","14.40","11.72M","5.78%"
"Mar 26, 2020","15.97","16.03","17.00","15.23","12.73M","0.38%"
"Mar 27, 2020","14.87","15.35","15.44","14.73","11.35M","-6.89%"
"Mar 30, 2020","14.51","14.87","15.28","14.35","12.64M","-2.42%"
"Mar 31, 2020","15.09","14.52","15.62","14.31","12.13M","4.00%"
"Apr 01, 2020","15.61","14.69","15.95","14.17","10.63M","3.45%"
"Apr 02, 2020","16.25","15.75","16.50","15.62","11.06M","4.10%"
"Apr 03, 2020","15.26","16.20","16.59","14.91","11.85M","-6.09%"
"Apr 06, 2020","17.68","16.00","17.75","15.85","11.14M","15.86%"
"Apr 07, 2020","17.53","19.40","19.68","17.40","14.53M","-0.85%"
"Apr 08, 2020","17.40","17.60","17.75","16.83","8.80M","-0.74%"
"Apr 09, 2020","18.04","17.60","18.79","17.36","11.63M","3.68%"
"Apr 13, 2020","17.82","18.04","18.21","17.38","9.08M","-1.22%"
"Apr 14, 2020","18.86","18.20","18.98","17.92","7.89M","5.84%"
"Apr 15, 2020","19.05","18.40","19.42","18.06","9.71M","1.01%"
"Apr 16, 2020","19.27","19.34","19.75","18.72","9.45M","1.15%"
"Apr 17, 2020","19.05","19.75","19.75","18.70","7.83M","-1.14%"