﻿"Date","Price","Open","High","Low","Vol.","Change %"
"Dec 10, 2013","15.90","15.33","16.00","15.33","760.20K","2.58%"
"Dec 11, 2013","15.75","15.94","15.99","15.51","776.80K","-0.94%"
"Dec 12, 2013","14.56","14.93","14.93","14.47","529.60K","-7.56%"
"Dec 13, 2013","14.56","14.28","14.73","14.28","309.20K","0.00%"
"Dec 16, 2013","14.32","14.50","14.67","14.32","324.50K","-1.65%"
"Dec 17, 2013","14.23","14.33","14.33","13.94","1.33M","-0.63%"
"Dec 18, 2013","13.99","14.22","14.22","13.82","507.60K","-1.69%"
"Dec 19, 2013","14.13","14.07","14.16","13.81","81.70K","1.00%"
"Dec 20, 2013","13.90","14.12","14.22","13.78","355.20K","-1.63%"
"Dec 23, 2013","13.81","13.90","13.94","13.34","688.40K","-0.65%"
"Dec 26, 2013","13.99","13.81","13.99","13.62","750.70K","1.30%"
"Dec 27, 2013","14.09","13.98","14.23","13.82","599.00K","0.71%"
"Dec 30, 2013","14.37","14.26","14.37","14.00","604.10K","1.99%"
"Jan 02, 2014","14.70","14.42","14.70","14.14","251.00K","2.30%"
"Jan 03, 2014","14.93","14.68","14.93","14.68","278.00K","1.56%"
"Jan 06, 2014","15.03","14.98","15.11","14.75","981.60K","0.67%"
"Jan 07, 2014","15.03","15.05","15.11","14.90","826.40K","0.00%"
"Jan 08, 2014","14.84","14.91","15.00","14.72","108.10K","-1.26%"
"Jan 09, 2014","14.89","14.75","15.07","14.71","86.90K","0.34%"
"Jan 10, 2014","14.96","14.89","15.02","14.72","60.00K","0.47%"
"Jan 13, 2014","14.84","15.02","15.02","14.72","64.00K","-0.80%"
"Jan 14, 2014","14.65","14.97","14.97","14.56","153.00K","-1.28%"
"Jan 15, 2014","14.75","14.89","15.03","14.66","407.10K","0.68%"
"Jan 16, 2014","14.42","14.75","14.88","14.26","89.70K","-2.24%"
"Jan 17, 2014","13.99","14.57","14.57","13.93","132.30K","-2.98%"
"Jan 20, 2014","14.09","13.96","14.09","13.65","26.30K","0.71%"
"Jan 21, 2014","13.88","14.50","14.50","13.83","276.20K","-1.49%"
"Jan 22, 2014","13.99","13.87","14.07","13.87","46.00K","0.79%"
"Jan 23, 2014","13.97","13.90","14.05","13.81","24.50K","-0.14%"
"Jan 24, 2014","13.85","13.97","13.97","13.76","238.60K","-0.86%"
"Jan 27, 2014","13.71","13.45","13.71","13.45","47.20K","-1.01%"
"Jan 28, 2014","13.43","13.87","13.88","13.40","1.28M","-2.04%"
"Jan 29, 2014","13.06","13.43","13.43","12.90","81.80K","-2.76%"
"Jan 30, 2014","13.10","13.33","13.43","12.77","17.70K","0.31%"
"Jan 31, 2014","13.38","13.20","13.38","12.83","140.60K","2.14%"
"Feb 03, 2014","12.86","13.37","13.37","12.78","4.80K","-3.89%"
"Feb 04, 2014","13.06","12.86","13.16","12.78","31.00K","1.56%"
"Feb 05, 2014","13.15","13.33","13.75","12.91","222.50K","0.69%"
"Feb 06, 2014","13.15","13.23","13.38","12.97","244.50K","0.00%"
"Feb 07, 2014","13.01","13.13","13.13","12.68","497.70K","-1.06%"
"Feb 10, 2014","12.40","12.96","12.96","12.30","499.50K","-4.69%"
"Feb 11, 2014","12.45","12.53","12.53","12.35","167.50K","0.40%"
"Feb 12, 2014","12.40","12.42","12.58","12.29","1.53M","-0.40%"
"Feb 13, 2014","12.87","12.30","12.87","12.19","494.70K","3.79%"
"Feb 14, 2014","12.78","12.77","12.84","12.59","429.10K","-0.70%"
"Feb 17, 2014","12.75","12.78","12.93","12.60","94.10K","-0.23%"
"Feb 18, 2014","12.10","12.77","12.79","12.10","189.90K","-5.10%"
"Feb 19, 2014","11.66","12.14","12.14","11.56","300.30K","-3.64%"
"Feb 20, 2014","11.39","11.66","11.75","11.25","285.20K","-2.32%"
"Feb 21, 2014","11.55","11.43","11.73","11.27","175.40K","1.40%"
"Feb 24, 2014","11.55","11.46","11.68","11.37","135.40K","0.00%"
"Feb 25, 2014","11.72","11.66","11.74","11.41","98.30K","1.47%"
"Feb 26, 2014","12.26","11.67","12.30","11.56","161.30K","4.61%"
"Feb 27, 2014","13.38","12.36","13.38","12.18","3.19M","9.14%"
"Feb 28, 2014","13.44","13.59","14.09","13.05","155.30K","0.45%"
"Mar 05, 2014","13.53","13.34","13.53","13.08","38.70K","0.67%"
"Mar 06, 2014","14.07","13.68","14.07","13.50","75.60K","3.99%"
"Mar 07, 2014","14.05","14.06","14.37","13.97","62.20K","-0.14%"
"Mar 10, 2014","13.75","14.16","14.16","13.36","103.00K","-2.14%"
"Mar 11, 2014","13.43","13.75","13.75","13.37","90.20K","-2.33%"
"Mar 12, 2014","13.10","13.34","13.34","13.01","545.60K","-2.46%"
"Mar 13, 2014","13.20","13.17","13.59","12.95","37.70K","0.76%"
"Mar 14, 2014","13.34","13.05","13.34","12.85","102.80K","1.06%"
"Mar 17, 2014","13.28","13.42","13.42","13.04","202.80K","-0.45%"
"Mar 18, 2014","13.29","13.20","13.33","13.06","479.90K","0.08%"
"Mar 19, 2014","13.41","13.23","13.41","13.18","272.10K","0.90%"
"Mar 20, 2014","13.15","13.37","13.37","13.13","750.20K","-1.94%"
"Mar 21, 2014","13.34","13.12","13.34","13.07","1.01M","1.44%"
"Mar 24, 2014","13.15","13.33","13.33","13.13","156.60K","-1.42%"
"Mar 25, 2014","13.31","13.09","13.31","13.06","245.70K","1.22%"
"Mar 26, 2014","13.29","13.35","13.37","13.10","290.50K","-0.15%"
"Mar 27, 2014","13.85","13.23","13.85","13.00","1.05M","4.21%"
"Mar 28, 2014","14.28","13.94","14.36","13.62","749.20K","3.10%"
"Mar 31, 2014","14.24","14.27","14.33","14.12","197.40K","-0.28%"
"Apr 01, 2014","14.18","14.23","14.23","13.95","287.40K","-0.42%"
"Apr 02, 2014","14.42","14.09","14.46","14.04","280.40K","1.69%"
"Apr 03, 2014","14.91","14.42","14.93","14.35","315.30K","3.40%"
"Apr 04, 2014","14.75","15.03","15.21","14.56","464.40K","-1.07%"
"Apr 07, 2014","15.01","14.86","15.01","14.82","210.70K","1.76%"
"Apr 08, 2014","15.03","15.01","15.03","14.56","223.50K","0.13%"
"Apr 09, 2014","15.03","14.93","15.07","14.77","342.10K","0.00%"
"Apr 10, 2014","15.31","14.96","15.31","14.82","464.00K","1.86%"
"Apr 11, 2014","15.60","15.23","15.61","15.03","284.80K","1.89%"
"Apr 14, 2014","16.20","15.54","16.25","15.45","890.30K","3.85%"
"Apr 15, 2014","16.20","16.16","16.44","15.86","969.10K","0.00%"
"Apr 16, 2014","16.67","16.16","16.80","16.04","1.75M","2.90%"
"Apr 17, 2014","16.43","16.67","16.67","15.90","508.20K","-1.44%"
"Apr 22, 2014","16.25","16.53","16.80","16.10","297.90K","-1.10%"
"Apr 23, 2014","16.00","16.39","16.44","15.90","685.30K","-1.54%"
"Apr 24, 2014","15.78","16.06","16.16","15.69","710.70K","-1.38%"
"Apr 25, 2014","15.49","15.85","15.87","15.37","458.50K","-1.84%"
"Apr 28, 2014","15.34","15.49","15.67","15.18","352.60K","-0.97%"
"Apr 29, 2014","15.46","15.35","15.82","15.09","364.80K","0.78%"
"Apr 30, 2014","15.39","15.42","15.96","15.20","349.40K","-0.45%"
"May 02, 2014","15.42","15.39","15.56","15.28","304.10K","0.19%"
"May 05, 2014","15.37","15.42","15.55","15.28","292.00K","-0.32%"
"May 06, 2014","14.86","15.29","15.29","14.86","393.50K","-3.32%"
"May 07, 2014","14.84","14.99","15.08","14.47","737.40K","-0.13%"
"May 08, 2014","14.52","14.84","14.89","14.40","174.60K","-2.16%"
"May 09, 2014","14.34","14.54","14.54","14.09","512.90K","-1.24%"
"May 12, 2014","14.14","14.35","14.66","13.94","234.70K","-1.39%"
"May 13, 2014","14.51","14.15","14.56","13.97","209.20K","2.62%"
"May 14, 2014","14.50","14.58","14.72","14.48","163.90K","-0.07%"
"May 15, 2014","14.46","14.32","14.59","14.32","44.40K","-0.28%"
"May 16, 2014","14.33","14.41","14.41","14.08","132.10K","-0.90%"
"May 19, 2014","14.30","14.38","14.39","14.05","85.60K","-0.21%"
"May 20, 2014","14.28","14.43","14.43","14.19","32.30K","-0.14%"
"May 21, 2014","14.36","14.49","14.49","14.31","8.70K","0.56%"
"May 22, 2014","14.42","14.38","14.70","14.27","160.20K","0.42%"
"May 23, 2014","14.19","14.49","14.59","14.16","118.30K","-1.60%"
"May 26, 2014","14.02","14.28","14.36","13.77","156.20K","-1.20%"
"May 27, 2014","13.76","14.04","14.04","13.53","534.20K","-1.85%"
"May 28, 2014","13.43","13.75","13.75","13.31","289.40K","-2.40%"
"May 29, 2014","13.68","13.48","13.68","13.19","179.20K","1.86%"
"May 30, 2014","13.53","13.63","13.82","13.47","450.20K","-1.10%"
"Jun 02, 2014","13.39","13.52","13.52","13.24","238.80K","-1.03%"
"Jun 03, 2014","13.49","13.45","13.53","13.24","236.50K","0.75%"
"Jun 04, 2014","13.34","13.48","13.48","13.28","115.90K","-1.11%"
"Jun 05, 2014","13.36","13.39","13.66","13.29","306.10K","0.15%"
"Jun 06, 2014","13.58","13.66","13.87","13.44","258.80K","1.65%"
"Jun 09, 2014","13.64","13.68","13.75","13.56","133.40K","0.44%"
"Jun 10, 2014","13.46","13.62","13.62","13.34","588.70K","-1.32%"
"Jun 11, 2014","13.68","13.51","13.71","13.50","652.70K","1.63%"
"Jun 13, 2014","13.53","13.71","13.88","13.48","112.30K","-1.10%"
"Jun 16, 2014","13.48","13.59","13.59","13.38","634.00K","-0.37%"
"Jun 17, 2014","13.59","13.56","13.79","13.43","31.90K","0.82%"
"Jun 18, 2014","13.59","13.68","13.69","13.43","52.50K","0.00%"
"Jun 20, 2014","13.24","13.73","13.73","13.21","2.28M","-2.58%"
"Jun 23, 2014","13.25","13.24","13.40","13.24","44.70K","0.08%"
"Jun 24, 2014","13.24","13.28","13.34","13.18","97.60K","-0.08%"
"Jun 25, 2014","12.98","13.29","13.43","12.90","115.70K","-1.96%"
"Jun 26, 2014","12.91","13.02","13.02","12.70","403.90K","-0.54%"
"Jun 27, 2014","12.48","12.93","12.93","12.48","450.10K","-3.33%"
"Jun 30, 2014","12.70","12.52","12.70","12.24","204.30K","1.76%"
"Jul 01, 2014","12.39","12.69","12.69","12.28","239.50K","-2.44%"
"Jul 02, 2014","12.53","12.46","12.60","12.31","125.20K","1.13%"
"Jul 03, 2014","12.44","12.56","12.56","12.30","114.00K","-0.72%"
"Jul 04, 2014","12.72","12.48","12.72","12.39","16.10K","2.25%"
"Jul 07, 2014","12.58","12.66","12.66","12.36","70.40K","-1.10%"
"Jul 08, 2014","12.25","12.61","12.61","12.11","154.00K","-2.62%"
"Jul 10, 2014","12.22","12.30","12.31","12.13","51.70K","-0.24%"
"Jul 11, 2014","12.20","12.19","12.49","11.96","298.20K","-0.16%"
"Jul 14, 2014","12.67","12.24","12.95","12.04","238.90K","3.85%"
"Jul 15, 2014","12.85","12.67","12.93","12.57","87.80K","1.42%"
"Jul 16, 2014","12.96","12.82","13.24","12.58","195.60K","0.86%"
"Jul 17, 2014","13.43","12.90","13.43","12.90","446.00K","3.63%"
"Jul 18, 2014","13.90","13.58","13.90","13.54","183.40K","3.50%"
"Jul 21, 2014","13.71","13.89","13.89","13.50","327.10K","-1.37%"
"Jul 22, 2014","13.57","13.71","13.71","13.53","77.80K","-1.02%"
"Jul 23, 2014","13.36","13.57","13.57","13.28","65.90K","-1.55%"
"Jul 24, 2014","13.42","13.39","13.60","13.35","111.00K","0.45%"
"Jul 25, 2014","13.71","13.48","13.71","13.34","30.60K","2.16%"
"Jul 28, 2014","13.53","13.87","13.93","13.40","116.50K","-1.31%"
"Jul 29, 2014","13.36","13.71","13.71","13.24","166.50K","-1.26%"
"Jul 30, 2014","13.70","13.35","13.70","13.34","54.10K","2.54%"
"Jul 31, 2014","13.62","13.52","13.62","13.32","84.30K","-0.58%"
"Aug 01, 2014","13.43","13.75","13.75","13.33","50.30K","-1.40%"
"Aug 04, 2014","13.53","13.54","13.71","13.19","133.90K","0.74%"
"Aug 05, 2014","13.71","13.65","13.88","13.45","426.80K","1.33%"
"Aug 06, 2014","13.71","13.95","14.09","13.58","93.70K","0.00%"
"Aug 07, 2014","13.77","13.88","13.88","13.63","30.70K","0.44%"
"Aug 08, 2014","13.90","13.73","13.90","13.64","22.00K","0.94%"
"Aug 11, 2014","13.48","13.83","13.83","13.48","521.80K","-3.02%"
"Aug 12, 2014","13.38","13.57","13.57","12.88","673.00K","-0.74%"
"Aug 13, 2014","12.78","13.42","13.42","12.78","1.86M","-4.48%"
"Aug 14, 2014","12.65","12.78","12.86","12.44","857.30K","-1.02%"
"Aug 15, 2014","12.86","12.71","13.04","12.53","188.00K","1.66%"
"Aug 18, 2014","13.08","12.88","13.08","12.68","111.20K","1.71%"
"Aug 19, 2014","13.38","13.13","13.43","13.01","925.10K","2.29%"
"Aug 20, 2014","13.78","13.69","13.86","13.32","155.30K","2.99%"
"Aug 21, 2014","14.19","13.79","14.37","13.76","190.90K","2.98%"
"Aug 22, 2014","14.42","14.08","14.42","14.05","112.10K","1.62%"
"Aug 25, 2014","14.43","14.53","14.53","14.17","169.60K","0.07%"
"Aug 26, 2014","14.66","14.42","14.75","14.23","276.10K","1.59%"
"Aug 27, 2014","15.01","14.66","15.10","14.60","95.10K","2.39%"
"Aug 28, 2014","14.90","14.96","14.99","14.76","64.50K","-0.73%"
"Aug 29, 2014","15.12","14.94","15.12","14.86","108.80K","1.48%"
"Sep 01, 2014","15.13","15.12","15.30","14.94","515.80K","0.07%"
"Sep 02, 2014","15.32","15.12","15.41","14.99","567.20K","1.26%"
"Sep 03, 2014","15.46","15.32","15.52","15.31","283.60K","0.91%"
"Sep 04, 2014","15.58","15.45","15.58","15.31","227.90K","0.78%"
"Sep 05, 2014","15.80","15.51","15.80","15.31","362.50K","1.41%"
"Sep 08, 2014","15.94","15.83","15.94","15.47","240.80K","0.89%"
"Sep 09, 2014","15.76","15.92","15.92","15.39","242.60K","-1.13%"
"Sep 10, 2014","15.51","15.65","15.65","15.33","137.80K","-1.59%"
"Sep 11, 2014","15.81","15.57","15.81","15.29","180.60K","1.93%"
"Sep 12, 2014","15.41","15.80","15.80","15.14","263.70K","-2.53%"
"Sep 15, 2014","15.38","15.52","15.57","15.17","93.90K","-0.19%"
"Sep 16, 2014","15.42","15.41","15.46","15.28","151.80K","0.26%"
"Sep 17, 2014","15.32","15.67","15.67","15.26","156.40K","-0.65%"
"Sep 18, 2014","15.04","15.37","15.37","14.94","304.80K","-1.83%"
"Sep 19, 2014","14.99","15.13","15.13","14.71","209.70K","-0.33%"
"Sep 22, 2014","14.83","15.14","15.30","14.25","235.40K","-1.07%"
"Sep 23, 2014","14.98","14.83","15.13","14.66","52.40K","1.01%"
"Sep 24, 2014","15.04","15.02","15.04","14.61","87.50K","0.40%"
"Sep 25, 2014","14.69","14.99","14.99","14.69","222.90K","-2.33%"
"Sep 26, 2014","15.04","14.77","15.04","14.64","141.50K","2.38%"
"Sep 29, 2014","14.94","14.80","14.94","14.67","154.40K","-0.66%"
"Sep 30, 2014","14.75","14.96","14.96","14.67","384.10K","-1.27%"
"Oct 01, 2014","14.79","14.75","14.79","14.11","114.90K","0.27%"
"Oct 02, 2014","14.43","14.77","14.77","14.24","235.80K","-2.43%"
"Oct 03, 2014","14.68","14.62","15.13","14.46","405.80K","1.73%"
"Oct 06, 2014","14.94","15.14","15.63","14.64","256.50K","1.77%"
"Oct 07, 2014","15.27","15.25","15.39","14.94","114.50K","2.21%"
"Oct 08, 2014","15.32","15.60","15.68","15.27","17.50K","0.33%"
"Oct 09, 2014","15.55","15.68","15.68","15.36","44.50K","1.50%"
"Oct 10, 2014","15.27","15.55","15.55","14.98","144.70K","-1.80%"
"Oct 13, 2014","15.28","15.40","15.40","14.98","175.70K","0.07%"
"Oct 14, 2014","15.37","15.33","15.61","15.20","346.70K","0.59%"
"Oct 15, 2014","15.13","15.32","15.69","15.10","154.70K","-1.56%"
"Oct 16, 2014","15.13","15.02","15.13","14.60","226.50K","0.00%"
"Oct 17, 2014","15.16","15.41","15.41","14.92","238.10K","0.20%"
"Oct 20, 2014","14.93","15.14","15.14","14.87","160.20K","-1.52%"
"Oct 21, 2014","14.75","14.89","14.97","14.36","385.50K","-1.21%"
"Oct 22, 2014","14.20","14.86","14.86","14.20","263.60K","-3.73%"
"Oct 23, 2014","13.97","14.26","14.36","13.89","184.10K","-1.62%"
"Oct 24, 2014","14.19","14.14","14.70","13.84","182.30K","1.57%"
"Oct 27, 2014","14.09","14.17","14.17","13.25","129.80K","-0.70%"
"Oct 28, 2014","13.94","14.28","14.42","13.82","238.40K","-1.06%"
"Oct 29, 2014","13.29","13.94","13.94","13.29","264.80K","-4.66%"
"Oct 30, 2014","14.07","13.34","14.10","13.34","164.90K","5.87%"
"Oct 31, 2014","14.10","14.37","14.71","13.76","272.30K","0.21%"
"Nov 03, 2014","14.06","14.12","14.19","13.81","65.30K","-0.28%"
"Nov 04, 2014","14.38","14.29","14.51","13.94","161.30K","2.28%"
"Nov 05, 2014","14.35","14.25","14.80","14.23","189.40K","-0.21%"
"Nov 06, 2014","13.95","14.20","14.31","13.91","174.00K","-2.79%"
"Nov 07, 2014","14.28","14.07","14.29","13.88","90.90K","2.37%"
"Nov 10, 2014","14.09","14.28","14.28","13.98","66.50K","-1.33%"
"Nov 11, 2014","13.71","14.08","14.08","13.67","174.50K","-2.70%"
"Nov 12, 2014","14.17","13.76","14.17","13.59","128.80K","3.36%"
"Nov 13, 2014","13.79","14.15","14.15","13.79","66.50K","-2.68%"
"Nov 14, 2014","13.53","13.68","13.85","13.53","83.60K","-1.89%"
"Nov 17, 2014","13.53","13.43","13.69","13.32","53.20K","0.00%"
"Nov 18, 2014","13.81","13.63","13.81","13.34","120.10K","2.07%"
"Nov 19, 2014","13.71","13.76","13.76","13.48","200.40K","-0.72%"
"Nov 21, 2014","14.66","13.90","14.66","13.53","103.60K","6.93%"
"Nov 24, 2014","14.85","14.77","14.85","14.48","67.00K","1.30%"
"Nov 25, 2014","14.66","14.78","14.78","14.49","124.00K","-1.28%"
"Nov 26, 2014","14.66","14.80","14.85","14.44","146.80K","0.00%"
"Nov 27, 2014","14.55","14.84","14.84","14.55","137.90K","-0.75%"
"Nov 28, 2014","14.66","14.93","14.93","14.28","201.50K","0.76%"
"Dec 01, 2014","14.38","14.65","14.65","14.32","311.70K","-1.91%"
"Dec 02, 2014","14.24","14.53","14.64","14.14","100.10K","-0.97%"
"Dec 03, 2014","14.19","14.40","14.40","14.05","140.60K","-0.35%"
"Dec 04, 2014","14.45","14.33","14.55","14.10","113.80K","1.83%"
"Dec 05, 2014","14.85","14.47","14.85","14.39","55.20K","2.77%"
"Dec 08, 2014","15.13","14.75","15.13","14.68","76.50K","1.89%"
"Dec 09, 2014","14.47","15.11","15.13","14.47","227.80K","-4.36%"
"Dec 10, 2014","14.12","14.55","14.56","14.06","113.00K","-2.42%"
"Dec 11, 2014","14.48","14.20","14.48","13.73","111.00K","2.55%"
"Dec 12, 2014","14.20","14.29","14.42","13.85","187.50K","-1.93%"
"Dec 15, 2014","13.81","14.28","14.41","13.81","132.90K","-2.75%"
"Dec 16, 2014","13.81","13.79","13.95","13.62","133.70K","0.00%"
"Dec 17, 2014","13.67","13.95","13.95","13.49","327.40K","-1.01%"
"Dec 18, 2014","14.05","13.68","14.15","13.59","97.60K","2.78%"
"Dec 19, 2014","14.46","14.48","14.85","13.84","207.00K","2.92%"
"Dec 22, 2014","14.67","14.46","14.70","14.28","90.90K","1.45%"
"Dec 23, 2014","14.58","14.77","14.87","14.58","140.30K","-0.61%"
"Dec 26, 2014","14.58","14.40","14.58","14.18","159.00K","0.00%"
"Dec 29, 2014","14.58","14.63","14.63","14.38","610.30K","0.00%"
"Dec 30, 2014","14.77","14.65","14.77","14.50","273.80K","1.30%"
"Jan 02, 2015","14.48","14.67","14.69","14.36","95.40K","-1.96%"
"Jan 05, 2015","14.29","14.35","14.64","14.18","132.60K","-1.31%"
"Jan 06, 2015","14.10","14.22","14.71","14.00","133.30K","-1.33%"
"Jan 07, 2015","13.98","14.18","14.24","13.89","139.60K","-0.85%"
"Jan 08, 2015","13.48","14.06","14.10","13.48","198.00K","-3.58%"
"Jan 09, 2015","13.34","13.55","13.55","13.19","86.10K","-1.04%"
"Jan 12, 2015","12.81","13.38","13.53","12.79","334.60K","-3.97%"
"Jan 13, 2015","13.23","12.90","13.34","12.86","116.40K","3.28%"
"Jan 14, 2015","13.12","13.24","13.30","12.99","277.70K","-0.83%"
"Jan 15, 2015","13.34","13.22","13.65","13.10","97.40K","1.68%"
"Jan 16, 2015","13.50","13.44","13.60","13.11","399.30K","1.20%"
"Jan 19, 2015","13.67","13.55","13.67","13.19","75.30K","1.26%"
"Jan 20, 2015","13.34","13.72","13.72","13.01","302.20K","-2.41%"
"Jan 21, 2015","13.43","13.40","13.62","13.14","72.90K","0.67%"
"Jan 22, 2015","13.61","13.50","13.61","13.16","146.10K","1.34%"
"Jan 23, 2015","13.66","13.55","13.66","13.41","87.00K","0.37%"
"Jan 26, 2015","13.29","13.54","13.58","13.29","128.90K","-2.71%"
"Jan 27, 2015","13.05","13.29","13.31","13.05","204.00K","-1.81%"
"Jan 28, 2015","12.67","13.06","13.06","12.51","146.90K","-2.91%"
"Jan 29, 2015","12.58","12.74","12.74","12.11","176.60K","-0.71%"
"Jan 30, 2015","12.02","12.59","12.59","11.94","659.90K","-4.45%"
"Feb 02, 2015","12.19","11.85","12.19","11.73","135.20K","1.41%"
"Feb 03, 2015","13.05","12.29","13.05","11.82","245.30K","7.05%"
"Feb 04, 2015","12.73","13.01","13.01","12.44","131.80K","-2.45%"
"Feb 05, 2015","13.05","12.67","13.41","12.61","727.90K","2.51%"
"Feb 06, 2015","13.67","13.53","13.83","13.32","978.10K","4.75%"
"Feb 09, 2015","13.96","13.76","13.96","13.74","456.80K","2.12%"
"Feb 10, 2015","13.81","13.98","14.34","13.81","164.10K","-1.07%"
"Feb 11, 2015","13.86","13.79","14.09","13.75","180.40K","0.36%"
"Feb 12, 2015","13.86","13.99","14.24","13.82","289.40K","0.00%"
"Feb 13, 2015","14.20","13.71","14.20","13.48","154.00K","2.45%"
"Feb 18, 2015","13.96","14.10","14.36","13.87","76.60K","-1.69%"
"Feb 19, 2015","13.96","14.04","14.05","13.85","102.70K","0.00%"
"Feb 20, 2015","13.91","13.96","14.15","13.81","70.70K","-0.36%"
"Feb 23, 2015","13.62","13.90","14.01","13.60","113.40K","-2.08%"
"Feb 24, 2015","13.67","13.62","13.79","13.46","279.40K","0.37%"
"Feb 25, 2015","13.78","13.61","14.08","13.55","98.20K","0.80%"
"Feb 26, 2015","13.66","13.90","13.90","13.24","483.20K","-0.87%"
"Feb 27, 2015","13.61","13.70","13.90","13.57","198.20K","-0.37%"
"Mar 02, 2015","13.50","13.60","13.66","13.40","104.30K","-0.81%"
"Mar 03, 2015","13.43","13.48","13.71","13.23","103.30K","-0.52%"
"Mar 04, 2015","13.61","13.32","13.61","13.27","311.80K","1.34%"
"Mar 05, 2015","13.57","13.62","13.80","13.57","79.20K","-0.29%"
"Mar 06, 2015","13.48","13.54","13.55","13.19","183.90K","-0.66%"
"Mar 09, 2015","13.03","13.43","13.44","12.85","1.48M","-3.34%"
"Mar 10, 2015","13.24","12.93","13.24","12.76","170.50K","1.61%"
"Mar 11, 2015","13.19","13.15","13.24","13.05","230.60K","-0.38%"
"Mar 12, 2015","13.34","13.25","13.39","13.15","171.70K","1.14%"
"Mar 13, 2015","13.05","13.32","13.32","12.92","211.40K","-2.17%"
"Mar 16, 2015","12.85","13.08","13.18","12.71","211.20K","-1.53%"
"Mar 17, 2015","12.86","12.81","12.98","12.75","194.60K","0.08%"
"Mar 18, 2015","13.19","12.85","13.19","12.73","405.30K","2.57%"
"Mar 19, 2015","13.48","13.13","13.55","13.04","336.00K","2.20%"
"Mar 20, 2015","13.34","13.52","13.58","13.32","417.90K","-1.04%"
"Mar 23, 2015","13.24","13.44","13.46","13.19","116.20K","-0.75%"
"Mar 24, 2015","12.96","13.24","13.24","12.77","190.30K","-2.11%"
"Mar 25, 2015","13.58","12.94","13.77","12.83","316.50K","4.78%"
"Mar 26, 2015","13.43","13.48","13.48","13.21","212.40K","-1.10%"
"Mar 27, 2015","13.43","13.43","13.43","13.19","262.60K","0.00%"
"Mar 30, 2015","12.92","13.38","13.52","12.92","429.00K","-3.80%"
"Mar 31, 2015","13.48","12.99","13.48","12.73","493.50K","4.33%"
"Apr 01, 2015","13.48","13.49","13.53","13.29","354.60K","0.00%"
"Apr 02, 2015","13.58","13.41","13.71","13.34","514.90K","0.74%"
"Apr 06, 2015","14.15","13.59","14.15","13.52","394.20K","4.20%"
"Apr 07, 2015","14.02","14.19","14.27","13.79","315.60K","-0.92%"
"Apr 08, 2015","14.86","14.38","15.00","14.10","406.40K","5.99%"
"Apr 09, 2015","15.47","14.86","15.52","14.60","259.90K","4.10%"
"Apr 10, 2015","15.10","15.24","15.66","15.00","254.00K","-2.39%"
"Apr 13, 2015","15.34","15.10","15.71","14.85","375.00K","1.59%"
"Apr 14, 2015","15.43","15.33","15.56","15.04","661.50K","0.59%"
"Apr 15, 2015","15.51","15.43","15.66","15.35","235.50K","0.52%"
"Apr 16, 2015","15.64","15.29","15.76","15.29","316.20K","0.84%"
"Apr 17, 2015","15.61","15.63","15.82","15.21","154.30K","-0.19%"
"Apr 20, 2015","16.25","15.18","16.29","15.18","399.50K","4.10%"
"Apr 22, 2015","17.05","16.24","17.05","16.07","301.90K","4.92%"
"Apr 23, 2015","17.33","17.00","17.74","16.84","477.70K","1.64%"
"Apr 24, 2015","18.23","17.11","18.23","16.98","308.40K","5.19%"
"Apr 27, 2015","18.09","17.83","18.18","17.80","372.30K","-0.77%"
"Apr 28, 2015","17.64","18.22","18.22","17.56","990.60K","-2.49%"
"Apr 29, 2015","17.20","17.65","17.71","17.06","277.10K","-2.49%"
"Apr 30, 2015","17.19","17.51","17.51","16.77","492.00K","-0.06%"
"May 04, 2015","17.44","17.23","17.44","17.08","255.40K","1.45%"
"May 05, 2015","17.30","17.43","17.63","17.28","264.80K","-0.80%"
"May 06, 2015","17.25","17.59","17.72","17.03","542.80K","-0.29%"
"May 07, 2015","17.20","17.25","17.32","17.07","135.50K","-0.29%"
"May 08, 2015","17.12","17.29","17.55","17.12","967.30K","-0.47%"
"May 11, 2015","16.81","17.14","17.32","16.74","349.70K","-1.81%"
"May 12, 2015","16.80","16.85","16.95","16.25","184.80K","-0.06%"
"May 13, 2015","16.85","16.61","17.32","16.42","2.34M","0.30%"
"May 14, 2015","17.44","16.91","17.61","16.91","625.10K","3.50%"
"May 15, 2015","18.33","17.35","18.62","17.35","522.10K","5.10%"
"May 18, 2015","18.63","18.33","18.82","18.32","1.41M","1.64%"
"May 19, 2015","18.57","18.77","19.09","18.34","424.70K","-0.32%"
"May 20, 2015","18.53","18.40","18.89","18.34","352.40K","-0.22%"
"May 21, 2015","18.83","18.43","18.83","18.40","295.90K","1.62%"
"May 22, 2015","18.98","18.84","18.98","18.63","397.50K","0.80%"
"May 25, 2015","18.83","18.81","19.23","18.77","134.10K","-0.79%"
"May 26, 2015","18.73","18.66","18.80","18.39","223.20K","-0.53%"
"May 27, 2015","18.40","18.71","18.88","18.11","202.70K","-1.76%"
"May 28, 2015","18.88","18.44","19.06","17.93","620.40K","2.61%"
"May 29, 2015","19.33","18.73","19.53","18.72","227.90K","2.38%"
"Jun 01, 2015","18.88","19.33","19.33","18.50","182.20K","-2.33%"
"Jun 02, 2015","19.17","18.74","19.26","18.74","309.90K","1.54%"
"Jun 03, 2015","19.33","19.15","19.61","19.04","165.20K","0.83%"
"Jun 05, 2015","19.11","19.15","19.34","19.02","92.50K","-1.14%"
"Jun 08, 2015","18.54","19.00","19.14","18.53","997.50K","-2.98%"
"Jun 09, 2015","18.24","18.65","18.65","18.22","101.90K","-1.62%"
"Jun 10, 2015","18.39","18.47","18.59","18.25","228.30K","0.82%"
"Jun 11, 2015","18.34","18.40","18.40","18.17","83.90K","-0.27%"
"Jun 12, 2015","17.96","18.33","18.33","17.92","119.90K","-2.07%"
"Jun 15, 2015","17.72","17.74","17.92","17.45","355.60K","-1.34%"
"Jun 16, 2015","17.79","17.83","17.86","17.48","213.00K","0.40%"
"Jun 17, 2015","17.64","17.77","17.78","17.46","106.70K","-0.84%"
"Jun 18, 2015","17.99","17.48","18.18","17.34","652.80K","1.98%"
"Jun 19, 2015","18.17","17.89","18.38","17.69","446.30K","1.00%"
"Jun 22, 2015","18.01","18.10","18.58","17.79","233.80K","-0.88%"
"Jun 23, 2015","17.84","17.74","18.01","17.45","436.30K","-0.94%"
"Jun 24, 2015","17.84","17.94","17.99","17.48","159.50K","0.00%"
"Jun 25, 2015","17.49","18.33","18.33","17.34","556.70K","-1.96%"
"Jun 26, 2015","18.09","17.62","18.34","17.61","321.10K","3.43%"
"Jun 29, 2015","17.89","18.09","18.09","17.49","138.80K","-1.11%"
"Jun 30, 2015","18.63","18.19","18.63","17.74","414.40K","4.14%"
"Jul 01, 2015","18.48","18.44","18.99","18.20","204.90K","-0.81%"
"Jul 02, 2015","18.34","18.40","18.61","18.00","128.30K","-0.76%"
"Jul 03, 2015","18.98","18.44","19.32","18.36","334.30K","3.49%"
"Jul 06, 2015","18.53","18.87","18.88","18.25","509.30K","-2.37%"
"Jul 07, 2015","18.34","18.62","18.71","18.15","838.10K","-1.03%"
"Jul 08, 2015","18.12","18.39","18.59","18.05","174.90K","-1.20%"
"Jul 10, 2015","18.43","18.34","19.02","18.17","211.20K","1.71%"
"Jul 13, 2015","18.84","18.65","19.68","18.27","2.04M","2.22%"
"Jul 14, 2015","19.67","19.03","19.67","18.76","382.30K","4.41%"
"Jul 15, 2015","19.62","19.52","19.82","19.46","448.50K","-0.25%"
"Jul 16, 2015","19.77","19.67","19.98","19.53","199.10K","0.76%"
"Jul 17, 2015","19.57","19.74","19.82","19.43","450.80K","-1.01%"
"Jul 20, 2015","19.62","19.68","19.82","19.38","271.80K","0.26%"
"Jul 21, 2015","19.57","19.64","19.96","19.38","235.70K","-0.25%"
"Jul 22, 2015","19.02","19.74","19.74","18.27","508.10K","-2.81%"
"Jul 23, 2015","18.73","18.92","18.92","18.47","203.20K","-1.52%"
"Jul 24, 2015","18.63","18.81","18.83","18.35","177.70K","-0.53%"
"Jul 27, 2015","18.39","18.61","18.62","18.08","180.50K","-1.29%"
"Jul 28, 2015","17.94","18.59","18.59","17.60","330.70K","-2.45%"
"Jul 29, 2015","18.33","18.01","18.40","17.89","275.30K","2.17%"
"Jul 30, 2015","17.83","18.51","18.51","17.69","310.10K","-2.73%"
"Jul 31, 2015","18.53","17.93","18.63","17.61","191.90K","3.93%"
"Aug 03, 2015","17.89","18.53","18.53","17.78","324.50K","-3.45%"
"Aug 04, 2015","17.84","18.00","18.00","17.52","162.70K","-0.28%"
"Aug 05, 2015","18.14","18.09","18.14","17.63","278.60K","1.68%"
"Aug 06, 2015","17.74","18.32","18.46","17.61","262.60K","-2.21%"
"Aug 07, 2015","17.84","17.73","18.09","17.29","550.20K","0.56%"
"Aug 10, 2015","17.84","17.60","17.84","17.44","146.90K","0.00%"
"Aug 11, 2015","17.54","17.77","17.78","17.05","317.00K","-1.68%"
"Aug 12, 2015","17.54","17.48","17.54","17.21","81.90K","0.00%"
"Aug 13, 2015","17.44","17.42","17.50","17.27","522.00K","-0.57%"
"Aug 14, 2015","17.20","17.53","17.54","17.05","517.30K","-1.38%"
"Aug 17, 2015","16.95","17.25","17.53","16.70","455.70K","-1.45%"
"Aug 18, 2015","16.84","16.80","17.05","16.61","396.20K","-0.65%"
"Aug 19, 2015","16.85","16.84","16.85","16.14","382.60K","0.06%"
"Aug 20, 2015","16.59","16.84","16.87","16.47","1.01M","-1.54%"
"Aug 21, 2015","16.60","16.44","17.03","16.44","484.20K","0.06%"
"Aug 24, 2015","16.85","16.35","16.85","15.66","231.80K","1.51%"
"Aug 25, 2015","16.50","16.92","16.97","16.40","508.00K","-2.08%"
"Aug 26, 2015","17.00","16.64","17.00","16.21","355.50K","3.03%"
"Aug 27, 2015","16.65","16.77","16.97","16.65","309.40K","-2.06%"
"Aug 28, 2015","16.65","16.45","17.05","16.45","172.40K","0.00%"
"Aug 31, 2015","16.44","16.63","16.63","16.07","322.20K","-1.26%"
"Sep 01, 2015","16.16","16.25","16.47","16.02","334.20K","-1.70%"
"Sep 02, 2015","15.66","16.13","16.21","15.66","233.70K","-3.09%"
"Sep 03, 2015","16.11","15.65","16.30","15.52","307.70K","2.87%"
"Sep 04, 2015","16.35","15.87","16.63","15.86","170.90K","1.49%"
"Sep 08, 2015","16.69","16.60","16.85","16.18","290.00K","2.08%"
"Sep 09, 2015","16.55","16.86","16.87","16.33","315.10K","-0.84%"
"Sep 10, 2015","15.96","16.35","16.65","15.56","795.30K","-3.56%"
"Sep 11, 2015","15.68","16.03","16.16","15.37","950.30K","-1.75%"
"Sep 14, 2015","15.46","15.77","15.77","15.26","336.60K","-1.40%"
"Sep 15, 2015","15.51","15.55","15.56","15.23","345.80K","0.32%"
"Sep 16, 2015","15.81","15.66","16.00","15.35","422.40K","1.93%"
"Sep 17, 2015","15.90","15.72","16.67","15.48","275.50K","0.57%"
"Sep 18, 2015","16.20","15.80","16.20","15.51","755.10K","1.89%"
"Sep 21, 2015","15.48","15.95","16.02","15.41","333.70K","-4.44%"
"Sep 22, 2015","14.87","15.48","15.48","14.42","527.30K","-3.94%"
"Sep 23, 2015","14.20","15.00","15.00","14.04","306.40K","-4.51%"
"Sep 24, 2015","13.88","14.20","14.20","13.63","343.20K","-2.25%"
"Sep 25, 2015","13.73","13.89","14.07","13.73","204.10K","-1.08%"
"Sep 28, 2015","13.48","13.51","13.77","13.38","176.70K","-1.82%"
"Sep 29, 2015","13.18","13.57","13.81","13.12","299.70K","-2.23%"
"Sep 30, 2015","13.68","13.27","13.68","13.18","275.70K","3.79%"
"Oct 01, 2015","13.68","13.66","13.68","12.89","425.60K","0.00%"
"Oct 02, 2015","13.58","13.68","13.77","13.08","299.20K","-0.73%"
"Oct 05, 2015","13.49","13.66","13.66","13.43","154.90K","-0.66%"
"Oct 06, 2015","13.70","13.48","13.70","13.38","331.10K","1.56%"
"Oct 07, 2015","13.71","13.78","14.12","13.43","403.30K","0.07%"
"Oct 08, 2015","13.95","13.78","14.16","13.64","842.80K","1.75%"
"Oct 09, 2015","14.67","13.96","14.85","13.84","469.70K","5.16%"
"Oct 13, 2015","14.18","14.66","14.66","13.93","527.50K","-3.34%"
"Oct 14, 2015","14.22","14.19","14.37","13.96","416.60K","0.28%"
"Oct 15, 2015","14.26","14.23","14.49","14.10","628.40K","0.28%"
"Oct 16, 2015","14.72","14.25","14.87","14.10","1.36M","3.23%"
"Oct 19, 2015","15.07","14.73","15.12","14.57","171.70K","2.38%"
"Oct 20, 2015","15.81","15.07","15.95","14.94","535.90K","4.91%"
"Oct 21, 2015","15.22","15.86","15.91","15.22","497.20K","-3.73%"
"Oct 22, 2015","15.31","15.10","15.39","14.81","354.80K","0.59%"
"Oct 23, 2015","15.24","15.31","15.42","14.98","332.00K","-0.46%"
"Oct 26, 2015","14.18","15.25","15.25","14.11","525.60K","-6.96%"
"Oct 27, 2015","13.95","14.17","14.23","13.49","645.40K","-1.62%"
"Oct 28, 2015","14.45","13.98","14.45","13.68","368.00K","3.58%"
"Oct 29, 2015","14.37","14.46","14.95","14.11","434.90K","-0.55%"
"Oct 30, 2015","14.47","14.36","14.65","14.09","817.40K","0.70%"
"Nov 03, 2015","14.87","14.48","14.87","14.17","565.90K","2.76%"
"Nov 04, 2015","14.97","14.88","15.44","14.66","319.90K","0.67%"
"Nov 05, 2015","15.07","14.97","15.07","14.43","395.30K","0.67%"
"Nov 06, 2015","14.57","15.06","15.15","14.31","682.40K","-3.32%"
"Nov 09, 2015","14.57","14.56","14.92","14.37","206.60K","0.00%"
"Nov 10, 2015","14.62","14.58","14.62","14.16","249.90K","0.34%"
"Nov 11, 2015","14.84","14.61","15.09","14.30","206.20K","1.50%"
"Nov 12, 2015","14.67","14.85","14.85","14.45","536.80K","-1.15%"
"Nov 13, 2015","14.37","14.67","14.82","14.32","381.50K","-2.04%"
"Nov 16, 2015","14.37","14.37","14.48","14.24","155.70K","0.00%"
"Nov 17, 2015","14.37","14.45","14.56","14.25","251.90K","0.00%"
"Nov 18, 2015","14.37","14.46","14.60","14.29","280.50K","0.00%"
"Nov 19, 2015","14.17","14.52","14.52","13.93","438.80K","-1.39%"
"Nov 23, 2015","14.37","14.29","14.62","14.17","755.60K","1.41%"
"Nov 24, 2015","14.07","14.63","14.63","13.99","281.90K","-2.09%"
"Nov 25, 2015","14.12","13.93","14.12","13.63","295.90K","0.36%"
"Nov 26, 2015","14.79","14.12","14.79","13.92","161.90K","4.75%"
"Nov 27, 2015","14.17","14.79","14.79","14.11","296.90K","-4.19%"
"Nov 30, 2015","13.68","14.17","14.17","13.68","469.80K","-3.46%"
"Dec 01, 2015","13.78","13.71","14.35","13.71","252.80K","0.73%"
"Dec 02, 2015","13.59","13.85","14.06","13.59","173.50K","-1.38%"
"Dec 03, 2015","13.43","13.75","13.89","13.43","181.10K","-1.18%"
"Dec 04, 2015","13.28","13.43","13.50","12.91","264.10K","-1.12%"
"Dec 07, 2015","13.23","13.68","13.68","13.13","203.40K","-0.38%"
"Dec 08, 2015","12.96","13.23","13.23","12.90","199.00K","-2.04%"
"Dec 09, 2015","12.88","12.99","13.36","12.79","373.20K","-0.62%"
"Dec 10, 2015","13.08","12.94","13.49","12.94","271.40K","1.55%"
"Dec 11, 2015","13.18","13.12","13.45","13.10","170.30K","0.76%"
"Dec 14, 2015","12.88","13.43","13.43","12.88","284.60K","-2.28%"
"Dec 15, 2015","12.84","13.07","13.11","12.84","352.70K","-0.31%"
"Dec 16, 2015","12.88","12.83","12.94","12.74","166.10K","0.31%"
"Dec 17, 2015","13.28","12.97","13.54","12.97","286.80K","3.11%"
"Dec 18, 2015","12.81","13.29","13.29","12.70","655.50K","-3.54%"
"Dec 21, 2015","12.50","12.85","12.93","12.27","423.90K","-2.42%"
"Dec 22, 2015","12.35","12.57","12.78","12.28","265.20K","-1.20%"
"Dec 23, 2015","12.48","12.35","12.80","12.26","158.40K","1.05%"
"Dec 28, 2015","12.45","12.35","12.56","12.28","255.10K","-0.24%"
"Dec 29, 2015","13.10","12.59","13.10","12.34","289.00K","5.22%"
"Dec 30, 2015","13.50","13.08","13.50","12.50","531.90K","3.05%"
"Jan 04, 2016","12.53","13.24","13.25","12.53","348.70K","-7.19%"
"Jan 05, 2016","12.52","12.75","12.89","12.52","203.20K","-0.08%"
"Jan 06, 2016","12.16","12.28","12.30","11.92","629.70K","-2.88%"
"Jan 07, 2016","12.11","12.09","12.35","11.96","503.30K","-0.41%"
"Jan 08, 2016","12.15","12.16","12.55","12.11","306.80K","0.33%"
"Jan 11, 2016","12.36","12.06","12.37","12.06","287.80K","1.73%"
"Jan 12, 2016","12.50","12.36","12.65","12.28","115.20K","1.13%"
"Jan 13, 2016","12.29","12.60","12.69","12.21","280.50K","-1.68%"
"Jan 14, 2016","12.51","12.31","12.66","12.21","492.50K","1.79%"
"Jan 15, 2016","12.22","12.31","12.42","12.08","179.00K","-2.32%"
"Jan 18, 2016","12.39","12.31","12.43","12.13","138.00K","1.39%"
"Jan 19, 2016","12.42","12.35","12.60","12.27","382.80K","0.24%"
"Jan 20, 2016","12.40","12.42","12.56","12.08","375.20K","-0.16%"
"Jan 21, 2016","12.55","12.40","12.60","12.14","350.50K","1.21%"
"Jan 22, 2016","12.90","12.64","12.99","12.50","299.40K","2.79%"
"Jan 26, 2016","12.31","12.90","12.90","12.11","484.30K","-4.57%"
"Jan 27, 2016","13.06","12.35","13.06","12.35","363.10K","6.09%"
"Jan 28, 2016","12.81","13.06","13.37","12.81","267.30K","-1.91%"
"Jan 29, 2016","12.50","12.82","13.40","12.50","459.30K","-2.42%"
"Feb 01, 2016","12.50","12.60","12.75","11.97","629.40K","0.00%"
"Feb 02, 2016","12.50","12.49","12.59","12.30","296.90K","0.00%"
"Feb 03, 2016","12.20","12.51","12.55","12.17","196.50K","-2.40%"
"Feb 04, 2016","12.50","12.33","12.93","12.18","273.30K","2.46%"
"Feb 05, 2016","12.02","12.60","12.61","12.02","137.20K","-3.84%"
"Feb 10, 2016","11.35","12.02","12.02","11.35","213.40K","-5.57%"
"Feb 11, 2016","10.80","11.21","11.21","10.72","465.70K","-4.85%"
"Feb 12, 2016","11.24","11.00","11.24","10.80","660.50K","4.07%"
"Feb 15, 2016","11.08","11.25","11.50","11.08","145.10K","-1.42%"
"Feb 16, 2016","11.15","11.10","11.48","11.10","177.00K","0.63%"
"Feb 17, 2016","11.09","11.18","11.30","11.01","202.10K","-0.54%"
"Feb 18, 2016","12.00","11.30","12.07","11.06","1.13M","8.21%"
"Feb 19, 2016","12.10","12.07","12.31","11.80","388.80K","0.83%"
"Feb 22, 2016","12.05","12.26","12.80","11.93","590.00K","-0.41%"
"Feb 23, 2016","12.00","12.10","12.55","12.00","676.60K","-0.41%"
"Feb 24, 2016","12.00","11.95","12.09","11.54","383.80K","0.00%"
"Feb 25, 2016","12.02","12.00","12.29","11.84","249.10K","0.17%"
"Feb 26, 2016","12.85","12.06","12.96","12.06","783.60K","6.91%"
"Feb 29, 2016","13.19","12.85","13.27","12.50","548.90K","2.65%"
"Mar 01, 2016","13.45","13.29","13.87","13.18","476.50K","1.97%"
"Mar 02, 2016","14.05","13.47","14.34","13.47","568.10K","4.46%"
"Mar 03, 2016","14.27","14.22","14.79","14.15","575.20K","1.57%"
"Mar 04, 2016","15.20","14.80","15.39","14.44","496.40K","6.52%"
"Mar 07, 2016","15.04","15.11","15.26","14.82","248.90K","-1.05%"
"Mar 08, 2016","14.85","15.04","15.29","14.72","329.70K","-1.26%"
"Mar 09, 2016","15.10","15.00","15.44","14.96","802.40K","1.68%"
"Mar 10, 2016","15.83","15.28","15.98","15.25","723.20K","4.83%"
"Mar 11, 2016","16.25","15.80","16.55","14.69","646.20K","2.65%"
"Mar 14, 2016","16.10","16.37","16.57","15.67","348.40K","-0.92%"
"Mar 15, 2016","14.96","15.99","15.99","14.86","263.30K","-7.08%"
"Mar 16, 2016","15.07","14.96","15.38","14.54","183.40K","0.74%"
"Mar 17, 2016","16.11","16.00","16.11","15.51","223.90K","6.90%"
"Mar 18, 2016","16.90","16.27","16.90","15.74","238.30K","4.90%"
"Mar 21, 2016","16.76","16.90","17.00","16.31","153.10K","-0.83%"
"Mar 22, 2016","16.50","16.77","16.79","16.34","216.50K","-1.55%"
"Mar 23, 2016","16.20","16.34","16.40","15.57","375.90K","-1.82%"
"Mar 24, 2016","15.95","16.20","16.34","15.81","197.50K","-1.54%"
"Mar 28, 2016","16.61","15.97","16.77","15.96","349.90K","4.14%"
"Mar 29, 2016","17.15","16.74","17.40","16.39","589.80K","3.25%"
"Mar 30, 2016","17.00","17.14","17.14","16.67","589.20K","-0.87%"
"Mar 31, 2016","16.74","16.99","17.25","16.65","662.70K","-1.53%"
"Apr 01, 2016","17.01","16.70","17.24","16.32","460.20K","1.61%"
"Apr 04, 2016","17.00","17.04","17.05","16.73","379.60K","-0.06%"
"Apr 05, 2016","17.30","17.08","17.41","16.38","281.10K","1.76%"
"Apr 06, 2016","17.25","17.29","17.40","17.08","98.90K","-0.29%"
"Apr 07, 2016","17.90","17.42","18.00","17.26","788.60K","3.77%"
"Apr 08, 2016","18.55","18.16","18.85","18.15","1.16M","3.63%"
"Apr 11, 2016","19.10","18.61","19.45","18.00","628.50K","2.96%"
"Apr 12, 2016","19.47","19.32","19.53","18.90","467.70K","1.94%"
"Apr 13, 2016","18.94","19.50","20.15","18.79","656.80K","-2.72%"
"Apr 14, 2016","18.33","19.20","19.20","18.13","542.50K","-3.22%"
"Apr 15, 2016","18.89","18.47","19.34","18.45","530.40K","3.06%"
"Apr 18, 2016","18.52","18.56","18.99","18.29","762.50K","-1.96%"
"Apr 19, 2016","18.76","18.75","19.15","18.58","412.00K","1.30%"
"Apr 20, 2016","18.67","18.82","18.99","18.67","261.50K","-0.48%"
"Apr 22, 2016","18.74","18.67","18.93","18.33","153.30K","0.37%"
"Apr 25, 2016","18.57","18.91","19.03","18.53","377.90K","-0.91%"
"Apr 26, 2016","18.71","18.57","19.10","18.27","436.20K","0.75%"
"Apr 27, 2016","19.01","19.00","19.33","18.75","663.50K","1.60%"
"Apr 28, 2016","18.81","19.05","19.35","18.67","243.70K","-1.05%"
"Apr 29, 2016","19.00","18.89","19.00","18.45","252.10K","1.01%"
"May 02, 2016","18.92","18.91","19.26","18.23","449.70K","-0.42%"
"May 03, 2016","18.44","18.54","18.60","18.28","134.50K","-2.54%"
"May 04, 2016","18.25","18.59","18.60","17.90","183.10K","-1.03%"
"May 05, 2016","17.91","18.25","18.35","17.75","450.00K","-1.86%"
"May 06, 2016","18.32","17.99","18.60","17.79","236.90K","2.29%"
"May 09, 2016","18.29","18.46","18.46","17.81","125.00K","-0.16%"
"May 10, 2016","19.11","18.27","19.11","18.25","608.50K","4.48%"
"May 11, 2016","19.19","19.11","19.61","19.06","1.05M","0.42%"
"May 12, 2016","20.01","19.19","20.05","19.18","738.90K","4.27%"
"May 13, 2016","19.90","20.10","20.11","19.44","694.60K","-0.55%"
"May 16, 2016","20.28","19.86","20.86","19.74","1.29M","1.91%"
"May 17, 2016","20.17","20.30","20.73","19.99","474.40K","-0.54%"
"May 18, 2016","20.25","20.13","20.76","20.00","533.40K","0.40%"
"May 19, 2016","19.80","20.25","20.29","19.56","294.90K","-2.22%"
"May 20, 2016","19.85","20.04","20.04","19.63","787.80K","0.25%"
"May 23, 2016","19.85","19.62","20.02","19.52","446.60K","0.00%"
"May 24, 2016","20.05","19.98","20.05","19.75","1.25M","1.01%"
"May 25, 2016","20.42","20.08","20.52","20.06","457.10K","1.85%"
"May 27, 2016","21.08","20.55","21.35","20.44","430.80K","3.23%"
"May 30, 2016","20.87","21.08","21.28","20.75","170.00K","-1.00%"
"May 31, 2016","21.40","20.87","21.40","20.49","559.80K","2.54%"
"Jun 01, 2016","20.90","21.33","21.33","20.72","268.10K","-2.34%"
"Jun 02, 2016","20.50","21.00","21.03","20.48","295.90K","-1.91%"
"Jun 03, 2016","20.81","20.60","20.90","20.24","202.40K","1.51%"
"Jun 06, 2016","20.45","20.87","20.87","20.14","266.20K","-1.73%"
"Jun 07, 2016","20.80","20.57","21.06","20.32","289.90K","1.71%"
"Jun 08, 2016","20.95","20.80","21.10","20.76","405.50K","0.72%"
"Jun 09, 2016","20.90","20.80","21.19","20.71","185.60K","-0.24%"
"Jun 10, 2016","20.79","20.76","21.08","20.65","216.30K","-0.53%"
"Jun 13, 2016","20.55","20.52","21.00","20.39","208.70K","-1.15%"
"Jun 14, 2016","20.10","20.56","20.61","20.00","201.20K","-2.19%"
"Jun 15, 2016","20.92","20.39","21.20","20.16","260.60K","4.08%"
"Jun 16, 2016","20.94","20.78","21.23","20.40","287.10K","0.10%"
"Jun 17, 2016","20.95","21.00","21.21","20.82","169.40K","0.05%"
"Jun 20, 2016","20.95","21.14","21.30","20.95","190.00K","0.00%"
"Jun 21, 2016","21.02","20.95","21.20","20.94","185.70K","0.33%"
"Jun 22, 2016","21.40","20.84","21.95","20.70","336.80K","1.81%"
"Jun 23, 2016","21.55","21.66","21.87","21.47","188.20K","0.70%"
"Jun 24, 2016","21.00","21.13","21.49","20.76","277.20K","-2.55%"
"Jun 27, 2016","21.00","20.99","21.61","20.81","364.90K","0.00%"
"Jun 28, 2016","21.45","21.15","22.00","21.11","492.10K","2.14%"
"Jun 29, 2016","22.45","21.86","22.45","21.69","222.20K","4.66%"
"Jun 30, 2016","22.89","22.30","23.04","22.22","475.70K","1.96%"
"Jul 01, 2016","22.76","22.90","23.09","22.66","607.60K","-0.57%"
"Jul 04, 2016","23.15","22.76","23.34","22.65","272.70K","1.71%"
"Jul 05, 2016","23.15","22.85","23.68","22.85","515.70K","0.00%"
"Jul 06, 2016","23.05","23.18","23.45","22.64","516.50K","-0.43%"
"Jul 07, 2016","23.91","23.10","24.00","23.10","353.10K","3.73%"
"Jul 08, 2016","23.83","23.90","24.19","23.83","491.80K","-0.33%"
"Jul 11, 2016","24.00","24.08","24.08","23.87","473.60K","0.71%"
"Jul 12, 2016","24.10","24.08","24.43","23.99","252.90K","0.42%"
"Jul 13, 2016","24.48","24.32","24.80","24.02","1.17M","1.58%"
"Jul 14, 2016","25.50","24.55","25.75","24.44","752.40K","4.17%"
"Jul 15, 2016","25.10","25.65","25.65","25.06","447.20K","-1.57%"
"Jul 18, 2016","25.83","25.12","26.00","25.12","458.90K","2.91%"
"Jul 19, 2016","25.81","25.61","26.19","25.56","585.30K","-0.08%"
"Jul 20, 2016","25.18","25.98","26.00","25.18","689.30K","-2.44%"
"Jul 21, 2016","25.38","25.20","25.68","25.07","318.50K","0.79%"
"Jul 22, 2016","25.68","25.38","26.00","25.30","259.10K","1.18%"
"Jul 25, 2016","25.16","25.71","25.95","24.91","281.30K","-2.02%"
"Jul 26, 2016","25.90","25.16","26.14","25.16","416.70K","2.94%"
"Jul 27, 2016","25.00","26.00","26.35","25.00","627.90K","-3.47%"
"Jul 28, 2016","21.41","22.95","22.95","21.00","1.49M","-14.36%"
"Jul 29, 2016","21.60","21.70","22.10","21.15","949.50K","0.89%"
"Aug 01, 2016","21.85","21.77","22.19","21.30","1.14M","1.16%"
"Aug 02, 2016","21.57","21.90","22.06","21.35","818.60K","-1.28%"
"Aug 03, 2016","21.65","21.69","22.59","20.77","983.30K","0.37%"
"Aug 04, 2016","22.22","21.85","22.52","21.70","435.30K","2.63%"
"Aug 05, 2016","22.68","22.40","22.74","22.20","253.30K","2.07%"
"Aug 08, 2016","21.85","22.70","22.70","21.85","499.50K","-3.66%"
"Aug 09, 2016","21.40","21.90","22.02","20.55","965.70K","-2.06%"
"Aug 10, 2016","21.30","21.42","22.12","20.99","1.53M","-0.47%"
"Aug 11, 2016","22.65","21.00","23.47","21.00","4.49M","6.34%"
"Aug 12, 2016","23.16","22.20","23.45","22.18","3.36M","2.25%"
"Aug 15, 2016","22.82","23.15","23.40","22.75","1.75M","-1.47%"
"Aug 16, 2016","22.15","22.64","22.98","22.12","908.70K","-2.94%"
"Aug 17, 2016","22.60","22.28","22.60","22.02","451.70K","2.03%"
"Aug 18, 2016","22.15","22.68","22.69","21.90","2.08M","-1.99%"
"Aug 19, 2016","22.39","22.31","22.39","21.94","530.10K","1.08%"
"Aug 22, 2016","22.00","22.45","22.45","22.00","409.10K","-1.74%"
"Aug 23, 2016","22.20","22.10","22.36","22.01","620.50K","0.91%"
"Aug 24, 2016","21.63","22.22","22.22","21.52","770.00K","-2.57%"
"Aug 25, 2016","21.70","21.63","21.81","21.50","407.00K","0.32%"
"Aug 26, 2016","21.90","21.71","22.74","21.52","1.14M","0.92%"
"Aug 29, 2016","22.10","22.20","22.31","21.74","949.10K","0.91%"
"Aug 30, 2016","22.65","22.15","22.65","21.99","1.26M","2.49%"
"Aug 31, 2016","22.45","22.70","22.79","22.35","1.31M","-0.88%"
"Sep 01, 2016","22.41","22.65","22.65","22.06","1.14M","-0.18%"
"Sep 02, 2016","22.81","22.53","22.81","22.50","811.50K","1.78%"
"Sep 05, 2016","23.00","22.90","23.00","22.57","384.50K","0.83%"
"Sep 06, 2016","23.59","23.06","23.80","22.85","1.14M","2.57%"
"Sep 08, 2016","23.75","23.69","23.90","23.44","1.66M","0.68%"
"Sep 09, 2016","23.30","23.72","23.72","23.17","303.10K","-1.89%"
"Sep 12, 2016","23.55","23.00","24.06","22.69","511.90K","1.07%"
"Sep 13, 2016","23.00","23.36","23.42","22.57","399.80K","-2.34%"
"Sep 14, 2016","22.99","23.00","23.25","22.69","389.00K","-0.04%"
"Sep 15, 2016","23.45","23.23","23.64","22.75","484.20K","2.00%"
"Sep 16, 2016","23.10","23.45","23.65","22.73","491.80K","-1.49%"
"Sep 19, 2016","23.01","23.30","23.54","22.67","477.40K","-0.39%"
"Sep 20, 2016","23.21","23.07","23.39","23.03","472.80K","0.87%"
"Sep 21, 2016","23.79","23.25","23.85","23.05","603.30K","2.50%"
"Sep 22, 2016","24.20","23.91","24.59","23.91","1.31M","1.72%"
"Sep 23, 2016","23.81","24.40","24.50","23.51","688.40K","-1.61%"
"Sep 26, 2016","23.46","23.83","23.86","23.11","563.90K","-1.47%"
"Sep 27, 2016","23.72","23.45","23.87","23.42","533.70K","1.11%"
"Sep 28, 2016","24.00","23.73","24.13","23.73","749.60K","1.18%"
"Sep 29, 2016","24.31","24.06","24.55","24.06","805.40K","1.29%"
"Sep 30, 2016","24.05","24.29","24.45","23.98","753.00K","-1.07%"
"Oct 03, 2016","24.86","24.08","24.99","24.08","825.10K","3.37%"
"Oct 04, 2016","24.68","25.00","25.19","24.52","586.80K","-0.72%"
"Oct 05, 2016","24.90","24.69","25.23","24.68","582.00K","0.89%"
"Oct 06, 2016","24.83","25.00","25.15","24.61","289.90K","-0.28%"
"Oct 07, 2016","24.80","24.83","25.12","24.49","624.20K","-0.12%"
"Oct 10, 2016","24.88","24.95","25.15","24.80","478.40K","0.32%"
"Oct 11, 2016","24.48","24.80","25.08","24.43","524.80K","-1.61%"
"Oct 13, 2016","24.25","24.45","24.45","24.10","592.90K","-0.94%"
"Oct 14, 2016","24.13","24.25","24.64","24.00","583.30K","-0.49%"
"Oct 17, 2016","24.10","24.27","24.33","23.83","810.00K","-0.12%"
"Oct 18, 2016","24.70","24.10","24.76","24.10","1.09M","2.49%"
"Oct 19, 2016","24.23","24.70","24.75","24.11","552.90K","-1.90%"
"Oct 20, 2016","23.80","24.23","24.23","23.65","673.70K","-1.77%"
"Oct 21, 2016","24.00","23.75","24.27","23.70","773.50K","0.84%"
"Oct 24, 2016","23.71","23.99","24.23","23.65","935.00K","-1.21%"
"Oct 25, 2016","23.74","23.71","24.20","23.70","381.80K","0.13%"
"Oct 26, 2016","23.65","23.74","23.91","22.71","995.30K","-0.38%"
"Oct 27, 2016","24.00","23.75","24.25","23.46","899.80K","1.48%"
"Oct 28, 2016","24.20","24.00","24.35","23.74","318.90K","0.83%"
"Oct 31, 2016","24.50","24.18","24.70","24.01","860.60K","1.24%"
"Nov 01, 2016","24.00","24.56","24.86","23.85","809.00K","-2.04%"
"Nov 03, 2016","23.88","24.00","24.25","23.76","245.90K","-0.50%"
"Nov 04, 2016","24.30","23.79","24.93","23.35","24.18M","1.76%"
"Nov 07, 2016","25.10","24.79","25.14","24.63","1.22M","3.29%"
"Nov 08, 2016","25.90","24.83","26.00","24.83","2.22M","3.19%"
"Nov 09, 2016","25.55","24.80","26.19","24.41","1.70M","-1.35%"
"Nov 10, 2016","24.65","25.89","25.98","24.00","1.40M","-3.52%"
"Nov 11, 2016","23.86","24.65","24.88","23.51","1.99M","-3.20%"
"Nov 14, 2016","23.64","24.00","24.44","23.41","982.60K","-0.92%"
"Nov 16, 2016","23.87","23.70","23.87","23.39","515.80K","0.97%"
"Nov 17, 2016","24.16","24.17","24.42","23.54","721.60K","1.21%"
"Nov 18, 2016","23.97","24.49","24.50","23.87","459.40K","-0.79%"
"Nov 21, 2016","24.40","24.00","24.40","23.56","340.50K","1.79%"
"Nov 22, 2016","23.81","24.75","24.92","23.43","721.40K","-2.42%"
"Nov 23, 2016","23.25","23.81","23.94","22.81","1.02M","-2.35%"
"Nov 24, 2016","23.40","23.30","23.54","22.86","231.80K","0.65%"
"Nov 25, 2016","23.61","23.39","23.84","23.22","249.90K","0.90%"
"Nov 28, 2016","23.33","23.44","23.52","22.98","402.10K","-1.19%"
"Nov 29, 2016","23.29","23.37","23.47","22.98","288.70K","-0.17%"
"Nov 30, 2016","23.62","23.57","23.62","22.98","647.00K","1.42%"
"Dec 01, 2016","22.53","23.74","23.74","22.23","1.26M","-4.61%"
"Dec 02, 2016","22.36","22.64","22.64","21.59","424.30K","-0.75%"
"Dec 05, 2016","22.50","22.34","22.83","22.09","509.10K","0.63%"
"Dec 06, 2016","22.89","22.41","23.13","22.21","680.70K","1.73%"
"Dec 07, 2016","22.94","22.90","23.31","22.66","410.00K","0.22%"
"Dec 08, 2016","23.27","22.79","23.60","22.79","282.20K","1.44%"
"Dec 09, 2016","23.10","23.55","23.55","22.71","407.60K","-0.73%"
"Dec 12, 2016","22.89","23.00","23.13","22.43","176.40K","-0.91%"
"Dec 13, 2016","22.91","22.78","23.37","22.77","429.10K","0.09%"
"Dec 14, 2016","23.28","23.03","24.09","22.54","1.19M","1.62%"
"Dec 15, 2016","22.80","23.20","23.59","22.57","751.00K","-2.06%"
"Dec 16, 2016","23.40","22.82","23.45","22.82","1.39M","2.63%"
"Dec 19, 2016","22.69","23.38","23.38","22.40","1.64M","-3.03%"
"Dec 20, 2016","22.17","22.97","23.05","21.92","1.26M","-2.29%"
"Dec 21, 2016","22.26","22.30","22.58","22.00","818.30K","0.41%"
"Dec 22, 2016","22.11","22.26","22.38","22.00","876.20K","-0.67%"
"Dec 23, 2016","22.30","22.28","22.55","22.08","644.70K","0.86%"
"Dec 26, 2016","22.41","22.47","22.58","22.31","240.50K","0.49%"
"Dec 27, 2016","22.88","22.59","23.00","22.59","584.20K","2.10%"
"Dec 28, 2016","23.20","23.01","23.22","22.75","275.70K","1.40%"
"Dec 29, 2016","23.70","23.23","23.70","22.97","822.90K","2.16%"
"Jan 02, 2017","23.02","23.65","23.65","23.01","236.90K","-2.87%"
"Jan 03, 2017","23.71","23.10","23.79","23.05","750.10K","3.00%"
"Jan 04, 2017","24.46","24.35","24.87","24.05","847.00K","3.16%"
"Jan 05, 2017","25.20","24.50","25.42","24.33","593.70K","3.03%"
"Jan 06, 2017","24.99","25.10","25.22","24.52","448.20K","-0.83%"
"Jan 09, 2017","25.20","25.00","25.45","24.41","674.90K","0.84%"
"Jan 10, 2017","25.10","25.39","25.46","24.70","848.90K","-0.40%"
"Jan 11, 2017","25.25","25.12","25.40","24.99","615.30K","0.60%"
"Jan 12, 2017","25.39","26.00","26.37","24.95","1.31M","0.55%"
"Jan 13, 2017","26.35","25.30","26.35","25.25","835.20K","3.78%"
"Jan 16, 2017","25.83","26.35","26.35","25.56","479.20K","-1.97%"
"Jan 17, 2017","25.66","25.72","26.00","25.50","412.00K","-0.66%"
"Jan 18, 2017","25.70","25.66","26.00","25.25","551.00K","0.16%"
"Jan 19, 2017","24.90","25.72","25.85","24.82","1.62M","-3.11%"
"Jan 20, 2017","25.94","25.06","25.94","25.05","699.20K","4.18%"
"Jan 23, 2017","25.84","25.94","26.06","25.63","326.00K","-0.39%"
"Jan 24, 2017","26.14","25.81","26.66","25.66","613.70K","1.16%"
"Jan 26, 2017","26.34","26.10","26.63","26.06","1.75M","0.77%"
"Jan 27, 2017","25.85","26.51","26.52","25.53","723.20K","-1.86%"
"Jan 30, 2017","25.97","25.95","26.10","25.17","805.00K","0.46%"
"Jan 31, 2017","26.00","25.95","26.22","25.81","488.50K","0.12%"
"Feb 01, 2017","25.99","26.13","26.41","25.62","682.40K","-0.04%"
"Feb 02, 2017","26.06","25.97","26.14","25.60","584.90K","0.27%"
"Feb 03, 2017","26.53","26.06","26.58","25.83","521.70K","1.80%"
"Feb 06, 2017","26.09","26.59","26.72","25.91","452.90K","-1.66%"
"Feb 07, 2017","26.49","26.10","26.49","25.83","576.50K","1.53%"
"Feb 08, 2017","26.57","26.40","26.99","26.23","361.80K","0.30%"
"Feb 09, 2017","27.00","26.46","27.92","26.37","734.20K","1.62%"
"Feb 10, 2017","27.11","27.04","27.38","26.75","1.02M","0.41%"
"Feb 13, 2017","27.75","27.35","28.21","27.23","853.00K","2.36%"
"Feb 14, 2017","27.34","27.80","28.00","26.91","920.40K","-1.48%"
"Feb 15, 2017","28.10","27.41","28.86","27.39","914.70K","2.78%"
"Feb 16, 2017","27.90","28.12","28.25","27.55","806.00K","-0.71%"
"Feb 17, 2017","27.27","27.90","27.91","27.25","583.60K","-2.26%"
"Feb 20, 2017","27.98","27.40","28.10","27.40","309.10K","2.60%"
"Feb 21, 2017","28.18","28.29","28.30","27.80","337.40K","0.71%"
"Feb 22, 2017","28.35","28.15","28.36","27.85","751.00K","0.60%"
"Feb 23, 2017","28.80","28.27","28.94","27.90","909.60K","1.59%"
"Feb 24, 2017","28.53","28.74","28.74","28.17","1.00M","-0.94%"
"Mar 01, 2017","28.27","28.71","28.74","28.01","618.10K","-0.91%"
"Mar 02, 2017","28.02","27.73","28.91","27.58","2.33M","-0.88%"
"Mar 03, 2017","28.28","28.35","28.44","28.02","797.20K","0.93%"
"Mar 06, 2017","28.91","28.36","28.95","28.32","971.20K","2.23%"
"Mar 07, 2017","28.91","28.94","29.00","28.52","489.00K","0.00%"
"Mar 08, 2017","28.42","28.91","28.91","28.27","611.60K","-1.69%"
"Mar 09, 2017","28.54","28.41","28.54","27.81","1.03M","0.42%"
"Mar 10, 2017","29.29","28.72","29.33","28.72","986.60K","2.63%"
"Mar 13, 2017","29.47","29.29","29.59","29.22","680.50K","0.61%"
"Mar 14, 2017","29.40","29.47","29.48","29.10","431.90K","-0.24%"
"Mar 15, 2017","29.54","29.42","29.69","29.02","423.70K","0.48%"
"Mar 16, 2017","29.49","29.54","29.79","29.30","421.60K","-0.17%"
"Mar 17, 2017","29.15","29.65","29.69","29.07","670.20K","-1.15%"
"Mar 20, 2017","28.81","29.17","29.27","28.58","582.30K","-1.17%"
"Mar 21, 2017","28.30","28.99","29.07","28.30","413.80K","-1.77%"
"Mar 22, 2017","28.02","28.33","28.43","27.75","457.50K","-0.99%"
"Mar 23, 2017","28.74","28.05","29.01","27.90","561.80K","2.57%"
"Mar 24, 2017","28.17","28.74","28.88","28.13","299.30K","-1.98%"
"Mar 27, 2017","27.91","28.03","28.10","27.54","495.40K","-0.92%"
"Mar 28, 2017","28.02","27.90","28.02","27.56","538.60K","0.39%"
"Mar 29, 2017","28.92","28.02","29.49","27.89","935.00K","3.21%"
"Mar 30, 2017","28.40","28.99","28.99","28.13","1.94M","-1.80%"
"Mar 31, 2017","28.32","28.41","28.77","28.09","1.14M","-0.28%"
"Apr 03, 2017","28.16","28.42","28.93","28.10","784.40K","-0.56%"
"Apr 04, 2017","28.32","28.41","28.61","28.05","1.39M","0.57%"
"Apr 05, 2017","28.27","28.41","28.43","28.05","1.03M","-0.18%"
"Apr 06, 2017","28.39","28.27","28.84","27.78","816.10K","0.42%"
"Apr 07, 2017","28.49","28.39","28.82","27.94","664.40K","0.35%"
"Apr 10, 2017","27.88","28.50","28.60","27.78","684.10K","-2.14%"
"Apr 11, 2017","28.02","27.88","28.18","27.36","1.65M","0.50%"
"Apr 12, 2017","28.14","28.00","28.40","27.57","2.00M","0.43%"
"Apr 13, 2017","28.67","28.16","28.71","28.05","429.50K","1.88%"
"Apr 17, 2017","29.84","28.67","29.98","28.51","1.81M","4.08%"
"Apr 18, 2017","29.94","29.82","30.14","29.57","1.16M","0.34%"
"Apr 19, 2017","29.80","30.01","30.21","29.16","1.01M","-0.47%"
"Apr 20, 2017","29.69","29.99","30.14","29.49","431.80K","-0.37%"
"Apr 24, 2017","29.26","29.65","29.91","29.03","694.90K","-1.45%"
"Apr 25, 2017","29.05","29.33","29.33","28.75","566.40K","-0.72%"
"Apr 26, 2017","29.63","29.05","29.63","28.65","744.30K","2.00%"
"Apr 27, 2017","29.48","29.64","29.64","29.17","318.40K","-0.51%"
"Apr 28, 2017","30.34","29.46","30.34","29.38","1.01M","2.92%"
"May 02, 2017","30.60","30.50","30.87","30.50","1.00M","0.86%"
"May 03, 2017","30.98","30.50","30.98","30.23","763.10K","1.24%"
"May 04, 2017","30.49","31.18","31.44","30.40","1.57M","-1.58%"
"May 05, 2017","30.54","30.64","30.80","30.27","551.20K","0.16%"
"May 08, 2017","31.09","30.54","31.13","30.35","410.80K","1.80%"
"May 09, 2017","31.43","31.39","31.72","30.88","614.30K","1.09%"
"May 10, 2017","31.73","31.56","31.88","31.44","1.06M","0.95%"
"May 11, 2017","31.03","31.82","31.97","30.89","765.10K","-2.21%"
"May 12, 2017","31.52","31.32","31.52","30.33","895.60K","1.58%"
"May 15, 2017","30.93","31.43","31.52","30.64","2.84M","-1.87%"
"May 16, 2017","32.20","31.09","32.20","30.93","944.20K","4.11%"
"May 17, 2017","32.08","32.19","32.21","31.66","800.80K","-0.37%"
"May 18, 2017","29.07","27.88","29.61","27.58","3.60M","-9.38%"
"May 19, 2017","29.01","28.87","30.19","28.58","975.20K","-0.21%"
"May 22, 2017","27.54","29.03","29.03","27.02","2.67M","-5.07%"
"May 23, 2017","28.31","27.54","28.93","27.54","1.09M","2.80%"
"May 24, 2017","29.30","28.57","29.66","28.51","785.20K","3.50%"
"May 25, 2017","29.39","29.01","29.71","29.01","577.80K","0.31%"
"May 26, 2017","30.64","29.72","31.30","29.54","1.01M","4.25%"
"May 29, 2017","30.74","30.64","30.74","29.83","410.80K","0.33%"
"May 30, 2017","30.39","30.74","30.90","30.24","944.70K","-1.14%"
"May 31, 2017","29.55","30.34","30.65","29.29","2.12M","-2.76%"
"Jun 01, 2017","29.41","29.82","29.84","29.06","607.00K","-0.47%"
"Jun 02, 2017","30.20","29.40","30.28","29.31","729.60K","2.69%"
"Jun 05, 2017","30.38","30.25","30.42","29.74","560.50K","0.60%"
"Jun 06, 2017","30.84","30.34","30.92","30.06","666.80K","1.51%"
"Jun 07, 2017","31.52","30.84","31.54","30.79","1.01M","2.20%"
"Jun 08, 2017","32.71","31.48","32.71","31.13","911.40K","3.78%"
"Jun 09, 2017","32.99","32.31","33.30","32.30","909.40K","0.86%"
"Jun 12, 2017","32.36","33.29","33.29","32.03","518.40K","-1.91%"
"Jun 13, 2017","33.30","32.70","33.40","32.04","512.50K","2.90%"
"Jun 14, 2017","33.48","33.39","33.48","32.81","542.10K","0.54%"
"Jun 16, 2017","33.73","33.28","34.05","33.21","390.50K","0.75%"
"Jun 19, 2017","33.86","33.63","34.11","33.50","424.60K","0.39%"
"Jun 20, 2017","33.09","33.87","33.88","33.00","1.03M","-2.27%"
"Jun 21, 2017","32.00","32.74","33.09","32.00","836.60K","-3.29%"
"Jun 22, 2017","32.05","32.25","32.33","31.24","971.40K","0.16%"
"Jun 23, 2017","32.04","32.04","32.49","31.26","834.70K","-0.03%"
"Jun 26, 2017","32.69","32.06","32.83","32.06","733.00K","2.03%"
"Jun 27, 2017","32.25","32.59","32.62","31.99","607.40K","-1.35%"
"Jun 28, 2017","31.66","32.44","32.44","31.61","678.90K","-1.83%"
"Jun 29, 2017","31.51","31.94","31.94","30.60","1.43M","-0.47%"
"Jun 30, 2017","31.89","31.51","32.27","31.29","752.80K","1.21%"
"Jul 03, 2017","32.25","31.87","32.29","31.65","454.10K","1.13%"
"Jul 04, 2017","32.35","32.29","32.48","31.79","391.60K","0.31%"
"Jul 05, 2017","32.79","32.34","32.97","32.20","1.14M","1.36%"
"Jul 06, 2017","33.68","32.99","34.05","32.99","954.50K","2.71%"
"Jul 07, 2017","33.50","33.58","34.40","33.28","1.05M","-0.53%"
"Jul 10, 2017","33.30","33.58","33.85","33.08","869.20K","-0.60%"
"Jul 11, 2017","33.34","33.44","33.44","33.04","383.70K","0.12%"
"Jul 12, 2017","33.68","33.48","34.19","33.10","694.80K","1.02%"
"Jul 13, 2017","34.30","33.88","34.71","33.88","1.40M","1.84%"
"Jul 14, 2017","34.32","34.27","34.68","33.71","576.90K","0.06%"
"Jul 17, 2017","33.58","34.14","34.45","33.50","1.13M","-2.16%"
"Jul 18, 2017","33.79","33.58","33.90","33.10","1.62M","0.63%"
"Jul 19, 2017","33.87","33.79","34.36","33.31","1.69M","0.24%"
"Jul 20, 2017","34.45","33.91","34.45","33.72","500.80K","1.71%"
"Jul 21, 2017","34.43","34.46","34.60","34.28","748.80K","-0.06%"
"Jul 24, 2017","34.46","34.46","34.46","34.00","205.20K","0.09%"
"Jul 25, 2017","34.96","34.36","35.23","34.36","1.90M","1.45%"
"Jul 26, 2017","34.86","35.10","35.20","34.51","359.40K","-0.29%"
"Jul 27, 2017","35.20","35.15","35.42","34.81","564.90K","0.98%"
"Jul 28, 2017","34.70","35.14","35.17","34.70","473.80K","-1.42%"
"Jul 31, 2017","35.10","34.70","35.10","34.56","563.90K","1.15%"
"Aug 01, 2017","34.73","35.08","35.26","34.55","665.40K","-1.05%"
"Aug 02, 2017","35.14","34.73","35.42","34.66","443.80K","1.18%"
"Aug 03, 2017","34.56","35.15","35.20","33.85","1.08M","-1.65%"
"Aug 04, 2017","34.71","34.90","34.90","33.81","765.50K","0.43%"
"Aug 07, 2017","34.81","34.89","35.19","34.62","405.90K","0.29%"
"Aug 08, 2017","34.76","34.81","34.96","34.53","372.70K","-0.14%"
"Aug 09, 2017","35.15","34.40","35.15","34.39","392.20K","1.12%"
"Aug 10, 2017","34.76","35.20","35.21","34.27","1.19M","-1.11%"
"Aug 11, 2017","34.38","34.51","35.04","34.05","573.20K","-1.09%"
"Aug 14, 2017","34.71","34.45","35.02","34.35","802.70K","0.96%"
"Aug 15, 2017","34.33","34.71","34.75","34.22","732.90K","-1.09%"
"Aug 16, 2017","33.46","34.32","34.54","33.06","1.50M","-2.53%"
"Aug 17, 2017","34.37","33.58","34.56","33.16","1.30M","2.72%"
"Aug 18, 2017","34.50","34.37","34.50","33.95","703.70K","0.38%"
"Aug 21, 2017","35.15","34.50","35.30","34.33","1.26M","1.88%"
"Aug 22, 2017","35.19","35.25","36.11","35.00","1.29M","0.11%"
"Aug 23, 2017","36.03","35.15","36.13","35.15","733.10K","2.39%"
"Aug 24, 2017","36.83","36.10","36.97","36.10","971.40K","2.22%"
"Aug 25, 2017","36.34","36.71","36.95","35.77","844.50K","-1.33%"
"Aug 28, 2017","36.24","36.30","36.38","35.88","763.20K","-0.28%"
"Aug 29, 2017","36.34","36.12","36.42","35.84","278.90K","0.28%"
"Aug 30, 2017","36.88","36.37","36.88","36.11","2.03M","1.49%"
"Aug 31, 2017","37.62","36.91","37.62","36.62","896.40K","2.01%"
"Sep 01, 2017","38.25","37.81","38.25","37.33","623.60K","1.67%"
"Sep 04, 2017","37.52","38.17","38.18","37.51","876.60K","-1.91%"
"Sep 05, 2017","37.74","37.88","38.30","37.42","458.00K","0.59%"
"Sep 06, 2017","38.11","37.90","38.23","37.74","1.61M","0.98%"
"Sep 08, 2017","38.16","38.06","38.70","37.94","516.70K","0.13%"
"Sep 11, 2017","39.79","38.39","39.79","38.21","1.12M","4.27%"
"Sep 12, 2017","39.67","39.80","40.02","39.31","587.30K","-0.30%"
"Sep 13, 2017","41.26","39.28","41.46","39.22","1.33M","4.01%"
"Sep 14, 2017","41.70","41.24","41.90","41.06","664.50K","1.07%"
"Sep 15, 2017","41.64","41.71","42.15","41.37","1.88M","-0.14%"
"Sep 18, 2017","41.60","41.52","42.21","41.06","796.00K","-0.10%"
"Sep 19, 2017","41.20","41.36","41.75","40.38","696.60K","-0.96%"
"Sep 20, 2017","41.50","40.90","41.51","40.67","575.70K","0.73%"
"Sep 21, 2017","41.27","41.50","41.75","40.60","1.10M","-0.55%"
"Sep 22, 2017","41.47","41.44","41.58","40.70","391.70K","0.48%"
"Sep 25, 2017","40.26","41.73","41.73","39.98","1.07M","-2.92%"
"Sep 26, 2017","39.88","40.16","40.48","39.66","676.70K","-0.94%"
"Sep 27, 2017","38.35","40.17","40.30","37.91","2.69M","-3.84%"
"Sep 28, 2017","39.59","38.57","39.85","38.54","1.12M","3.23%"
"Sep 29, 2017","40.32","39.99","40.78","39.54","952.10K","1.84%"
"Oct 02, 2017","39.98","40.65","41.02","39.68","531.20K","-0.84%"
"Oct 03, 2017","40.81","40.35","40.86","39.89","1.09M","2.08%"
"Oct 04, 2017","41.63","40.81","42.02","40.57","1.02M","2.01%"
"Oct 05, 2017","41.75","41.66","42.18","41.28","464.60K","0.29%"
"Oct 06, 2017","42.81","42.05","42.87","41.74","835.50K","2.54%"
"Oct 09, 2017","42.33","43.24","43.24","41.82","596.40K","-1.12%"
"Oct 10, 2017","42.88","42.49","42.88","42.15","1.15M","1.30%"
"Oct 11, 2017","43.36","42.93","43.50","42.64","678.40K","1.12%"
"Oct 13, 2017","43.82","43.38","44.16","43.11","706.30K","1.06%"
"Oct 16, 2017","42.93","44.04","44.21","42.83","1.06M","-2.03%"
"Oct 17, 2017","42.64","42.94","42.95","42.34","750.10K","-0.68%"
"Oct 18, 2017","43.70","42.85","44.07","42.73","488.60K","2.49%"
"Oct 19, 2017","44.16","43.70","44.21","43.05","896.40K","1.05%"
"Oct 20, 2017","45.00","44.17","45.00","43.69","921.80K","1.90%"
"Oct 23, 2017","44.36","45.01","45.01","43.70","1.05M","-1.42%"
"Oct 24, 2017","44.51","44.30","45.36","43.90","739.50K","0.34%"
"Oct 25, 2017","44.15","44.86","44.86","43.28","767.80K","-0.81%"
"Oct 26, 2017","42.64","44.14","44.28","42.40","1.39M","-3.42%"
"Oct 27, 2017","43.33","43.03","43.62","42.52","936.90K","1.62%"
"Oct 30, 2017","42.48","43.33","43.33","41.12","1.87M","-1.96%"
"Oct 31, 2017","42.54","42.52","42.85","41.59","1.25M","0.14%"
"Nov 01, 2017","43.08","42.90","43.24","42.40","325.70K","1.27%"
"Nov 03, 2017","42.10","43.11","43.61","40.65","901.60K","-2.27%"
"Nov 06, 2017","41.55","42.52","42.52","41.01","936.30K","-1.31%"
"Nov 07, 2017","40.96","41.78","41.78","39.96","2.19M","-1.42%"
"Nov 08, 2017","42.59","41.48","42.63","41.04","688.90K","3.98%"
"Nov 09, 2017","41.84","42.98","43.48","40.96","1.66M","-1.76%"
"Nov 10, 2017","40.11","41.84","41.84","39.78","2.22M","-4.13%"
"Nov 13, 2017","40.76","40.14","41.17","39.79","1.19M","1.62%"
"Nov 14, 2017","40.42","41.22","41.75","40.34","1.20M","-0.83%"
"Nov 16, 2017","42.53","40.71","42.53","40.42","1.40M","5.22%"
"Nov 17, 2017","43.33","42.53","43.33","42.12","1.10M","1.88%"
"Nov 21, 2017","44.74","44.20","44.99","43.48","1.43M","3.25%"
"Nov 22, 2017","45.39","44.42","45.64","44.39","1.38M","1.45%"
"Nov 23, 2017","45.15","45.38","45.49","44.81","475.80K","-0.53%"
"Nov 24, 2017","45.94","45.44","46.02","44.98","396.30K","1.75%"
"Nov 27, 2017","45.09","45.57","45.74","43.94","1.25M","-1.85%"
"Nov 28, 2017","45.05","45.09","45.20","44.26","515.90K","-0.09%"
"Nov 29, 2017","44.71","44.90","45.29","44.53","1.05M","-0.75%"
"Nov 30, 2017","44.28","44.70","44.70","43.13","888.60K","-0.96%"
"Dec 01, 2017","44.04","44.28","44.39","43.63","534.90K","-0.54%"
"Dec 04, 2017","44.49","44.48","44.51","43.38","871.00K","1.02%"
"Dec 05, 2017","44.16","44.49","45.16","43.82","973.70K","-0.74%"
"Dec 06, 2017","44.41","44.10","44.67","43.43","616.00K","0.57%"
"Dec 07, 2017","44.25","43.76","44.58","42.95","485.60K","-0.36%"
"Dec 08, 2017","44.80","44.31","45.55","44.23","592.60K","1.24%"
"Dec 11, 2017","44.20","45.29","45.56","44.00","333.10K","-1.34%"
"Dec 12, 2017","44.37","44.17","44.67","43.45","379.30K","0.38%"
"Dec 13, 2017","43.99","44.31","45.39","43.85","938.20K","-0.86%"
"Dec 14, 2017","44.82","43.98","44.92","43.46","756.10K","1.89%"
"Dec 15, 2017","45.52","44.46","46.20","44.22","1.89M","1.56%"
"Dec 18, 2017","45.80","46.06","46.10","45.34","774.20K","0.62%"
"Dec 19, 2017","45.06","45.98","45.98","44.55","705.80K","-1.62%"
"Dec 20, 2017","45.38","45.18","45.47","44.61","684.90K","0.71%"
"Dec 21, 2017","46.77","45.21","46.77","44.81","1.26M","3.06%"
"Dec 22, 2017","46.45","46.82","46.82","45.79","611.40K","-0.68%"
"Dec 26, 2017","46.64","46.55","46.78","46.07","685.50K","0.41%"
"Dec 27, 2017","47.66","46.64","47.66","46.46","1.01M","2.19%"
"Dec 28, 2017","48.06","47.21","48.20","47.21","1.24M","0.84%"
"Jan 02, 2018","49.42","48.06","49.42","48.05","866.70K","2.83%"
"Jan 03, 2018","49.14","49.03","50.39","48.51","901.10K","-0.57%"
"Jan 04, 2018","49.53","49.05","49.68","48.65","918.20K","0.79%"
"Jan 05, 2018","49.29","49.52","49.52","48.56","760.30K","-0.48%"
"Jan 08, 2018","49.08","49.28","49.28","48.37","658.00K","-0.43%"
"Jan 09, 2018","49.62","49.46","50.14","48.75","859.60K","1.10%"
"Jan 10, 2018","49.64","49.08","49.85","49.08","709.30K","0.04%"
"Jan 11, 2018","50.14","49.69","50.14","48.94","584.70K","1.01%"
"Jan 12, 2018","49.66","49.93","49.94","48.78","876.00K","-0.96%"
"Jan 15, 2018","49.64","49.92","49.92","49.20","395.90K","-0.04%"
"Jan 16, 2018","50.03","49.54","50.26","49.38","578.30K","0.79%"
"Jan 17, 2018","50.34","50.26","50.34","49.37","491.70K","0.62%"
"Jan 18, 2018","50.53","50.24","50.53","49.73","748.90K","0.38%"
"Jan 19, 2018","50.54","50.83","51.01","50.43","558.90K","0.02%"
"Jan 22, 2018","50.04","50.56","50.64","49.91","499.00K","-0.99%"
"Jan 23, 2018","49.93","49.99","50.08","49.47","440.70K","-0.22%"
"Jan 24, 2018","51.88","49.93","51.96","49.93","696.30K","3.91%"
"Jan 26, 2018","53.84","51.98","54.48","51.98","1.31M","3.78%"
"Jan 29, 2018","53.51","53.83","54.51","52.95","650.50K","-0.61%"
"Jan 30, 2018","52.96","53.41","54.21","52.75","601.50K","-1.03%"
"Jan 31, 2018","54.63","53.47","54.94","53.16","589.00K","3.15%"
"Feb 01, 2018","55.91","54.28","55.98","54.28","1.23M","2.34%"
"Feb 02, 2018","54.60","55.74","55.76","54.19","866.00K","-2.34%"
"Feb 05, 2018","54.10","54.39","55.74","53.42","1.13M","-0.92%"
"Feb 06, 2018","55.14","53.80","55.14","51.89","1.21M","1.92%"
"Feb 07, 2018","54.50","55.14","55.43","54.20","932.30K","-1.16%"
"Feb 08, 2018","54.17","54.83","55.49","53.11","1.49M","-0.61%"
"Feb 09, 2018","53.21","53.98","53.98","52.54","1.27M","-1.77%"
"Feb 14, 2018","54.84","53.52","54.84","52.84","991.10K","3.06%"
"Feb 15, 2018","54.50","54.99","55.36","54.35","630.90K","-0.62%"
"Feb 16, 2018","54.74","54.78","54.78","54.07","1.05M","0.44%"
"Feb 19, 2018","55.32","54.68","55.32","54.55","466.60K","1.06%"
"Feb 20, 2018","55.59","55.06","55.59","54.58","452.60K","0.49%"
"Feb 21, 2018","54.98","55.60","55.84","54.57","929.50K","-1.10%"
"Feb 22, 2018","55.19","54.84","55.19","54.35","1.05M","0.38%"
"Feb 23, 2018","56.28","55.32","56.31","54.54","696.00K","1.97%"
"Feb 26, 2018","55.96","56.53","56.88","55.27","626.60K","-0.57%"
"Feb 27, 2018","55.64","56.40","56.40","54.92","548.30K","-0.57%"
"Feb 28, 2018","55.63","55.64","55.72","55.10","903.70K","-0.02%"
"Mar 01, 2018","55.91","55.24","56.48","55.24","607.40K","0.50%"
"Mar 02, 2018","54.94","55.60","55.72","54.11","847.30K","-1.73%"
"Mar 05, 2018","54.19","55.01","55.19","54.16","706.80K","-1.37%"
"Mar 06, 2018","53.71","54.00","54.57","52.02","1.86M","-0.89%"
"Mar 07, 2018","53.90","53.51","54.00","52.53","1.12M","0.35%"
"Mar 08, 2018","55.07","53.91","55.07","53.19","936.60K","2.17%"
"Mar 09, 2018","56.47","55.07","56.88","54.80","1.02M","2.54%"
"Mar 12, 2018","56.58","56.58","56.64","55.97","468.10K","0.19%"
"Mar 13, 2018","56.68","56.63","57.17","56.21","641.40K","0.18%"
"Mar 14, 2018","56.50","56.65","56.66","55.49","667.70K","-0.32%"
"Mar 15, 2018","56.38","56.47","57.04","55.74","1.08M","-0.21%"
"Mar 16, 2018","57.51","56.38","58.20","56.05","1.55M","2.00%"
"Mar 19, 2018","55.88","57.99","57.99","55.64","1.24M","-2.83%"
"Mar 20, 2018","57.27","56.08","57.42","55.67","1.19M","2.49%"
"Mar 21, 2018","57.43","57.46","57.96","56.90","717.10K","0.28%"
"Mar 22, 2018","57.82","57.32","58.00","57.31","765.40K","0.68%"
"Mar 23, 2018","57.67","57.73","58.40","56.34","982.50K","-0.26%"
"Mar 26, 2018","58.22","57.97","58.75","57.67","686.30K","0.95%"
"Mar 27, 2018","58.06","58.22","58.22","57.47","751.40K","-0.27%"
"Mar 28, 2018","58.46","57.89","59.05","56.45","987.40K","0.69%"
"Mar 29, 2018","60.10","58.62","60.34","57.83","1.55M","2.81%"
"Apr 02, 2018","58.45","60.10","60.10","58.33","700.80K","-2.75%"
"Apr 03, 2018","56.69","58.05","58.86","56.69","1.29M","-3.01%"
"Apr 04, 2018","56.83","56.39","57.67","55.11","1.26M","0.25%"
"Apr 05, 2018","57.47","58.07","58.78","56.96","706.20K","1.13%"
"Apr 06, 2018","58.16","57.47","58.60","57.03","964.40K","1.20%"
"Apr 09, 2018","57.16","58.86","58.86","56.97","745.90K","-1.72%"
"Apr 10, 2018","57.51","57.44","57.69","56.18","821.60K","0.61%"
"Apr 11, 2018","57.71","57.81","58.08","56.60","1.11M","0.35%"
"Apr 12, 2018","58.14","57.70","58.23","57.23","696.80K","0.75%"
"Apr 13, 2018","57.77","58.23","58.30","57.13","645.60K","-0.64%"
"Apr 16, 2018","56.93","58.00","59.15","56.93","634.40K","-1.45%"
"Apr 17, 2018","57.52","56.93","57.65","56.79","1.55M","1.04%"
"Apr 18, 2018","58.46","57.94","58.46","57.45","698.70K","1.63%"
"Apr 19, 2018","57.91","58.36","58.55","57.52","1.05M","-0.94%"
"Apr 20, 2018","57.24","58.09","58.09","57.24","1.18M","-1.16%"
"Apr 23, 2018","57.26","57.17","57.55","56.27","1.05M","0.03%"
"Apr 24, 2018","57.56","57.46","58.13","57.03","481.20K","0.52%"
"Apr 25, 2018","56.61","57.47","57.61","56.44","812.20K","-1.65%"
"Apr 26, 2018","56.97","56.91","57.98","56.56","486.20K","0.64%"
"Apr 27, 2018","57.18","56.99","57.76","56.59","683.80K","0.37%"
"Apr 30, 2018","57.54","57.79","58.65","56.98","1.49M","0.63%"
"May 02, 2018","56.09","57.46","57.46","55.37","997.40K","-2.52%"
"May 03, 2018","53.29","56.00","56.09","53.23","1.33M","-4.99%"
"May 04, 2018","54.23","53.39","55.00","53.13","3.55M","1.76%"
"May 07, 2018","53.22","54.58","54.58","52.44","1.09M","-1.86%"
"May 08, 2018","53.09","53.29","53.72","51.73","1.22M","-0.24%"
"May 09, 2018","52.95","52.85","53.69","52.35","810.70K","-0.26%"
"May 10, 2018","53.36","53.24","53.47","52.51","1.15M","0.77%"
"May 11, 2018","51.44","53.52","54.02","51.01","2.16M","-3.60%"
"May 14, 2018","50.26","51.21","52.05","50.12","2.14M","-2.29%"
"May 15, 2018","49.62","49.00","50.32","48.39","3.25M","-1.27%"
"May 16, 2018","51.53","49.62","51.53","49.37","1.45M","3.85%"
"May 17, 2018","49.52","51.67","51.74","49.42","1.64M","-3.90%"
"May 18, 2018","49.17","49.49","49.49","46.71","2.64M","-0.71%"
"May 21, 2018","50.11","49.33","50.59","49.33","1.46M","1.91%"
"May 22, 2018","52.93","50.81","52.94","50.19","2.24M","5.63%"
"May 23, 2018","50.60","52.10","52.34","50.49","1.16M","-4.40%"
"May 24, 2018","51.37","49.69","51.37","49.50","1.38M","1.52%"
"May 25, 2018","50.86","51.41","51.73","50.61","812.10K","-0.99%"
"May 28, 2018","47.13","50.70","50.70","46.80","2.26M","-7.33%"
"May 29, 2018","49.55","48.12","50.45","47.92","1.75M","5.13%"
"May 30, 2018","50.61","48.93","50.61","48.93","2.12M","2.14%"
"Jun 01, 2018","50.90","50.68","52.46","50.29","1.84M","0.57%"
"Jun 04, 2018","53.66","51.65","53.66","51.05","1.14M","5.42%"
"Jun 05, 2018","50.82","52.92","53.37","50.62","1.33M","-5.29%"
"Jun 06, 2018","48.23","50.74","50.74","47.39","2.41M","-5.10%"
"Jun 07, 2018","46.48","47.51","47.51","39.81","4.03M","-3.63%"
"Jun 08, 2018","48.62","46.55","48.62","44.97","1.96M","4.60%"
"Jun 11, 2018","45.65","48.12","48.12","44.67","2.97M","-6.11%"
"Jun 12, 2018","43.56","45.45","45.89","43.43","2.27M","-4.58%"
"Jun 13, 2018","42.42","42.37","43.92","41.18","3.61M","-2.62%"
"Jun 14, 2018","42.19","42.31","43.85","42.19","2.18M","-0.54%"
"Jun 15, 2018","41.83","42.02","43.06","41.48","1.95M","-0.85%"
"Jun 18, 2018","42.65","41.63","42.79","41.09","1.17M","1.96%"
"Jun 19, 2018","41.07","39.57","41.58","39.35","1.45M","-3.71%"
"Jun 20, 2018","41.82","41.76","42.66","41.06","2.04M","1.82%"
"Jun 21, 2018","40.22","41.51","41.91","39.74","1.54M","-3.80%"
"Jun 22, 2018","40.09","40.96","40.96","39.25","1.04M","-0.34%"
"Jun 25, 2018","40.69","40.40","40.97","39.30","1.32M","1.50%"
"Jun 26, 2018","41.80","41.28","42.07","40.31","1.38M","2.73%"
"Jun 27, 2018","40.31","41.80","41.80","39.67","1.10M","-3.56%"
"Jun 28, 2018","40.35","40.32","41.12","39.76","1.33M","0.11%"
"Jun 29, 2018","41.80","40.56","41.80","40.56","1.15M","3.57%"
"Jul 02, 2018","41.29","40.96","41.47","40.05","975.53K","-1.22%"
"Jul 03, 2018","41.08","41.68","42.07","40.83","944.50K","-0.52%"
"Jul 04, 2018","40.73","41.45","41.46","40.73","514.82K","-0.83%"
"Jul 05, 2018","40.10","40.70","41.08","39.56","881.69K","-1.54%"
"Jul 06, 2018","38.37","38.74","39.12","37.07","2.23M","-4.33%"
"Jul 10, 2018","37.13","38.84","38.84","36.38","3.17M","-3.23%"
"Jul 11, 2018","37.17","36.98","38.24","36.34","2.71M","0.12%"
"Jul 12, 2018","38.32","37.24","38.83","36.86","1.49M","3.08%"
"Jul 13, 2018","39.99","38.47","40.13","38.13","3.49M","4.37%"
"Jul 16, 2018","41.51","40.22","41.51","40.13","1.36M","3.79%"
"Jul 17, 2018","41.89","41.60","42.37","40.89","2.25M","0.91%"
"Jul 18, 2018","41.61","41.45","42.32","41.19","1.85M","-0.66%"
"Jul 19, 2018","41.08","41.19","41.20","39.68","1.16M","-1.27%"
"Jul 20, 2018","41.61","41.62","43.14","41.42","1.81M","1.28%"
"Jul 23, 2018","40.93","41.56","42.02","40.90","831.42K","-1.64%"
"Jul 24, 2018","42.40","41.34","42.40","41.14","980.42K","3.59%"
"Jul 25, 2018","43.77","42.54","43.81","42.18","1.45M","3.23%"
"Jul 26, 2018","41.96","43.83","43.92","41.94","1.05M","-4.12%"
"Jul 27, 2018","42.01","42.45","42.54","41.27","1.18M","0.11%"
"Jul 30, 2018","42.06","42.09","42.66","41.62","766.06K","0.11%"
"Jul 31, 2018","40.78","42.07","42.07","40.62","1.09M","-3.03%"
"Aug 01, 2018","40.87","40.63","41.21","40.50","635.44K","0.23%"
"Aug 02, 2018","40.53","40.87","41.14","40.37","808.25K","-0.84%"
"Aug 03, 2018","41.99","40.53","42.36","40.47","858.20K","3.60%"
"Aug 06, 2018","41.35","41.99","42.98","41.18","1.07M","-1.52%"
"Aug 07, 2018","41.80","41.38","43.35","41.38","1.33M","1.07%"
"Aug 08, 2018","40.69","41.61","41.61","39.68","1.68M","-2.65%"
"Aug 09, 2018","39.58","40.31","40.54","38.97","1.59M","-2.73%"
"Aug 10, 2018","40.49","39.95","41.61","39.74","2.99M","2.31%"
"Aug 13, 2018","40.69","40.47","41.13","39.89","883.92K","0.48%"
"Aug 14, 2018","41.98","41.61","42.71","41.29","1.01M","3.18%"
"Aug 15, 2018","42.20","41.61","42.21","41.05","1.11M","0.53%"
"Aug 16, 2018","41.16","42.19","42.26","40.92","722.70K","-2.48%"
"Aug 17, 2018","40.88","40.50","41.12","39.51","828.02K","-0.67%"
"Aug 20, 2018","40.84","40.61","40.84","39.49","716.96K","-0.09%"
"Aug 21, 2018","38.64","40.59","40.71","38.64","1.47M","-5.39%"
"Aug 22, 2018","39.11","38.68","39.20","38.14","1.03M","1.20%"
"Aug 23, 2018","37.38","39.16","40.05","37.15","1.40M","-4.42%"
"Aug 24, 2018","39.00","37.77","39.00","37.77","1.03M","4.35%"
"Aug 27, 2018","40.27","38.98","40.79","38.73","845.24K","3.25%"
"Aug 28, 2018","39.04","40.17","40.19","38.84","643.41K","-3.05%"
"Aug 29, 2018","40.18","38.84","40.31","38.68","1.74M","2.91%"
"Aug 30, 2018","38.45","39.68","39.84","37.91","1.79M","-4.30%"
"Aug 31, 2018","39.35","38.38","39.61","38.20","1.09M","2.33%"
"Sep 03, 2018","38.19","38.86","39.16","37.95","740.23K","-2.94%"
"Sep 04, 2018","36.35","38.05","38.19","35.90","1.10M","-4.82%"
"Sep 05, 2018","36.99","36.40","37.40","36.12","1.01M","1.76%"
"Sep 06, 2018","37.97","37.62","38.04","37.00","1.16M","2.65%"
"Sep 10, 2018","37.12","38.66","38.83","37.07","559.24K","-2.24%"
"Sep 11, 2018","35.75","36.88","36.88","35.56","831.42K","-3.69%"
"Sep 12, 2018","36.81","36.34","36.99","35.31","1.16M","2.97%"
"Sep 13, 2018","36.80","36.99","37.71","36.15","1.25M","-0.03%"
"Sep 14, 2018","36.79","36.62","37.30","36.34","1.02M","-0.03%"
"Sep 17, 2018","38.74","36.94","38.74","36.70","1.02M","5.28%"
"Sep 18, 2018","39.21","38.47","39.91","38.14","2.38M","1.22%"
"Sep 19, 2018","38.29","38.85","39.04","37.89","1.44M","-2.33%"
"Sep 20, 2018","38.10","38.39","38.87","37.54","492.28K","-0.51%"
"Sep 21, 2018","39.88","38.61","39.88","38.23","920.06K","4.68%"
"Sep 24, 2018","39.10","39.78","39.81","38.67","1.25M","-1.97%"
"Sep 25, 2018","38.08","38.36","38.73","38.01","1.33M","-2.60%"
"Sep 26, 2018","37.88","38.38","38.54","37.51","1.50M","-0.53%"
"Sep 27, 2018","39.88","38.38","40.09","37.92","1.01M","5.30%"
"Sep 28, 2018","40.05","39.66","40.17","39.24","936.00K","0.42%"
"Oct 01, 2018","39.61","40.06","40.40","38.61","846.62K","-1.09%"
"Oct 02, 2018","42.44","40.46","42.44","40.46","1.42M","7.14%"
"Oct 03, 2018","43.46","45.28","45.28","42.94","2.09M","2.40%"
"Oct 04, 2018","42.35","43.45","43.45","41.94","1.65M","-2.55%"
"Oct 05, 2018","44.39","42.78","44.57","42.78","1.68M","4.80%"
"Oct 08, 2018","47.18","47.90","49.06","46.11","3.60M","6.29%"
"Oct 09, 2018","48.41","46.83","48.82","46.61","2.00M","2.61%"
"Oct 10, 2018","47.01","48.09","48.09","46.71","2.03M","-2.88%"
"Oct 11, 2018","46.24","47.95","48.12","46.24","946.52K","-1.65%"
"Oct 15, 2018","46.02","46.78","46.86","45.45","983.72K","-0.46%"
"Oct 16, 2018","49.30","47.02","49.30","46.75","1.49M","7.11%"
"Oct 17, 2018","49.56","49.46","49.78","48.54","2.36M","0.54%"
"Oct 18, 2018","48.59","49.39","49.39","47.93","810.91K","-1.96%"
"Oct 19, 2018","49.24","49.04","49.45","48.28","975.75K","1.33%"
"Oct 22, 2018","50.86","49.39","50.86","49.24","2.04M","3.29%"
"Oct 23, 2018","49.93","50.13","50.78","49.61","2.14M","-1.82%"
"Oct 24, 2018","48.83","50.30","50.48","48.36","677.95K","-2.20%"
"Oct 25, 2018","51.54","48.92","51.55","48.92","757.56K","5.55%"
"Oct 26, 2018","53.17","51.33","53.86","50.90","1.79M","3.16%"
"Oct 29, 2018","51.68","54.56","55.95","50.91","2.14M","-2.80%"
"Oct 30, 2018","53.40","52.64","53.74","51.54","1.56M","3.33%"
"Oct 31, 2018","52.34","53.54","54.56","51.71","1.59M","-1.99%"
"Nov 01, 2018","52.63","53.13","53.40","52.25","1.55M","0.55%"
"Nov 05, 2018","53.45","52.74","53.86","52.36","1.22M","1.56%"
"Nov 06, 2018","52.57","52.66","54.20","52.25","1.14M","-1.64%"
"Nov 07, 2018","52.25","52.89","53.19","51.62","665.41K","-0.62%"
"Nov 08, 2018","52.52","52.26","52.83","51.06","768.18K","0.53%"
"Nov 09, 2018","51.28","52.68","52.68","50.16","1.32M","-2.36%"
"Nov 12, 2018","51.97","51.40","52.18","50.75","834.61K","1.33%"
"Nov 13, 2018","52.15","51.97","52.71","51.47","1.55M","0.36%"
"Nov 14, 2018","51.83","52.20","52.20","50.91","933.02K","-0.62%"
"Nov 16, 2018","53.64","52.20","54.10","51.95","1.18M","3.50%"
"Nov 19, 2018","52.92","53.64","53.64","52.10","850.87K","-1.34%"
"Nov 21, 2018","52.63","52.91","53.69","51.89","881.05K","-0.56%"
"Nov 22, 2018","53.41","52.63","53.63","52.41","551.38K","1.49%"
"Nov 23, 2018","53.77","53.37","54.09","53.32","521.72K","0.68%"
"Nov 26, 2018","52.93","53.74","54.56","52.44","955.02K","-1.56%"
"Nov 27, 2018","54.97","53.62","55.38","52.59","1.63M","3.86%"
"Nov 28, 2018","56.88","54.96","56.88","54.17","1.06M","3.47%"
"Nov 29, 2018","56.06","56.38","57.05","55.25","874.25K","-1.45%"
"Nov 30, 2018","57.19","56.09","57.46","55.83","1.64M","2.03%"
"Dec 03, 2018","56.49","57.52","58.95","56.48","1.76M","-1.23%"
"Dec 04, 2018","54.42","56.50","56.91","53.64","1.40M","-3.67%"
"Dec 05, 2018","54.93","54.59","55.21","54.24","706.01K","0.93%"
"Dec 06, 2018","55.08","54.19","55.38","53.40","870.32K","0.27%"
"Dec 07, 2018","54.10","54.59","56.00","54.10","775.20K","-1.78%"
"Dec 10, 2018","53.20","53.92","54.54","52.91","655.95K","-1.66%"
"Dec 11, 2018","54.51","54.13","55.25","53.35","2.22M","2.46%"
"Dec 12, 2018","56.14","54.63","56.26","54.63","865.85K","2.99%"
"Dec 13, 2018","57.42","56.17","59.15","55.94","1.59M","2.29%"
"Dec 14, 2018","56.49","57.22","57.59","56.09","1.21M","-1.62%"
"Dec 17, 2018","55.75","56.60","57.60","55.48","901.03K","-1.32%"
"Dec 18, 2018","56.82","56.31","57.52","56.19","816.86K","1.92%"
"Dec 19, 2018","55.42","57.04","57.83","55.27","875.63K","-2.46%"
"Dec 20, 2018","56.87","56.06","57.30","55.64","1.10M","2.61%"
"Dec 21, 2018","57.49","56.86","58.22","56.17","698.25K","1.10%"
"Dec 26, 2018","57.51","56.73","57.58","56.26","707.82K","0.03%"
"Dec 27, 2018","56.33","57.12","57.56","55.53","1.32M","-2.04%"
"Dec 28, 2018","56.99","56.78","57.28","55.87","1.97M","1.16%"
"Jan 02, 2019","56.91","57.00","57.50","56.58","3.73M","-0.13%"
"Jan 03, 2019","56.55","56.19","57.42","55.98","3.12M","-0.64%"
"Jan 04, 2019","55.84","56.31","56.77","55.09","1.54M","-1.25%"
"Jan 07, 2019","56.54","56.39","57.69","56.04","2.53M","1.25%"
"Jan 08, 2019","54.69","56.69","56.87","54.69","1.04M","-3.28%"
"Jan 09, 2019","55.02","54.80","55.70","54.02","2.32M","0.61%"
"Jan 10, 2019","55.89","55.02","55.90","55.00","1.81M","1.57%"
"Jan 11, 2019","54.96","55.98","56.00","54.48","1.10M","-1.67%"
"Jan 14, 2019","54.97","55.14","55.42","54.66","849.38K","0.02%"
"Jan 15, 2019","55.38","55.10","55.88","54.86","1.42M","0.76%"
"Jan 16, 2019","55.42","55.37","55.75","54.87","805.49K","0.07%"
"Jan 17, 2019","55.79","55.23","56.07","54.97","712.07K","0.67%"
"Jan 18, 2019","55.90","55.84","56.77","55.45","782.11K","0.18%"
"Jan 21, 2019","55.45","56.35","56.35","54.69","588.89K","-0.80%"
"Jan 22, 2019","55.51","55.45","56.58","54.96","887.75K","0.12%"
"Jan 23, 2019","57.45","56.07","57.45","55.10","1.20M","3.49%"
"Jan 24, 2019","57.74","57.47","58.11","57.04","994.56K","0.50%"
"Jan 28, 2019","57.94","57.66","58.50","57.01","905.28K","0.34%"
"Jan 29, 2019","58.41","58.41","59.04","58.05","1.14M","0.82%"
"Jan 30, 2019","60.26","58.41","60.77","58.22","1.41M","3.16%"
"Jan 31, 2019","59.61","60.54","60.85","59.02","2.21M","-1.07%"
"Feb 01, 2019","60.36","59.63","60.67","59.45","1.30M","1.25%"
"Feb 04, 2019","59.47","60.56","60.61","59.20","892.32K","-1.47%"
"Feb 05, 2019","58.54","59.15","59.46","57.48","1.17M","-1.57%"
"Feb 06, 2019","55.89","58.17","58.27","55.89","1.44M","-4.53%"
"Feb 07, 2019","56.57","56.49","57.80","56.07","1.19M","1.22%"
"Feb 08, 2019","56.82","56.54","57.29","55.79","1.11M","0.44%"
"Feb 11, 2019","56.97","56.90","57.21","55.79","1.24M","0.26%"
"Feb 12, 2019","58.91","57.54","58.91","56.71","1.46M","3.40%"
"Feb 13, 2019","58.09","58.98","59.53","57.63","1.17M","-1.38%"
"Feb 14, 2019","58.68","58.10","59.02","56.73","1.11M","1.01%"
"Feb 15, 2019","58.33","58.21","58.65","57.64","604.09K","-0.60%"
"Feb 18, 2019","57.69","58.22","58.56","57.21","597.93K","-1.09%"
"Feb 19, 2019","57.65","57.70","58.22","57.04","1.35M","-0.08%"
"Feb 20, 2019","57.06","57.63","58.09","55.99","1.53M","-1.02%"
"Feb 21, 2019","57.65","57.40","57.82","55.89","977.02K","1.03%"
"Feb 22, 2019","56.63","58.03","58.21","56.17","1.80M","-1.76%"
"Feb 25, 2019","56.26","56.83","57.83","56.06","1.52M","-0.66%"
"Feb 26, 2019","55.86","56.31","56.31","55.35","1.52M","-0.71%"
"Feb 27, 2019","55.20","55.79","55.79","54.86","823.45K","-1.18%"
"Feb 28, 2019","54.40","55.05","55.29","53.65","1.78M","-1.45%"
"Mar 01, 2019","53.93","54.40","54.93","52.97","3.30M","-0.86%"
"Mar 06, 2019","52.79","53.92","54.02","52.07","1.01M","-2.12%"
"Mar 07, 2019","52.72","53.08","53.27","52.45","1.14M","-0.12%"
"Mar 08, 2019","53.12","52.66","53.30","52.24","2.64M","0.76%"
"Mar 11, 2019","54.30","53.18","54.41","53.14","1.19M","2.23%"
"Mar 12, 2019","53.61","54.02","54.07","52.66","2.68M","-1.29%"
"Mar 13, 2019","52.16","53.52","53.56","51.25","3.44M","-2.69%"
"Mar 14, 2019","51.93","52.33","52.94","51.30","1.81M","-0.45%"
"Mar 15, 2019","50.51","51.94","52.39","50.51","3.03M","-2.73%"
"Mar 18, 2019","52.76","51.02","52.93","50.63","1.43M","4.44%"
"Mar 19, 2019","54.07","52.93","54.62","52.59","2.09M","2.49%"
"Mar 20, 2019","53.78","54.01","54.89","53.20","1.60M","-0.53%"
"Mar 21, 2019","53.22","54.26","54.27","51.75","1.62M","-1.04%"
"Mar 22, 2019","50.68","52.07","52.07","50.48","2.35M","-4.78%"
"Mar 25, 2019","50.33","50.67","51.69","50.32","1.62M","-0.70%"
"Mar 26, 2019","51.08","50.61","51.74","50.21","1.43M","1.50%"
"Mar 27, 2019","49.07","50.34","50.59","48.56","1.43M","-3.94%"
"Mar 28, 2019","50.76","48.78","51.51","47.62","2.61M","3.45%"
"Mar 29, 2019","51.00","51.22","51.33","50.35","2.35M","0.46%"
"Apr 01, 2019","50.60","51.46","51.54","50.54","691.56K","-0.79%"
"Apr 02, 2019","50.35","50.95","51.14","49.88","690.71K","-0.50%"
"Apr 03, 2019","49.18","50.54","50.92","48.51","1.29M","-2.31%"
"Apr 04, 2019","48.99","49.37","49.86","48.16","1.67M","-0.38%"
"Apr 05, 2019","49.48","48.99","50.06","48.25","1.35M","0.99%"
"Apr 08, 2019","48.16","49.20","49.20","47.51","1.89M","-2.67%"
"Apr 09, 2019","47.13","47.73","48.41","47.13","2.17M","-2.13%"
"Apr 10, 2019","48.25","47.36","48.70","47.08","1.79M","2.37%"
"Apr 11, 2019","48.48","48.25","48.84","47.88","983.29K","0.48%"
"Apr 12, 2019","47.50","47.80","48.82","47.13","740.34K","-2.02%"
"Apr 15, 2019","47.41","47.90","48.19","46.85","1.13M","-0.20%"
"Apr 16, 2019","46.50","47.27","47.86","46.50","2.05M","-1.93%"
"Apr 17, 2019","46.01","46.64","47.09","45.46","1.99M","-1.04%"
"Apr 18, 2019","48.73","46.21","49.23","46.21","4.03M","5.91%"
"Apr 22, 2019","50.02","49.18","50.24","48.82","1.79M","2.64%"
"Apr 23, 2019","50.89","50.29","51.04","49.50","2.29M","1.75%"
"Apr 24, 2019","49.79","51.10","51.10","49.41","1.25M","-2.18%"
"Apr 25, 2019","51.23","49.79","51.57","49.51","1.15M","2.90%"
"Apr 26, 2019","51.89","51.32","52.29","51.04","1.06M","1.29%"
"Apr 29, 2019","52.39","52.26","52.53","51.98","504.29K","0.95%"
"Apr 30, 2019","52.90","52.16","53.03","52.16","821.00K","0.98%"
"May 02, 2019","53.44","52.84","53.47","52.29","641.82K","1.03%"
"May 03, 2019","52.98","53.49","53.80","52.80","954.07K","-0.87%"
"May 06, 2019","52.40","52.80","52.80","51.97","445.84K","-1.09%"
"May 07, 2019","52.74","52.19","52.74","51.28","2.15M","0.66%"
"May 08, 2019","54.65","52.88","55.12","52.88","2.64M","3.62%"
"May 09, 2019","54.65","54.07","55.15","53.92","1.25M","0.00%"
"May 10, 2019","49.97","54.37","54.38","49.97","2.86M","-8.58%"
"May 13, 2019","46.13","48.92","49.23","45.85","4.16M","-7.68%"
"May 14, 2019","47.68","46.66","48.56","46.57","3.30M","3.37%"
"May 15, 2019","46.59","47.20","47.20","45.88","1.21M","-2.29%"
"May 16, 2019","44.64","46.73","46.73","44.26","2.70M","-4.20%"
"May 17, 2019","43.27","44.64","44.71","40.97","4.29M","-3.07%"
"May 20, 2019","44.08","43.80","44.42","42.59","1.35M","1.87%"
"May 21, 2019","46.87","44.26","47.29","44.26","2.91M","6.34%"
"May 22, 2019","46.22","47.53","47.83","45.89","1.04M","-1.39%"
"May 23, 2019","44.73","46.07","46.83","44.73","1.19M","-3.23%"
"May 24, 2019","44.08","45.20","46.02","43.95","684.65K","-1.46%"
"May 27, 2019","44.45","44.51","45.23","44.17","681.89K","0.85%"
"May 28, 2019","45.48","44.73","45.85","44.73","1.27M","2.31%"
"May 29, 2019","45.52","45.48","47.27","45.48","1.30M","0.10%"
"May 30, 2019","48.02","45.53","48.02","44.99","1.75M","5.49%"
"May 31, 2019","48.10","47.53","48.10","46.83","1.32M","0.17%"
"Jun 03, 2019","47.71","48.18","48.70","47.34","1.03M","-0.81%"
"Jun 04, 2019","46.80","48.42","48.42","46.13","1.19M","-1.91%"
"Jun 05, 2019","45.46","46.69","47.50","45.46","750.33K","-2.87%"
"Jun 06, 2019","45.66","46.13","46.59","45.08","1.26M","0.45%"
"Jun 07, 2019","45.90","45.81","46.85","45.57","792.52K","0.51%"
"Jun 10, 2019","45.30","45.66","46.27","45.10","797.20K","-1.30%"
"Jun 11, 2019","45.76","46.00","46.99","44.36","2.56M","1.01%"
"Jun 12, 2019","45.35","45.88","46.44","44.80","987.76K","-0.88%"
"Jun 13, 2019","46.58","45.57","47.00","45.26","1.76M","2.71%"
"Jun 14, 2019","47.11","46.61","47.99","46.42","1.14M","1.12%"
"Jun 17, 2019","47.57","46.72","48.22","46.64","1.06M","0.99%"
"Jun 18, 2019","47.33","47.63","48.54","46.81","1.34M","-0.51%"
"Jun 19, 2019","48.41","47.84","48.46","46.77","1.23M","2.28%"
"Jun 21, 2019","49.64","48.92","50.23","48.28","1.52M","2.54%"
"Jun 24, 2019","49.89","50.02","50.02","49.26","655.10K","0.51%"
"Jun 25, 2019","48.00","49.30","49.86","47.90","1.26M","-3.79%"
"Jun 26, 2019","47.29","48.63","48.63","47.12","980.21K","-1.48%"
"Jun 27, 2019","46.83","47.06","47.62","46.58","1.62M","-0.99%"
"Jun 28, 2019","46.41","47.38","48.36","46.32","2.89M","-0.90%"
"Jul 01, 2019","45.77","47.01","47.34","44.96","1.52M","-1.37%"
"Jul 02, 2019","45.57","46.13","46.37","44.84","1.75M","-0.45%"
"Jul 03, 2019","45.42","45.35","46.06","45.15","2.14M","-0.33%"
"Jul 04, 2019","44.92","45.90","46.09","44.53","2.99M","-1.11%"
"Jul 05, 2019","45.35","45.28","46.04","44.92","4.46M","0.98%"
"Jul 08, 2019","45.74","45.94","46.12","45.48","1.60M","0.84%"
"Jul 10, 2019","48.74","46.21","49.35","46.13","5.80M","6.56%"
"Jul 11, 2019","49.53","49.25","49.95","48.60","4.28M","1.63%"
"Jul 12, 2019","49.36","49.90","50.77","49.02","2.16M","-0.34%"
"Jul 15, 2019","47.59","49.39","49.61","47.59","1.68M","-3.59%"
"Jul 16, 2019","47.00","47.89","47.94","46.71","2.76M","-1.23%"
"Jul 17, 2019","46.84","47.01","47.68","46.62","3.10M","-0.36%"
"Jul 18, 2019","45.66","47.40","47.43","45.63","2.46M","-2.51%"
"Jul 19, 2019","45.14","45.87","46.29","44.68","1.72M","-1.14%"
"Jul 22, 2019","43.95","45.57","45.76","43.80","1.84M","-2.64%"
"Jul 23, 2019","43.23","44.08","44.54","42.99","3.14M","-1.63%"
"Jul 24, 2019","43.79","43.23","43.99","43.16","2.03M","1.29%"
"Jul 25, 2019","43.80","44.03","44.32","43.19","2.08M","0.02%"
"Jul 26, 2019","44.71","44.07","45.20","43.43","2.66M","2.09%"
"Jul 29, 2019","44.36","44.83","44.92","44.12","1.40M","-0.79%"
"Jul 30, 2019","46.64","44.06","47.13","43.90","2.91M","5.15%"
"Jul 31, 2019","47.40","46.51","47.93","46.20","3.02M","1.64%"
"Aug 01, 2019","48.27","47.53","48.82","47.41","2.63M","1.83%"
"Aug 02, 2019","49.21","48.64","49.76","48.64","3.66M","1.95%"
"Aug 05, 2019","48.33","48.72","48.83","47.75","2.19M","-1.80%"
"Aug 06, 2019","48.78","48.55","49.05","47.84","3.70M","0.94%"
"Aug 07, 2019","47.54","48.29","48.45","46.70","1.90M","-2.56%"
"Aug 08, 2019","48.27","47.78","48.56","47.27","1.15M","1.55%"
"Aug 09, 2019","52.74","51.30","53.56","51.19","7.33M","9.27%"
"Aug 12, 2019","51.15","51.53","51.53","49.91","2.10M","-3.02%"
"Aug 13, 2019","50.99","51.16","52.36","50.18","1.52M","-0.31%"
"Aug 14, 2019","50.65","50.55","51.70","49.88","2.16M","-0.68%"
"Aug 15, 2019","49.35","50.40","50.99","47.71","1.83M","-2.56%"
"Aug 16, 2019","49.53","49.59","49.86","48.00","1.54M","0.36%"
"Aug 19, 2019","50.05","49.82","51.21","49.24","1.12M","1.05%"
"Aug 20, 2019","50.32","50.04","50.37","48.48","871.81K","0.54%"
"Aug 21, 2019","52.08","50.59","52.08","50.39","1.36M","3.50%"
"Aug 22, 2019","51.72","52.04","52.04","50.65","1.09M","-0.70%"
"Aug 23, 2019","49.01","51.20","51.20","48.49","1.75M","-5.24%"
"Aug 26, 2019","48.91","49.04","49.78","47.81","1.18M","-0.19%"
"Aug 27, 2019","48.27","49.90","49.90","46.85","1.96M","-1.31%"
"Aug 28, 2019","48.07","47.79","48.40","47.06","1.39M","-0.42%"
"Aug 29, 2019","49.53","48.13","49.90","47.89","1.04M","3.04%"
"Aug 30, 2019","49.46","49.83","50.37","48.72","1.49M","-0.15%"
"Sep 02, 2019","50.04","49.31","50.88","49.07","860.33K","1.19%"
"Sep 03, 2019","49.61","50.16","51.79","48.95","1.16M","-0.86%"
"Sep 04, 2019","48.64","50.12","50.84","48.58","1.08M","-1.95%"
"Sep 05, 2019","48.27","49.31","49.58","48.23","1.67M","-0.77%"
"Sep 06, 2019","47.37","48.63","49.03","47.35","1.59M","-1.87%"
"Sep 09, 2019","48.18","47.54","48.18","46.65","1.24M","1.71%"
"Sep 10, 2019","47.39","48.22","48.46","46.84","804.00K","-1.64%"
"Sep 11, 2019","48.92","47.79","48.92","47.55","1.06M","3.24%"
"Sep 12, 2019","48.42","49.02","49.32","47.91","1.35M","-1.03%"
"Sep 13, 2019","47.81","48.51","48.59","47.41","2.30M","-1.27%"
"Sep 16, 2019","47.25","48.05","48.29","46.79","2.84M","-1.17%"
"Sep 17, 2019","47.62","47.39","48.12","46.33","2.55M","0.79%"
"Sep 18, 2019","49.25","47.68","49.29","47.41","1.80M","3.42%"
"Sep 19, 2019","50.28","49.39","50.69","49.33","2.20M","2.08%"
"Sep 20, 2019","49.59","50.32","50.32","48.64","3.02M","-1.35%"
"Sep 23, 2019","47.76","49.39","49.44","47.45","2.35M","-3.70%"
"Sep 24, 2019","47.59","48.18","48.78","47.55","1.72M","-0.35%"
"Sep 25, 2019","47.43","47.66","47.95","46.83","1.32M","-0.33%"
"Sep 26, 2019","48.66","47.34","48.85","47.34","1.20M","2.59%"
"Sep 27, 2019","51.01","48.67","51.37","48.63","3.45M","4.83%"
"Sep 30, 2019","52.05","50.97","52.36","50.27","2.12M","2.03%"
"Oct 01, 2019","52.37","52.06","52.71","51.48","2.55M","0.63%"
"Oct 02, 2019","51.23","51.99","51.99","50.23","2.17M","-2.17%"
"Oct 03, 2019","51.17","50.98","51.69","49.74","1.02M","-0.13%"
"Oct 04, 2019","51.89","51.16","51.89","50.54","650.96K","1.40%"
"Oct 07, 2019","50.82","51.31","52.07","50.58","1.02M","-2.07%"
"Oct 08, 2019","50.18","50.55","51.15","49.75","1.36M","-1.25%"
"Oct 09, 2019","50.14","50.74","50.74","48.92","1.54M","-0.09%"
"Oct 10, 2019","49.05","49.76","50.09","48.56","1.65M","-2.17%"
"Oct 11, 2019","49.53","49.54","50.40","49.16","1.37M","0.99%"
"Oct 14, 2019","50.11","49.84","50.68","49.24","716.53K","1.17%"
"Oct 15, 2019","50.00","50.10","51.01","49.21","1.21M","-0.22%"
"Oct 16, 2019","49.39","49.91","50.15","48.71","1.44M","-1.21%"
"Oct 17, 2019","48.88","49.66","50.01","48.62","956.83K","-1.04%"
"Oct 18, 2019","48.23","48.75","49.81","47.81","1.61M","-1.32%"
"Oct 21, 2019","47.90","48.62","49.28","47.75","1.17M","-0.70%"
"Oct 22, 2019","49.02","48.00","49.37","47.78","1.82M","2.33%"
"Oct 23, 2019","49.40","49.03","49.84","48.63","2.03M","0.78%"
"Oct 24, 2019","49.44","49.39","50.01","49.18","1.32M","0.08%"
"Oct 25, 2019","49.69","49.50","50.34","49.31","1.38M","0.51%"
"Oct 28, 2019","49.06","49.53","50.29","49.06","1.28M","-1.26%"
"Oct 29, 2019","48.46","49.26","49.79","48.32","1.26M","-1.23%"
"Oct 30, 2019","47.99","48.47","49.08","47.99","1.45M","-0.96%"
"Oct 31, 2019","47.74","47.99","48.36","47.15","2.31M","-0.52%"
"Nov 01, 2019","49.44","48.41","49.46","47.95","2.33M","3.55%"
"Nov 04, 2019","48.82","49.65","50.32","48.59","1.02M","-1.24%"
"Nov 05, 2019","48.55","48.64","48.88","47.92","1.16M","-0.55%"
"Nov 06, 2019","48.17","48.47","48.77","47.62","1.23M","-0.79%"
"Nov 07, 2019","48.29","48.17","48.46","47.57","1.15M","0.25%"
"Nov 08, 2019","41.46","45.00","45.36","41.00","17.70M","-14.15%"
"Nov 11, 2019","40.72","41.52","42.40","40.63","5.40M","-1.78%"
"Nov 12, 2019","38.02","41.01","41.01","37.90","7.48M","-6.64%"
"Nov 13, 2019","37.93","37.93","38.81","37.41","4.68M","-0.25%"
"Nov 14, 2019","37.89","38.47","38.65","37.20","4.11M","-0.10%"
"Nov 18, 2019","36.51","38.58","38.69","36.36","4.07M","-3.64%"
"Nov 19, 2019","36.34","36.70","37.42","35.92","3.47M","-0.46%"
"Nov 21, 2019","38.44","36.70","38.66","36.40","7.16M","5.77%"
"Nov 22, 2019","39.05","38.67","39.72","38.15","5.36M","1.58%"
"Nov 25, 2019","39.20","39.80","40.96","39.03","6.25M","0.38%"
"Nov 26, 2019","38.76","38.95","39.23","38.36","2.50M","-1.12%"
"Nov 27, 2019","38.06","39.13","39.13","37.89","3.01M","-1.80%"
"Nov 28, 2019","37.65","38.06","38.49","37.62","1.66M","-1.08%"
"Nov 29, 2019","37.41","37.79","38.26","37.41","1.98M","-0.64%"
"Dec 02, 2019","38.08","37.63","38.61","37.57","3.00M","1.79%"
"Dec 03, 2019","37.70","38.27","38.45","37.66","1.35M","-0.98%"
"Dec 04, 2019","38.26","37.90","38.51","37.72","1.79M","1.48%"
"Dec 05, 2019","37.93","38.49","38.75","37.83","1.57M","-0.88%"
"Dec 06, 2019","38.58","38.11","38.63","37.95","1.38M","1.72%"
"Dec 09, 2019","38.39","38.58","38.92","38.39","1.64M","-0.48%"
"Dec 10, 2019","38.78","38.40","38.90","38.26","2.16M","1.02%"
"Dec 11, 2019","38.96","38.95","39.22","38.59","2.27M","0.46%"
"Dec 12, 2019","40.47","39.14","40.47","39.00","3.90M","3.87%"
"Dec 13, 2019","40.66","40.55","41.17","39.67","4.31M","0.46%"
"Dec 16, 2019","40.43","40.65","40.71","40.00","2.33M","-0.57%"
"Dec 17, 2019","39.75","40.63","40.66","39.16","2.09M","-1.66%"
"Dec 18, 2019","40.14","40.07","40.14","39.31","1.98M","0.96%"
"Dec 19, 2019","41.55","40.15","41.80","40.05","2.84M","3.53%"
"Dec 20, 2019","40.62","41.55","41.61","40.59","3.07M","-2.24%"
"Dec 23, 2019","40.50","40.80","40.83","40.13","1.71M","-0.30%"
"Dec 26, 2019","40.96","41.01","41.11","40.70","1.99M","1.13%"
"Dec 27, 2019","41.55","41.05","41.55","40.64","1.85M","1.45%"
"Dec 30, 2019","41.21","41.74","42.25","41.04","2.17M","-0.82%"