﻿"Date","Price","Open","High","Low","Vol.","Change %"
"Nov 13, 2017","19.63","19.92","19.92","19.17","2.41M","-2.05%"
"Nov 14, 2017","19.20","19.75","19.75","18.52","3.74M","-2.19%"
"Nov 16, 2017","19.49","19.14","19.67","19.08","2.81M","1.51%"
"Nov 17, 2017","19.87","19.67","19.93","19.45","1.77M","1.95%"
"Nov 21, 2017","20.07","19.86","20.40","19.66","2.76M","1.01%"
"Nov 22, 2017","19.29","20.04","20.07","19.26","3.06M","-3.89%"
"Nov 23, 2017","19.02","19.35","19.44","19.00","3.54M","-1.40%"
"Nov 24, 2017","18.86","18.92","19.11","18.59","2.03M","-0.84%"
"Nov 27, 2017","18.64","18.70","18.85","18.43","1.61M","-1.17%"
"Nov 28, 2017","18.06","18.84","18.95","18.05","3.95M","-3.11%"
"Nov 29, 2017","17.69","18.04","18.28","17.31","7.71M","-2.05%"
"Nov 30, 2017","17.24","17.82","17.82","16.83","8.62M","-2.54%"
"Dec 01, 2017","17.46","17.03","17.47","16.76","4.30M","1.28%"
"Dec 04, 2017","17.22","17.51","17.64","16.94","3.47M","-1.37%"
"Dec 05, 2017","17.54","17.37","17.78","17.17","3.83M","1.86%"
"Dec 06, 2017","18.60","17.57","18.74","17.57","5.21M","6.04%"
"Dec 07, 2017","18.42","18.56","18.98","18.13","3.48M","-0.97%"
"Dec 08, 2017","18.49","18.51","18.51","17.94","2.28M","0.38%"
"Dec 11, 2017","18.19","18.49","18.49","18.04","2.21M","-1.62%"
"Dec 12, 2017","18.16","18.19","18.27","17.64","3.60M","-0.16%"
"Dec 13, 2017","17.82","18.16","18.38","17.71","3.99M","-1.87%"
"Dec 14, 2017","17.90","17.81","18.13","17.73","3.04M","0.45%"
"Dec 15, 2017","17.99","17.87","18.22","17.71","3.21M","0.50%"
"Dec 18, 2017","18.04","17.91","18.04","17.79","1.42M","0.28%"
"Dec 19, 2017","17.70","18.06","18.06","17.54","2.45M","-1.88%"
"Dec 20, 2017","18.21","17.91","18.26","17.72","1.73M","2.88%"
"Dec 21, 2017","18.67","18.26","18.67","18.01","1.42M","2.53%"
"Dec 22, 2017","18.35","18.68","18.68","18.13","1.68M","-1.71%"
"Dec 26, 2017","18.19","18.35","18.35","18.04","889.70K","-0.87%"
"Dec 27, 2017","18.23","18.23","18.23","17.87","2.12M","0.22%"
"Dec 28, 2017","18.40","18.13","18.40","18.01","2.25M","0.93%"
"Jan 02, 2018","18.50","18.33","18.81","18.19","2.12M","0.54%"
"Jan 03, 2018","18.36","18.41","18.71","18.19","2.65M","-0.76%"
"Jan 04, 2018","18.41","18.43","18.57","18.12","3.25M","0.27%"
"Jan 05, 2018","18.36","18.30","18.60","18.26","3.06M","-0.27%"
"Jan 08, 2018","18.80","18.51","19.13","18.48","4.20M","2.40%"
"Jan 09, 2018","19.00","19.14","19.20","18.80","4.16M","1.06%"
"Jan 10, 2018","19.11","19.04","19.27","18.95","2.13M","0.58%"
"Jan 11, 2018","19.04","19.20","19.28","18.62","3.31M","-0.37%"
"Jan 12, 2018","18.97","18.85","19.34","18.85","3.29M","-0.37%"
"Jan 15, 2018","19.17","19.10","19.25","19.01","1.40M","1.05%"
"Jan 16, 2018","19.14","19.23","19.43","19.12","2.26M","-0.16%"
"Jan 17, 2018","19.34","19.14","19.35","18.99","2.71M","1.04%"
"Jan 18, 2018","20.67","19.37","20.67","19.36","5.80M","6.88%"
"Jan 19, 2018","20.87","20.67","21.46","20.48","4.87M","0.97%"
"Jan 22, 2018","20.98","21.03","21.19","20.43","3.65M","0.53%"
"Jan 23, 2018","20.76","20.95","21.16","20.55","2.83M","-1.05%"
"Jan 24, 2018","20.56","21.03","21.07","20.04","3.54M","-0.96%"
"Jan 26, 2018","20.27","20.19","20.41","19.99","3.58M","-1.41%"
"Jan 29, 2018","20.15","20.98","21.32","20.01","7.83M","-0.59%"
"Jan 30, 2018","20.73","20.28","20.84","20.07","2.32M","2.88%"
"Jan 31, 2018","20.34","20.87","20.87","20.31","2.57M","-1.88%"
"Feb 01, 2018","20.70","20.36","20.82","20.36","2.05M","1.77%"
"Feb 02, 2018","20.87","20.77","21.23","20.52","2.87M","0.82%"
"Feb 05, 2018","20.73","21.03","21.30","20.68","3.23M","-0.67%"
"Feb 06, 2018","20.59","20.70","20.70","20.07","3.29M","-0.68%"
"Feb 07, 2018","20.57","20.67","21.12","20.49","3.98M","-0.10%"
"Feb 08, 2018","19.57","20.88","20.91","19.57","5.04M","-4.86%"
"Feb 09, 2018","19.61","19.50","19.79","19.00","6.07M","0.20%"
"Feb 14, 2018","20.00","19.81","20.16","19.68","4.90M","1.99%"
"Feb 15, 2018","19.97","20.12","20.32","19.85","1.84M","-0.15%"
"Feb 16, 2018","21.01","20.38","21.03","20.29","4.74M","5.21%"
"Feb 19, 2018","21.75","21.09","21.79","21.08","3.60M","3.52%"
"Feb 20, 2018","22.46","21.90","23.10","21.88","5.12M","3.26%"
"Feb 21, 2018","22.44","22.04","22.61","21.68","7.24M","-0.09%"
"Feb 22, 2018","21.80","22.44","22.83","21.60","3.98M","-2.85%"
"Feb 23, 2018","21.80","21.90","22.00","21.45","2.86M","0.00%"
"Feb 26, 2018","21.25","21.80","21.94","21.22","3.74M","-2.52%"
"Feb 27, 2018","21.13","21.30","21.45","20.83","3.58M","-0.56%"
"Feb 28, 2018","21.41","21.31","21.41","20.78","7.03M","1.33%"
"Mar 01, 2018","20.93","21.62","21.66","20.92","3.14M","-2.24%"
"Mar 02, 2018","21.46","21.14","21.58","20.98","4.12M","2.53%"
"Mar 05, 2018","21.09","21.59","21.83","21.09","2.27M","-1.72%"
"Mar 06, 2018","21.31","21.26","21.44","21.09","1.90M","1.04%"
"Mar 07, 2018","21.62","21.19","21.62","21.01","2.50M","1.45%"
"Mar 08, 2018","22.41","21.62","22.75","21.62","7.21M","3.65%"
"Mar 09, 2018","22.78","22.69","23.08","21.95","4.29M","1.65%"
"Mar 12, 2018","21.77","22.40","22.77","21.47","8.75M","-4.43%"
"Mar 13, 2018","22.40","21.65","22.46","21.42","4.67M","2.89%"
"Mar 14, 2018","23.63","22.25","23.89","22.16","5.70M","5.49%"
"Mar 15, 2018","23.04","23.77","23.87","22.49","5.96M","-2.50%"
"Mar 16, 2018","28.06","28.68","30.12","25.94","44.40M","21.79%"
"Mar 19, 2018","30.12","28.76","31.65","28.60","24.02M","7.34%"
"Mar 20, 2018","29.98","31.01","31.01","28.79","13.41M","-0.46%"
"Mar 21, 2018","31.27","29.53","31.64","29.46","10.82M","4.30%"
"Mar 22, 2018","31.99","31.50","31.99","30.81","7.45M","2.30%"
"Mar 23, 2018","32.67","31.80","33.67","31.56","9.14M","2.13%"
"Mar 26, 2018","33.68","32.99","33.98","32.95","4.98M","3.09%"
"Mar 27, 2018","32.52","33.98","34.22","32.52","6.51M","-3.44%"
"Mar 28, 2018","32.93","32.49","33.15","31.89","5.31M","1.26%"
"Mar 29, 2018","32.84","32.88","33.28","32.30","5.81M","-0.27%"
"Apr 02, 2018","33.01","32.88","33.46","32.26","4.72M","0.52%"
"Apr 03, 2018","33.86","32.98","34.10","32.94","5.95M","2.57%"
"Apr 04, 2018","35.33","33.97","35.36","33.59","4.56M","4.34%"
"Apr 05, 2018","35.93","35.44","36.51","35.31","8.19M","1.70%"
"Apr 06, 2018","37.40","35.70","37.40","35.48","5.22M","4.09%"
"Apr 09, 2018","36.39","37.46","38.18","36.17","5.50M","-2.70%"
"Apr 10, 2018","36.20","36.92","37.10","35.65","3.77M","-0.52%"
"Apr 11, 2018","35.14","35.88","36.19","34.93","5.67M","-2.93%"
"Apr 12, 2018","35.78","35.29","35.82","34.89","3.60M","1.82%"
"Apr 13, 2018","35.68","35.93","36.10","35.29","2.41M","-0.28%"
"Apr 16, 2018","36.29","35.34","36.45","35.16","3.06M","1.71%"
"Apr 17, 2018","37.30","36.35","37.30","36.34","4.58M","2.78%"
"Apr 18, 2018","36.77","37.36","37.41","36.37","5.09M","-1.42%"
"Apr 19, 2018","36.75","36.82","36.95","36.10","2.99M","-0.05%"
"Apr 20, 2018","37.04","36.82","37.09","36.28","2.57M","0.79%"
"Apr 23, 2018","37.65","37.10","38.05","37.10","3.44M","1.65%"
"Apr 24, 2018","37.11","37.74","38.04","37.11","2.46M","-1.43%"
"Apr 25, 2018","38.59","37.58","38.69","37.11","4.91M","3.99%"
"Apr 26, 2018","39.38","38.75","40.22","37.83","5.31M","2.05%"
"Apr 27, 2018","39.81","40.56","41.74","39.36","4.88M","1.09%"
"Apr 30, 2018","40.62","40.06","40.62","39.37","2.68M","2.03%"
"May 02, 2018","41.99","41.10","42.44","40.62","4.83M","3.37%"
"May 03, 2018","40.38","42.33","42.52","39.73","6.94M","-3.83%"
"May 04, 2018","39.42","40.25","40.76","39.08","4.03M","-2.38%"
"May 07, 2018","39.00","39.40","39.99","38.67","2.62M","-1.07%"
"May 08, 2018","39.55","39.02","40.95","38.82","4.96M","1.41%"
"May 09, 2018","42.39","40.06","42.48","39.81","5.03M","7.18%"
"May 10, 2018","41.56","42.09","42.88","41.17","4.82M","-1.96%"
"May 11, 2018","42.63","41.33","43.37","40.75","3.81M","2.57%"
"May 14, 2018","44.76","42.53","44.79","42.48","4.90M","5.00%"
"May 15, 2018","45.49","46.70","47.32","45.16","6.51M","1.63%"
"May 16, 2018","44.01","45.89","46.39","43.44","4.25M","-3.25%"
"May 17, 2018","43.94","43.66","44.78","42.98","5.25M","-0.16%"
"May 18, 2018","45.69","44.67","46.24","44.67","4.64M","3.98%"
"May 21, 2018","45.22","45.11","46.74","44.31","5.96M","-1.03%"
"May 22, 2018","42.51","44.96","45.80","41.54","7.70M","-5.99%"
"May 23, 2018","42.25","43.33","43.80","41.80","3.71M","-0.61%"
"May 24, 2018","44.79","42.04","45.50","41.25","5.65M","6.01%"
"May 25, 2018","43.84","44.51","44.98","43.52","4.83M","-2.12%"
"May 28, 2018","44.51","44.63","46.01","43.03","3.74M","1.53%"
"May 29, 2018","42.68","43.70","44.41","41.54","8.23M","-4.11%"
"May 30, 2018","42.63","42.93","43.63","41.70","6.85M","-0.12%"
"Jun 01, 2018","44.00","42.93","44.67","42.14","4.71M","3.21%"
"Jun 04, 2018","46.52","43.52","46.59","43.14","5.35M","5.73%"
"Jun 05, 2018","47.78","46.99","47.96","46.60","5.04M","2.71%"
"Jun 06, 2018","51.40","47.74","51.54","47.74","6.27M","7.58%"
"Jun 07, 2018","48.91","53.22","54.12","47.13","11.28M","-4.84%"
"Jun 08, 2018","44.25","46.89","48.27","43.72","10.30M","-9.53%"
"Jun 11, 2018","43.61","44.44","45.93","42.68","5.54M","-1.45%"
"Jun 12, 2018","45.44","43.13","45.95","43.08","4.13M","4.20%"
"Jun 13, 2018","45.51","45.90","47.06","44.91","3.91M","0.15%"
"Jun 14, 2018","47.48","45.50","47.48","44.57","5.12M","4.33%"
"Jun 15, 2018","46.79","47.36","48.72","46.52","8.23M","-1.45%"
"Jun 18, 2018","45.79","46.50","47.26","45.29","3.74M","-2.14%"
"Jun 19, 2018","43.37","45.56","46.13","43.13","8.06M","-5.29%"
"Jun 20, 2018","42.64","42.72","42.97","41.84","6.91M","-1.68%"
"Jun 21, 2018","43.11","42.63","44.38","42.28","4.27M","1.10%"
"Jun 22, 2018","43.40","43.52","43.61","42.43","2.13M","0.67%"
"Jun 25, 2018","43.48","43.16","43.88","42.54","2.27M","0.18%"
"Jun 26, 2018","44.02","43.48","44.02","42.38","2.30M","1.24%"
"Jun 27, 2018","44.51","44.49","44.73","43.27","5.14M","1.11%"
"Jun 28, 2018","43.69","44.07","44.46","43.54","2.75M","-1.84%"
"Jun 29, 2018","44.48","43.72","44.48","43.09","2.64M","1.81%"
"Jul 02, 2018","44.11","44.48","44.66","43.62","1.40M","-0.83%"
"Jul 03, 2018","44.51","44.51","44.99","44.24","2.42M","0.91%"
"Jul 04, 2018","45.21","44.76","45.41","44.65","1.28M","1.57%"
"Jul 05, 2018","46.28","45.49","46.34","45.08","2.36M","2.37%"
"Jul 06, 2018","45.15","46.49","47.63","45.11","2.23M","-2.44%"
"Jul 10, 2018","42.84","45.11","45.11","42.58","4.81M","-5.12%"
"Jul 11, 2018","44.39","43.21","44.81","43.14","3.50M","3.62%"
"Jul 12, 2018","43.68","44.02","44.26","43.50","3.17M","-1.60%"
"Jul 13, 2018","43.76","44.02","44.95","43.76","2.84M","0.18%"
"Jul 16, 2018","43.83","44.12","44.60","43.62","2.75M","0.16%"
"Jul 17, 2018","43.22","44.17","44.38","42.96","3.84M","-1.39%"
"Jul 18, 2018","41.80","43.48","43.69","40.44","11.82M","-3.29%"
"Jul 19, 2018","41.54","42.19","43.06","41.51","5.30M","-0.62%"
"Jul 20, 2018","39.38","39.57","40.56","39.20","7.42M","-5.20%"
"Jul 23, 2018","40.66","39.59","40.89","39.59","4.46M","3.25%"
"Jul 24, 2018","41.17","40.16","41.33","39.77","4.20M","1.25%"
"Jul 25, 2018","42.09","41.35","42.33","39.52","4.51M","2.23%"
"Jul 26, 2018","42.02","42.12","42.64","41.72","3.61M","-0.17%"
"Jul 27, 2018","42.93","41.86","42.93","41.86","2.69M","2.17%"
"Jul 30, 2018","43.71","43.03","43.92","43.03","2.54M","1.82%"
"Jul 31, 2018","44.07","43.92","44.31","43.52","2.60M","0.82%"
"Aug 01, 2018","43.13","44.18","44.58","42.79","3.53M","-2.13%"
"Aug 02, 2018","43.63","43.49","43.99","42.73","2.26M","1.16%"
"Aug 03, 2018","42.38","43.03","43.56","41.65","4.62M","-2.87%"
"Aug 06, 2018","42.63","42.44","42.85","42.40","2.50M","0.59%"
"Aug 07, 2018","41.97","42.53","42.83","41.23","6.18M","-1.55%"
"Aug 08, 2018","43.20","42.14","43.22","42.14","3.27M","2.93%"
"Aug 09, 2018","43.52","42.14","44.02","41.41","4.66M","0.74%"
"Aug 10, 2018","45.18","43.82","45.39","43.81","5.70M","3.81%"
"Aug 13, 2018","46.49","45.60","46.99","44.81","6.47M","2.90%"
"Aug 14, 2018","45.48","45.90","46.68","45.47","4.37M","-2.17%"
"Aug 15, 2018","43.85","46.00","46.17","43.35","6.04M","-3.58%"
"Aug 16, 2018","42.69","43.43","43.70","42.44","4.95M","-2.65%"
"Aug 17, 2018","43.46","43.13","44.75","42.83","3.87M","1.80%"
"Aug 20, 2018","44.71","43.57","45.49","43.13","5.56M","2.88%"
"Aug 21, 2018","46.67","45.20","46.67","44.84","5.65M","4.38%"
"Aug 22, 2018","47.70","46.96","49.04","46.64","6.13M","2.21%"
"Aug 23, 2018","49.75","47.13","49.96","46.85","6.96M","4.30%"
"Aug 24, 2018","50.34","48.94","50.87","48.64","4.67M","1.19%"
"Aug 27, 2018","48.70","50.25","50.25","48.50","3.97M","-3.26%"
"Aug 28, 2018","49.47","48.96","50.25","48.67","3.64M","1.58%"
"Aug 29, 2018","48.04","49.45","49.45","47.88","3.24M","-2.89%"
"Aug 30, 2018","48.02","49.06","49.15","46.66","5.09M","-0.04%"
"Aug 31, 2018","46.80","48.01","48.82","46.49","7.27M","-2.54%"
"Sep 03, 2018","48.51","47.69","48.84","47.63","3.12M","3.65%"
"Sep 04, 2018","49.84","48.89","50.57","48.86","5.50M","2.74%"
"Sep 05, 2018","53.53","54.01","54.40","52.52","8.10M","7.40%"
"Sep 06, 2018","53.83","53.07","54.60","52.25","5.46M","0.56%"
"Sep 10, 2018","52.37","53.41","54.11","51.93","4.14M","-2.71%"
"Sep 11, 2018","51.58","53.52","53.68","51.25","4.50M","-1.51%"
"Sep 12, 2018","51.23","51.34","51.44","49.42","5.90M","-0.68%"
"Sep 13, 2018","51.20","51.13","51.62","50.34","5.26M","-0.06%"
"Sep 14, 2018","51.44","51.92","51.93","50.67","5.19M","0.47%"
"Sep 17, 2018","50.84","51.77","52.01","50.77","4.55M","-1.17%"
"Sep 18, 2018","48.69","50.84","50.93","48.12","6.03M","-4.23%"
"Sep 19, 2018","47.87","48.97","49.89","47.31","5.66M","-1.68%"
"Sep 20, 2018","47.36","47.27","47.96","46.67","4.66M","-1.07%"
"Sep 21, 2018","46.54","47.38","47.38","46.20","4.84M","-1.73%"
"Sep 24, 2018","46.45","46.89","47.40","46.21","3.02M","-0.19%"
"Sep 25, 2018","47.48","47.08","48.15","46.84","5.42M","2.22%"
"Sep 26, 2018","47.44","47.29","47.86","46.68","4.60M","-0.08%"
"Sep 27, 2018","46.89","47.78","48.11","46.63","5.71M","-1.16%"
"Sep 28, 2018","47.56","47.46","47.63","46.99","4.01M","1.43%"
"Oct 01, 2018","47.48","47.75","47.75","46.82","2.03M","-0.17%"
"Oct 02, 2018","45.70","46.37","46.76","45.11","6.08M","-3.75%"
"Oct 03, 2018","43.66","43.52","44.80","42.54","9.96M","-4.46%"
"Oct 04, 2018","41.26","44.50","44.71","41.07","5.53M","-5.50%"
"Oct 05, 2018","41.43","40.83","42.61","40.58","6.42M","0.41%"
"Oct 08, 2018","41.25","39.47","41.25","38.97","12.83M","-0.43%"
"Oct 09, 2018","40.56","41.25","41.27","40.27","7.98M","-1.67%"
"Oct 10, 2018","41.46","41.30","42.60","41.16","6.81M","2.22%"
"Oct 11, 2018","41.09","41.14","42.24","40.85","3.63M","-0.89%"
"Oct 15, 2018","40.56","41.64","41.68","40.52","5.34M","-1.29%"
"Oct 16, 2018","40.31","40.93","41.25","40.08","5.03M","-0.62%"
"Oct 17, 2018","39.77","40.67","40.82","39.58","4.31M","-1.34%"
"Oct 18, 2018","39.90","39.91","40.31","38.90","6.02M","0.33%"
"Oct 19, 2018","39.85","40.01","40.43","39.55","3.61M","-0.13%"
"Oct 22, 2018","40.27","39.98","40.56","39.38","3.61M","1.05%"
"Oct 23, 2018","40.55","40.85","41.29","40.30","4.41M","0.70%"
"Oct 24, 2018","41.54","40.99","41.54","40.67","3.05M","2.44%"
"Oct 25, 2018","41.77","41.29","42.19","40.78","3.30M","0.55%"
"Oct 26, 2018","39.07","41.78","41.78","38.87","9.02M","-6.46%"
"Oct 29, 2018","37.51","38.78","39.46","36.67","7.60M","-3.99%"
"Oct 30, 2018","36.18","37.64","37.69","35.83","6.65M","-3.55%"
"Oct 31, 2018","37.44","35.96","38.64","35.51","6.62M","3.48%"
"Nov 01, 2018","36.64","37.44","37.84","36.33","4.60M","-2.14%"
"Nov 05, 2018","37.45","36.84","37.97","36.51","5.29M","2.21%"
"Nov 06, 2018","36.97","37.86","38.52","36.46","5.53M","-1.28%"
"Nov 07, 2018","36.21","36.60","36.94","35.96","3.54M","-2.06%"
"Nov 08, 2018","35.09","36.31","36.50","35.09","5.50M","-3.09%"
"Nov 09, 2018","34.03","35.21","35.32","33.63","7.29M","-3.02%"
"Nov 12, 2018","33.83","34.16","34.86","33.33","4.36M","-0.59%"
"Nov 13, 2018","35.92","33.84","36.05","33.69","6.93M","6.18%"
"Nov 14, 2018","38.73","36.20","38.73","36.14","10.55M","7.82%"
"Nov 16, 2018","38.18","38.33","38.52","37.37","5.16M","-1.42%"
"Nov 19, 2018","36.99","38.48","39.00","36.79","5.11M","-3.12%"
"Nov 21, 2018","35.76","37.49","37.68","35.61","5.19M","-3.33%"
"Nov 22, 2018","37.51","35.85","37.51","35.16","3.13M","4.89%"
"Nov 23, 2018","36.75","37.49","37.51","36.28","4.63M","-2.03%"
"Nov 26, 2018","37.48","37.10","37.73","36.10","3.80M","1.99%"
"Nov 27, 2018","36.61","36.99","37.30","36.11","3.68M","-2.32%"
"Nov 28, 2018","36.34","36.72","36.80","35.85","4.72M","-0.74%"
"Nov 29, 2018","38.51","36.36","38.51","36.17","6.46M","5.97%"
"Nov 30, 2018","40.45","39.05","41.54","39.04","12.38M","5.04%"
"Dec 03, 2018","41.15","41.05","41.36","40.22","5.77M","1.73%"
"Dec 04, 2018","39.22","40.75","41.32","38.73","7.60M","-4.69%"
"Dec 05, 2018","39.36","39.34","39.96","38.85","3.09M","0.36%"
"Dec 06, 2018","38.81","39.57","39.68","37.90","3.97M","-1.40%"
"Dec 07, 2018","37.74","39.02","39.02","37.39","9.55M","-2.76%"
"Dec 10, 2018","36.85","37.74","38.25","36.64","4.60M","-2.36%"
"Dec 11, 2018","35.44","35.77","36.30","35.31","8.24M","-3.83%"
"Dec 12, 2018","35.90","35.66","36.30","35.48","3.59M","1.30%"
"Dec 13, 2018","37.16","35.99","37.19","35.81","4.99M","3.51%"
"Dec 14, 2018","36.70","36.89","37.64","36.49","4.26M","-1.24%"
"Dec 17, 2018","35.83","36.72","36.95","35.83","3.94M","-2.37%"
"Dec 18, 2018","37.04","35.83","37.38","35.75","4.68M","3.38%"
"Dec 19, 2018","36.49","37.04","37.98","36.49","5.30M","-1.48%"
"Dec 20, 2018","36.31","36.83","37.05","35.76","4.23M","-0.49%"
"Dec 21, 2018","38.38","36.43","38.38","36.37","6.72M","5.70%"
"Dec 26, 2018","38.33","38.18","38.81","37.74","2.76M","-0.13%"
"Dec 27, 2018","36.62","38.33","38.34","36.60","3.41M","-4.46%"
"Dec 28, 2018","37.67","36.81","37.67","36.22","3.98M","2.87%"
"Jan 02, 2019","38.18","37.54","39.06","37.15","4.90M","1.35%"
"Jan 03, 2019","36.55","35.52","38.09","35.23","24.43M","-4.27%"
"Jan 04, 2019","37.16","36.73","37.55","36.52","5.79M","1.67%"
"Jan 07, 2019","35.46","37.11","37.11","35.46","7.13M","-4.57%"
"Jan 08, 2019","35.81","35.61","36.05","35.39","5.27M","0.99%"
"Jan 09, 2019","37.95","35.69","37.95","35.69","6.62M","5.98%"
"Jan 10, 2019","38.44","37.64","39.47","37.02","6.90M","1.29%"
"Jan 11, 2019","38.44","39.32","39.32","38.26","5.49M","0.00%"
"Jan 14, 2019","38.58","37.92","39.20","37.92","5.93M","0.36%"
"Jan 15, 2019","41.84","39.22","41.84","39.00","11.26M","8.45%"
"Jan 16, 2019","43.68","42.04","44.36","42.04","11.54M","4.40%"
"Jan 17, 2019","42.50","43.88","44.36","42.17","10.28M","-2.70%"
"Jan 18, 2019","43.89","43.03","44.08","41.57","7.91M","3.27%"
"Jan 21, 2019","45.11","43.92","45.18","42.34","5.05M","2.78%"
"Jan 22, 2019","44.00","45.16","45.40","43.68","8.14M","-2.46%"
"Jan 23, 2019","45.34","44.17","46.00","44.10","6.81M","3.05%"
"Jan 24, 2019","47.43","45.50","47.43","45.40","7.33M","4.61%"
"Jan 28, 2019","48.55","46.89","48.90","46.32","8.29M","2.36%"
"Jan 29, 2019","47.49","48.83","49.25","47.30","7.09M","-2.18%"
"Jan 30, 2019","46.09","47.68","48.47","45.94","6.75M","-2.95%"
"Jan 31, 2019","45.50","45.78","47.40","44.90","10.11M","-1.28%"
"Feb 01, 2019","46.10","45.72","46.62","45.48","5.21M","1.32%"
"Feb 04, 2019","46.50","45.84","47.48","45.82","4.03M","0.87%"
"Feb 05, 2019","46.78","46.54","47.78","46.54","4.46M","0.60%"
"Feb 06, 2019","47.33","47.13","47.92","46.81","4.35M","1.18%"
"Feb 07, 2019","48.09","47.72","48.90","47.38","5.06M","1.61%"
"Feb 08, 2019","47.44","48.57","49.46","47.19","6.59M","-1.35%"
"Feb 11, 2019","46.18","47.48","48.13","45.87","4.65M","-2.66%"
"Feb 12, 2019","44.86","46.49","46.83","44.77","7.54M","-2.86%"
"Feb 13, 2019","45.37","45.18","46.15","44.48","5.72M","1.14%"
"Feb 14, 2019","44.56","45.57","45.99","44.23","6.93M","-1.79%"
"Feb 15, 2019","45.18","44.29","45.60","44.28","4.19M","1.39%"
"Feb 18, 2019","45.40","45.50","45.87","45.17","1.97M","0.49%"
"Feb 19, 2019","46.05","45.51","46.09","45.24","3.42M","1.43%"
"Feb 20, 2019","46.43","46.19","46.91","46.15","4.79M","0.83%"
"Feb 21, 2019","47.12","46.70","47.12","46.35","4.12M","1.49%"
"Feb 22, 2019","46.99","46.39","47.56","45.79","6.26M","-0.28%"
"Feb 25, 2019","47.48","46.84","48.09","46.76","4.07M","1.04%"
"Feb 26, 2019","49.75","48.07","49.95","48.04","8.76M","4.78%"
"Feb 27, 2019","47.60","49.75","49.78","47.50","6.19M","-4.32%"
"Feb 28, 2019","47.14","47.97","48.31","47.14","5.01M","-0.97%"
"Mar 01, 2019","48.03","47.36","48.82","47.34","4.58M","1.89%"
"Mar 06, 2019","47.67","48.66","49.14","47.63","3.75M","-0.75%"
"Mar 07, 2019","48.10","48.00","48.44","46.44","6.03M","0.90%"
"Mar 08, 2019","46.53","47.88","47.92","46.32","7.37M","-3.26%"
"Mar 11, 2019","46.84","46.64","47.28","46.53","2.48M","0.67%"
"Mar 12, 2019","45.72","47.15","47.16","45.72","3.49M","-2.39%"
"Mar 13, 2019","45.60","45.92","46.23","45.40","3.16M","-0.26%"
"Mar 14, 2019","45.50","45.69","46.00","45.20","3.30M","-0.22%"
"Mar 15, 2019","46.19","45.79","46.85","44.99","6.89M","1.52%"
"Mar 18, 2019","47.02","46.40","47.17","46.00","3.49M","1.80%"
"Mar 19, 2019","44.89","47.08","47.08","44.89","8.00M","-4.53%"
"Mar 20, 2019","43.39","45.11","45.54","43.39","6.65M","-3.34%"
"Mar 21, 2019","44.76","44.02","45.05","43.33","7.21M","3.16%"
"Mar 22, 2019","45.29","45.50","46.14","44.76","8.86M","1.18%"
"Mar 25, 2019","46.12","45.46","46.36","44.86","5.65M","1.83%"
"Mar 26, 2019","46.09","46.09","46.74","45.21","8.00M","-0.07%"
"Mar 27, 2019","46.96","46.50","47.29","46.00","7.29M","1.89%"
"Mar 28, 2019","45.90","46.70","46.92","45.22","6.63M","-2.26%"
"Mar 29, 2019","46.05","45.51","46.06","45.35","4.25M","0.33%"
"Apr 01, 2019","47.35","45.76","47.43","45.68","4.25M","2.82%"
"Apr 02, 2019","47.53","47.68","47.86","46.86","2.95M","0.38%"
"Apr 03, 2019","46.39","47.41","47.58","46.29","3.02M","-2.40%"
"Apr 04, 2019","44.95","46.00","46.00","44.71","5.06M","-3.10%"
"Apr 05, 2019","44.71","45.17","45.25","44.52","2.66M","-0.53%"
"Apr 08, 2019","44.90","44.93","45.22","44.51","2.25M","0.42%"
"Apr 09, 2019","44.22","44.81","45.11","43.64","3.25M","-1.51%"
"Apr 10, 2019","42.66","44.12","44.13","42.21","5.54M","-3.53%"
"Apr 11, 2019","42.43","42.83","43.42","42.10","3.34M","-0.54%"
"Apr 12, 2019","42.03","43.03","43.20","41.43","5.25M","-0.94%"
"Apr 15, 2019","41.99","42.21","42.62","41.39","4.06M","-0.10%"
"Apr 16, 2019","41.11","41.92","42.30","41.00","3.81M","-2.10%"
"Apr 17, 2019","40.85","41.44","41.44","40.41","11.38M","-0.63%"
"Apr 18, 2019","40.59","40.93","41.13","40.18","4.90M","-0.64%"
"Apr 22, 2019","40.65","40.48","41.52","40.25","2.60M","0.15%"
"Apr 23, 2019","41.01","40.82","41.29","40.38","4.69M","0.89%"
"Apr 24, 2019","41.69","41.21","41.70","40.30","6.03M","1.66%"
"Apr 25, 2019","43.34","42.00","43.34","41.08","7.11M","3.96%"
"Apr 26, 2019","42.75","43.34","43.35","42.29","5.77M","-1.36%"
"Apr 29, 2019","42.51","42.91","43.00","42.34","4.00M","-0.56%"
"Apr 30, 2019","40.73","42.50","42.51","40.73","5.99M","-4.19%"
"May 02, 2019","41.94","40.95","42.18","40.64","5.28M","2.97%"
"May 03, 2019","41.99","41.45","41.99","40.95","9.58M","0.12%"
"May 06, 2019","41.33","42.20","42.25","41.16","2.98M","-1.57%"
"May 07, 2019","40.99","41.25","41.43","40.32","3.57M","-0.82%"
"May 08, 2019","41.28","41.12","41.45","40.62","2.94M","0.71%"
"May 09, 2019","44.16","41.62","44.16","41.51","9.13M","6.98%"
"May 10, 2019","40.31","42.75","42.75","40.31","12.02M","-8.72%"
"May 13, 2019","38.13","40.35","40.41","37.51","8.89M","-5.41%"
"May 14, 2019","37.45","38.17","38.45","37.25","7.86M","-1.78%"
"May 15, 2019","36.80","37.09","37.22","36.37","7.12M","-1.74%"
"May 16, 2019","35.82","36.54","36.90","35.82","8.14M","-2.66%"
"May 17, 2019","38.00","35.60","38.10","35.28","12.39M","6.09%"
"May 20, 2019","37.27","37.68","38.07","36.90","8.42M","-1.92%"
"May 21, 2019","36.98","37.35","37.53","36.78","10.98M","-0.78%"
"May 22, 2019","37.35","37.15","38.10","36.84","5.22M","1.00%"
"May 23, 2019","36.81","37.25","38.06","36.74","4.76M","-1.45%"
"May 24, 2019","34.09","37.01","37.02","34.02","19.25M","-7.39%"
"May 27, 2019","34.41","34.40","35.24","34.15","5.95M","0.94%"
"May 28, 2019","34.48","34.35","35.13","33.51","9.96M","0.20%"
"May 29, 2019","33.25","34.41","34.80","33.15","8.63M","-3.57%"
"May 30, 2019","33.30","33.31","33.69","32.41","6.96M","0.15%"
"May 31, 2019","32.08","33.20","33.66","31.85","9.45M","-3.66%"
"Jun 03, 2019","31.25","32.28","32.60","30.91","10.03M","-2.59%"
"Jun 04, 2019","30.74","30.94","31.32","30.35","12.92M","-1.63%"
"Jun 05, 2019","30.45","30.85","31.16","30.20","8.50M","-0.94%"
"Jun 06, 2019","29.95","30.68","30.68","29.70","8.00M","-1.64%"
"Jun 07, 2019","30.36","29.72","30.90","29.17","6.96M","1.37%"
"Jun 10, 2019","30.77","30.50","30.90","30.24","4.36M","1.35%"
"Jun 11, 2019","30.85","30.99","31.10","30.32","7.31M","0.26%"
"Jun 12, 2019","30.26","30.97","30.98","30.25","7.55M","-1.91%"
"Jun 13, 2019","31.93","30.42","32.32","30.12","10.66M","5.52%"
"Jun 14, 2019","32.50","31.96","32.50","31.42","7.39M","1.79%"
"Jun 17, 2019","32.90","32.66","33.65","32.35","8.60M","1.23%"
"Jun 18, 2019","33.38","32.89","33.38","32.63","6.80M","1.46%"
"Jun 19, 2019","33.00","33.55","33.80","32.88","8.14M","-1.14%"
"Jun 21, 2019","33.76","33.10","33.76","32.61","6.18M","2.30%"
"Jun 24, 2019","34.52","33.71","35.00","33.51","9.08M","2.25%"
"Jun 25, 2019","33.60","34.60","34.98","33.45","6.61M","-2.67%"
"Jun 26, 2019","33.39","33.60","34.20","33.22","5.75M","-0.62%"
"Jun 27, 2019","33.78","33.41","33.86","33.27","6.63M","1.17%"
"Jun 28, 2019","32.85","33.70","33.80","32.17","10.45M","-2.75%"
"Jul 01, 2019","31.57","32.70","32.85","31.56","9.47M","-3.90%"
"Jul 02, 2019","31.00","31.68","31.92","30.73","11.31M","-1.81%"
"Jul 03, 2019","31.20","30.90","31.61","30.37","6.33M","0.65%"
"Jul 04, 2019","31.75","31.00","31.78","30.98","6.43M","1.76%"
"Jul 05, 2019","32.70","32.01","33.30","32.01","10.33M","2.99%"
"Jul 08, 2019","32.55","32.60","32.92","32.00","5.78M","-0.46%"
"Jul 10, 2019","31.50","32.35","32.55","31.50","9.65M","-3.23%"
"Jul 11, 2019","31.05","31.39","31.47","31.05","5.44M","-1.43%"
"Jul 12, 2019","32.00","31.15","32.38","31.12","6.13M","3.06%"
"Jul 15, 2019","32.90","32.30","33.00","32.08","6.93M","2.81%"
"Jul 16, 2019","33.67","32.90","34.15","32.90","13.22M","2.34%"
"Jul 17, 2019","34.75","33.89","34.87","33.42","13.65M","3.21%"
"Jul 18, 2019","34.48","34.65","35.16","33.90","10.48M","-0.78%"
"Jul 19, 2019","33.08","34.40","34.40","32.90","10.64M","-4.06%"
"Jul 22, 2019","32.69","32.86","33.04","32.35","4.88M","-1.18%"
"Jul 23, 2019","32.07","32.59","32.69","31.97","5.85M","-1.90%"
"Jul 24, 2019","32.05","31.95","32.55","31.85","5.24M","-0.06%"
"Jul 25, 2019","31.72","32.20","32.46","31.31","5.78M","-1.03%"
"Jul 26, 2019","31.20","31.89","31.95","30.90","7.56M","-1.64%"
"Jul 29, 2019","30.67","31.28","31.40","30.45","6.19M","-1.70%"
"Jul 30, 2019","31.09","30.85","31.50","30.40","4.47M","1.37%"
"Jul 31, 2019","30.67","31.38","31.38","30.51","6.49M","-1.35%"
"Aug 01, 2019","30.65","30.67","31.25","30.15","9.81M","-0.07%"
"Aug 02, 2019","30.21","30.50","32.17","29.96","13.97M","-1.44%"
"Aug 05, 2019","30.15","30.16","30.55","29.29","6.56M","-0.20%"
"Aug 06, 2019","30.27","30.11","30.35","29.75","5.39M","0.40%"
"Aug 07, 2019","30.40","30.40","30.66","29.81","4.94M","0.43%"
"Aug 08, 2019","31.10","30.60","31.43","30.37","5.67M","2.30%"
"Aug 09, 2019","30.46","32.21","32.59","30.16","16.36M","-2.06%"
"Aug 12, 2019","30.84","30.50","31.19","30.19","5.74M","1.25%"
"Aug 13, 2019","32.65","30.75","32.70","30.75","15.61M","5.87%"
"Aug 14, 2019","32.06","32.55","33.30","31.88","10.79M","-1.81%"
"Aug 15, 2019","31.84","32.00","32.44","31.13","5.48M","-0.69%"
"Aug 16, 2019","32.04","32.05","32.38","31.35","5.83M","0.63%"
"Aug 19, 2019","31.93","32.00","32.28","31.66","4.87M","-0.34%"
"Aug 20, 2019","31.15","31.85","32.26","30.95","8.88M","-2.44%"
"Aug 21, 2019","30.40","31.35","31.48","30.35","8.88M","-2.41%"
"Aug 22, 2019","29.40","30.50","30.77","29.40","8.48M","-3.29%"
"Aug 23, 2019","28.00","29.26","29.37","27.55","16.57M","-4.76%"
"Aug 26, 2019","28.04","28.25","28.52","27.59","7.17M","0.14%"
"Aug 27, 2019","28.52","28.00","28.70","27.92","8.51M","1.71%"
"Aug 28, 2019","28.72","28.39","28.79","28.04","4.81M","0.70%"
"Aug 29, 2019","29.00","28.90","29.71","28.75","6.53M","0.97%"
"Aug 30, 2019","29.08","29.20","29.50","28.62","7.22M","0.28%"
"Sep 02, 2019","29.14","29.05","29.38","28.87","3.25M","0.21%"
"Sep 03, 2019","28.62","29.20","29.27","28.41","4.20M","-1.78%"
"Sep 04, 2019","28.75","28.99","29.14","28.50","5.66M","0.45%"
"Sep 05, 2019","29.55","29.01","30.06","28.95","10.92M","2.78%"
"Sep 06, 2019","29.67","29.83","30.09","29.47","3.91M","0.41%"
"Sep 09, 2019","31.62","29.70","31.62","29.38","11.51M","6.57%"
"Sep 10, 2019","31.29","31.90","32.63","31.15","8.53M","-1.04%"
"Sep 11, 2019","30.92","31.22","31.90","30.66","6.73M","-1.18%"
"Sep 12, 2019","32.55","31.20","32.68","31.04","8.34M","5.27%"
"Sep 13, 2019","33.30","32.65","33.62","32.65","11.34M","2.30%"
"Sep 16, 2019","34.28","32.55","34.28","31.96","8.27M","2.94%"
"Sep 17, 2019","34.10","33.95","34.31","33.50","5.17M","-0.53%"
"Sep 18, 2019","33.79","33.83","34.13","33.21","6.13M","-0.91%"
"Sep 19, 2019","32.99","34.00","34.09","32.99","5.35M","-2.37%"
"Sep 20, 2019","31.90","32.97","32.97","31.55","18.04M","-3.30%"
"Sep 23, 2019","32.99","31.90","33.20","31.90","8.14M","3.42%"
"Sep 24, 2019","32.41","32.87","33.28","32.38","4.31M","-1.76%"
"Sep 25, 2019","33.40","32.30","33.70","32.11","5.22M","3.05%"
"Sep 26, 2019","33.34","33.50","33.55","32.84","6.79M","-0.18%"
"Sep 27, 2019","33.75","33.20","34.09","33.06","4.80M","1.23%"
"Sep 30, 2019","33.65","33.80","33.89","33.00","5.12M","-0.30%"
"Oct 01, 2019","33.65","33.65","33.95","33.16","4.85M","0.00%"
"Oct 02, 2019","32.78","33.42","33.49","32.50","3.80M","-2.59%"
"Oct 03, 2019","32.33","32.61","32.74","31.94","4.36M","-1.37%"
"Oct 04, 2019","32.83","32.33","33.09","32.04","5.74M","1.55%"
"Oct 07, 2019","32.25","32.70","32.70","32.00","3.85M","-1.77%"
"Oct 08, 2019","31.64","32.28","32.46","31.60","3.80M","-1.89%"
"Oct 09, 2019","32.23","31.64","32.42","31.57","2.50M","1.86%"
"Oct 10, 2019","33.95","32.11","34.09","32.06","9.32M","5.34%"
"Oct 11, 2019","35.24","34.14","35.50","34.10","10.49M","3.80%"
"Oct 14, 2019","34.82","34.99","35.88","34.62","5.80M","-1.19%"
"Oct 15, 2019","35.11","34.60","35.33","34.16","4.03M","0.83%"
"Oct 16, 2019","34.43","35.42","35.74","34.31","5.52M","-1.94%"
"Oct 17, 2019","34.09","34.69","34.74","33.83","4.61M","-0.99%"
"Oct 18, 2019","33.81","34.00","34.45","33.63","3.91M","-0.82%"
"Oct 21, 2019","34.88","33.85","34.89","33.83","4.68M","3.16%"
"Oct 22, 2019","34.92","35.16","35.71","34.76","8.00M","0.11%"
"Oct 23, 2019","34.50","35.05","35.14","34.42","5.04M","-1.20%"
"Oct 24, 2019","32.96","34.24","34.26","32.96","8.12M","-4.46%"
"Oct 25, 2019","32.70","32.93","33.36","32.57","4.63M","-0.79%"
"Oct 28, 2019","32.68","32.88","33.15","32.68","2.61M","-0.06%"
"Oct 29, 2019","32.72","32.81","32.99","32.52","2.41M","0.12%"
"Oct 30, 2019","32.30","32.69","32.93","32.08","3.38M","-1.28%"
"Oct 31, 2019","32.64","32.20","33.04","31.86","6.55M","1.05%"
"Nov 01, 2019","35.01","33.00","35.50","33.00","21.88M","7.26%"
"Nov 04, 2019","36.44","34.90","36.44","34.51","9.88M","4.08%"
"Nov 05, 2019","37.16","36.50","37.58","35.70","10.44M","1.98%"
"Nov 06, 2019","36.95","37.14","37.50","36.39","8.26M","-0.57%"
"Nov 07, 2019","38.26","37.05","38.89","36.92","12.17M","3.55%"
"Nov 08, 2019","38.00","38.00","38.70","37.50","6.80M","-0.68%"
"Nov 11, 2019","38.24","37.90","38.41","37.30","5.86M","0.63%"
"Nov 12, 2019","38.24","38.25","39.26","37.92","7.45M","0.00%"
"Nov 13, 2019","37.64","38.24","38.60","37.45","6.71M","-1.57%"
"Nov 14, 2019","36.65","37.80","37.95","36.21","5.43M","-2.63%"
"Nov 18, 2019","37.82","36.91","37.92","36.35","8.21M","3.19%"
"Nov 19, 2019","37.92","38.00","38.55","37.62","3.91M","0.26%"
"Nov 21, 2019","38.23","37.90","38.33","37.40","3.71M","0.82%"
"Nov 22, 2019","38.31","38.23","38.69","37.87","5.91M","0.21%"
"Nov 25, 2019","38.00","38.62","38.62","37.87","3.91M","-0.81%"
"Nov 26, 2019","38.08","38.12","38.79","37.80","8.82M","0.21%"
"Nov 27, 2019","39.10","38.20","39.42","38.05","5.98M","2.68%"
"Nov 28, 2019","38.57","39.14","39.50","38.42","4.11M","-1.36%"
"Nov 29, 2019","38.56","38.40","38.84","37.91","4.84M","-0.03%"
"Dec 02, 2019","38.80","38.56","39.15","38.38","3.02M","0.62%"
"Dec 03, 2019","38.95","38.55","38.95","38.26","3.91M","0.39%"
"Dec 04, 2019","37.91","38.95","38.95","37.64","5.00M","-2.67%"
"Dec 05, 2019","38.00","37.90","38.70","37.64","4.07M","0.24%"
"Dec 06, 2019","38.20","38.10","38.65","37.94","3.73M","0.53%"
"Dec 09, 2019","37.78","38.10","38.67","37.70","3.14M","-1.10%"
"Dec 10, 2019","38.09","37.80","38.46","37.74","3.48M","0.82%"
"Dec 11, 2019","39.18","37.76","39.34","37.72","5.54M","2.86%"
"Dec 12, 2019","39.16","39.35","39.78","39.00","3.06M","-0.05%"
"Dec 13, 2019","38.88","39.50","39.88","38.64","3.85M","-0.72%"
"Dec 16, 2019","39.20","39.00","39.79","38.93","3.80M","0.82%"
"Dec 17, 2019","40.03","39.20","40.34","39.20","6.01M","2.12%"
"Dec 18, 2019","39.57","40.25","40.25","39.00","7.94M","-1.15%"
"Dec 19, 2019","39.67","39.58","39.86","39.01","3.84M","0.25%"
"Dec 20, 2019","40.18","39.70","40.50","39.21","5.48M","1.29%"
"Dec 23, 2019","40.04","40.25","40.56","39.47","3.00M","-0.35%"
"Dec 26, 2019","40.72","40.04","40.79","39.55","2.79M","1.70%"
"Dec 27, 2019","40.00","40.72","40.95","39.64","3.39M","-1.77%"
"Dec 30, 2019","39.68","40.00","40.56","39.68","2.38M","-0.80%"
"Jan 02, 2020","40.79","40.05","40.82","39.80","3.98M","2.80%"
"Jan 03, 2020","40.65","40.22","41.36","40.20","4.47M","-0.34%"
"Jan 06, 2020","40.58","40.36","41.20","40.11","4.30M","-0.17%"
"Jan 07, 2020","41.10","40.62","41.33","40.08","3.62M","1.28%"
"Jan 08, 2020","43.15","41.30","43.21","41.01","9.73M","4.99%"
"Jan 09, 2020","43.04","43.14","43.58","42.60","8.25M","-0.25%"
"Jan 10, 2020","43.11","43.10","43.50","42.95","4.51M","0.16%"
"Jan 13, 2020","44.70","43.50","44.91","43.26","8.94M","3.69%"
"Jan 14, 2020","44.25","44.75","45.05","44.20","5.94M","-1.01%"
"Jan 15, 2020","44.94","44.10","45.27","43.84","5.81M","1.56%"
"Jan 16, 2020","44.30","45.10","45.25","43.81","5.23M","-1.42%"
"Jan 17, 2020","43.78","44.03","44.50","43.43","6.92M","-1.17%"
"Jan 20, 2020","42.95","43.80","43.93","42.40","5.25M","-1.90%"
"Jan 21, 2020","42.70","43.00","43.17","42.31","5.30M","-0.58%"
"Jan 22, 2020","44.85","43.00","44.85","42.89","4.58M","5.04%"
"Jan 23, 2020","44.45","44.40","44.85","43.50","4.18M","-0.89%"
"Jan 24, 2020","43.87","44.45","44.62","43.33","3.68M","-1.30%"
"Jan 27, 2020","40.93","42.45","42.63","40.89","8.42M","-6.70%"
"Jan 28, 2020","41.65","41.30","42.20","41.14","5.07M","1.76%"
"Jan 29, 2020","41.02","42.10","42.21","40.93","4.19M","-1.51%"
"Jan 30, 2020","40.51","40.00","40.52","39.66","6.89M","-1.24%"
"Jan 31, 2020","39.67","39.99","40.45","39.44","4.97M","-2.07%"
"Feb 03, 2020","39.50","38.97","40.00","38.40","7.20M","-0.43%"
"Feb 04, 2020","38.89","39.82","40.30","38.66","5.05M","-1.54%"
"Feb 05, 2020","38.40","39.80","39.98","37.90","7.07M","-1.26%"
"Feb 06, 2020","38.90","38.92","39.22","38.22","4.90M","1.30%"
"Feb 07, 2020","37.64","38.90","38.96","37.64","3.38M","-3.24%"
"Feb 10, 2020","37.00","37.69","38.12","36.40","6.61M","-1.70%"
"Feb 11, 2020","38.49","37.15","38.54","36.91","4.95M","4.03%"
"Feb 12, 2020","40.00","38.54","40.42","38.50","8.68M","3.92%"
"Feb 13, 2020","41.30","39.50","42.07","39.05","14.33M","3.25%"
"Feb 14, 2020","39.81","41.60","41.80","39.56","8.25M","-3.61%"
"Feb 17, 2020","40.00","40.00","41.34","39.70","3.45M","0.48%"
"Feb 18, 2020","40.10","40.05","40.68","39.00","4.44M","0.25%"
"Feb 19, 2020","40.17","39.80","40.84","39.50","3.51M","0.17%"
"Feb 20, 2020","40.19","40.14","40.95","39.70","4.31M","0.05%"
"Feb 21, 2020","41.42","40.11","41.42","39.84","5.93M","3.06%"
"Feb 26, 2020","38.60","39.50","40.06","38.38","8.65M","-6.81%"
"Feb 27, 2020","38.13","38.38","39.08","37.81","7.93M","-1.22%"
"Feb 28, 2020","38.14","37.81","38.14","36.69","8.40M","0.03%"
"Mar 02, 2020","39.65","38.70","39.96","38.13","4.64M","3.96%"
"Mar 03, 2020","39.94","39.30","41.80","39.06","7.19M","0.73%"
"Mar 04, 2020","43.54","41.30","43.75","40.60","12.58M","9.01%"
"Mar 05, 2020","42.62","42.76","44.28","41.95","9.59M","-2.11%"
"Mar 06, 2020","40.03","41.83","42.09","40.03","9.73M","-6.08%"
"Mar 09, 2020","37.95","39.00","39.00","37.17","8.59M","-5.20%"
"Mar 10, 2020","38.86","38.70","39.71","36.85","9.52M","2.40%"
"Mar 11, 2020","35.46","38.22","38.77","33.22","10.42M","-8.75%"
"Mar 12, 2020","29.74","32.00","33.70","29.03","19.22M","-16.13%"
"Mar 13, 2020","31.58","32.20","33.27","28.63","17.03M","6.19%"
"Mar 16, 2020","28.37","28.84","31.58","27.55","12.38M","-10.16%"
"Mar 17, 2020","28.00","28.70","31.15","27.46","13.50M","-1.30%"
"Mar 18, 2020","24.62","27.30","29.00","23.26","9.43M","-12.07%"
"Mar 19, 2020","27.33","23.80","27.60","22.68","13.80M","11.01%"
"Mar 20, 2020","27.39","28.20","29.00","25.39","12.19M","0.22%"
"Mar 23, 2020","28.80","27.93","29.29","25.24","12.09M","5.15%"
"Mar 24, 2020","28.90","30.05","30.46","28.38","7.89M","0.35%"
"Mar 25, 2020","29.35","28.62","31.25","28.50","6.25M","1.56%"
"Mar 26, 2020","28.05","29.89","30.15","27.51","9.92M","-4.43%"
"Mar 27, 2020","32.87","27.00","34.66","26.87","15.34M","17.18%"
"Mar 30, 2020","33.99","34.02","35.99","33.53","10.40M","3.41%"
"Mar 31, 2020","35.79","34.92","37.39","34.02","9.81M","5.30%"
"Apr 01, 2020","37.38","34.50","37.40","33.97","10.75M","4.44%"
"Apr 02, 2020","39.90","38.50","40.43","37.28","14.36M","6.74%"
"Apr 03, 2020","39.80","40.40","40.84","37.25","14.55M","-0.25%"
"Apr 06, 2020","40.02","40.63","41.37","39.30","9.34M","0.55%"
"Apr 07, 2020","37.19","40.91","41.40","36.82","12.09M","-7.07%"
"Apr 08, 2020","37.96","37.35","38.25","35.25","8.64M","2.07%"
"Apr 09, 2020","35.40","38.14","38.44","35.20","10.56M","-6.74%"
"Apr 13, 2020","36.37","35.40","37.00","34.81","6.07M","2.74%"
"Apr 14, 2020","38.00","36.73","38.38","36.48","4.54M","4.48%"
"Apr 15, 2020","37.23","37.60","38.71","36.35","7.93M","-2.03%"
"Apr 16, 2020","36.18","37.50","37.73","35.50","6.86M","-2.82%"
"Apr 17, 2020","35.84","36.74","37.00","35.34","4.41M","-0.94%"