result,data
0.9155991089240452,"Jan 04, 2010"
0.994514046753991,"Feb 01, 2010"
1.136086089973534,"Mar 01, 2010"
0.9518854011427452,"Apr 01, 2010"
0.9429699310575417,"May 03, 2010"
1.0593510373960457,"Jun 01, 2010"
1.0819953640516309,"Jul 01, 2010"
0.9913107288382068,"Aug 02, 2010"
1.0647437591740212,"Sep 01, 2010"
1.0184166702831021,"Oct 01, 2010"
1.0104245640240543,"Nov 01, 2010"
1.009797982367096,"Dec 01, 2010"
0.9589598217956347,"Jan 03, 2011"
1.045187828108234,"Jan 31, 2011"
1.0260110990462958,"Mar 01, 2011"
1.047830372898027,"Mar 31, 2011"
0.9982182801195623,"May 02, 2011"
0.9258110806580496,"May 31, 2011"
0.9378103084509989,"Jul 01, 2011"
0.8156254091015978,"Aug 01, 2011"
0.9513359209521796,"Aug 31, 2011"
1.1310201762717638,"Oct 03, 2011"
1.4286311396745783,"Jun 01, 2016"
1.1282942607804827,"Jul 01, 2016"
0.9973422996318299,"Aug 01, 2016"
1.0130134483510855,"Sep 01, 2016"
1.168548278404686,"Oct 03, 2016"
0.8837390195247512,"Nov 01, 2016"
0.9022652022176161,"Dec 01, 2016"
1.0631954280188236,"Jan 02, 2017"
1.0365345062313867,"Feb 01, 2017"
0.9809528852926956,"Mar 01, 2017"
1.036601842447657,"Apr 03, 2017"
0.9186543236937214,"Jul 01, 2015"
0.9415685651925308,"Jul 31, 2015"
1.0388146972573977,"Aug 31, 2015"
1.0106483796650392,"Oct 01, 2015"
1.0587689392693487,"Nov 03, 2015"
0.9012322372725388,"Dec 01, 2015"
0.9321279072943556,"Jan 04, 2016"
1.105804231999386,"Feb 01, 2016"
1.2491778534192155,"Mar 01, 2016"
1.0449742024409894,"Mar 31, 2016"
0.8752749802082,"May 02, 2016"
0.9636076372675793,"May 02, 2017"
0.9925647255519001,"May 31, 2017"
1.045945232625259,"Jul 03, 2017"
1.1121396993313615,"Jul 31, 2017"
1.0124040362801843,"Aug 31, 2017"
0.9984616931387833,"Oct 02, 2017"
0.9636299491954614,"Oct 31, 2017"
1.0622373306081843,"Dec 01, 2017"
1.083253853514097,"Jan 02, 2018"
0.9657676859349045,"Jan 31, 2018"
0.9536073257277402,"Mar 01, 2018"
1.0158632648242651,"Oct 01, 2012"
1.0251492803221476,"Oct 31, 2012"
1.0278667129442893,"Dec 03, 2012"
1.0326765613815596,"Jan 02, 2013"
0.9771037110959013,"Jan 31, 2013"
0.9930141845455478,"Mar 01, 2013"
0.998171827650707,"Apr 01, 2013"
0.9811691042915553,"May 02, 2013"
0.8793115541297505,"May 31, 2013"
0.9990578226394887,"Jul 01, 2013"
1.0685380885848308,"Jul 31, 2013"
0.9951119845603683,"Nov 01, 2011"
1.0107533507040198,"Dec 01, 2011"
1.122953511040597,"Jan 02, 2012"
1.0492349834221966,"Feb 01, 2012"
0.9004183431499504,"Mar 01, 2012"
0.9856541722096835,"Apr 02, 2012"
0.7669609128568623,"May 02, 2012"
1.0361961477767807,"Jun 01, 2012"
1.087639192891975,"Jul 02, 2012"
1.0426319616004716,"Aug 01, 2012"
1.0703593121289914,"Sep 03, 2012"
1.0165761734232255,"Apr 02, 2018"
0.912803425819152,"May 02, 2018"
0.9671362672326317,"Jun 01, 2018"
0.9974661473166819,"Jul 02, 2018"
0.9552476353260486,"Aug 01, 2018"
0.9522599393763972,"Sep 03, 2018"
1.3110414245412936,"Oct 01, 2018"
1.000168378316152,"Nov 01, 2018"
0.9953083317818824,"Dec 03, 2018"
1.0761071263405686,"Dec 28, 2018"
1.0580417997735136,"Sep 02, 2013"
1.058139807461789,"Oct 01, 2013"
0.9522574269812841,"Nov 01, 2013"
1.0423261702388944,"Dec 02, 2013"
0.948269815680012,"Jan 02, 2014"
0.9466287061635574,"Feb 03, 2014"
1.0859806529302445,"Mar 05, 2014"
0.999911796300698,"Apr 01, 2014"
1.0177199581480243,"May 02, 2014"
0.9755699230107622,"Jun 02, 2014"
0.9833344178434582,"Jul 01, 2014"
0.9366609932842507,"Aug 01, 2014"
0.9739922240133431,"Sep 01, 2014"
0.9918591560401699,"Oct 01, 2014"
1.1155362278986027,"Nov 03, 2014"
0.9615321198842657,"Dec 01, 2014"
0.8864658402323148,"Jan 02, 2015"
1.1232861658224687,"Feb 02, 2015"
1.0795396917357927,"Mar 02, 2015"
1.0710525494513852,"Apr 01, 2015"
0.8917599724695658,"May 04, 2015"
1.0235927658651038,"Jun 01, 2015"
0.95267338169917,"Feb 01, 2019"
0.9741156219606082,"Mar 01, 2019"
0.9644913534176597,"Apr 01, 2019"
1.0587890081205336,"May 02, 2019"
1.0190594972361857,"Jun 03, 2019"
0.9824578164248378,"Jul 01, 2019"
0.9691951602310204,"Aug 01, 2019"
1.0459775502765007,"Sep 02, 2019"
1.0479951559602125,"Oct 01, 2019"
1.001012033176542,"Nov 01, 2019"